{"commentary": {"count": 307, "pageIndex": 13, "pageSize": 25, "pageCount": 13, "items": [{"id": "148060", "clock": "00:00", "date": "2019-02-20T11:00", "playType": {"id": "4", "description": "six"}, "team": {"id": "5", "name": "New Zealand", "abbreviation": "NZ", "displayName": "New Zealand"}, "mediaId": 0, "period": 1, "periodText": "1st innings", "preText": "", "text": "full toss and Santner gets under it and picks Mustafizur up over deep midwicket to dent his figures further", "postText": "", "shortText": "Mustafizur Rahman to Santner, SIX runs", "homeScore": "319/6", "awayScore": "0", "scoreValue": 6, "sequence": 104806, "athletesInvolved": [{"id": "330902", "name": "Mustafizur Rahman", "shortName": "Mustafizur", "displayName": "Mustafizur Rahman"}, {"id": "502714", "name": "Mitchell Santner", "shortName": "Santner", "displayName": "Mitchell Santner"}], "speedKPH": "", "speedMPH": "", "bowler": {"athlete": {"id": "330902", "name": "Mustafizur Rahman", "shortName": "Mustafizur", "fullName": "Mustafizur Rahman", "displayName": "Mustafizur Rahman"}, "team": {"id": "25", "name": "Bangladesh", "abbreviation": "BDESH", "displayName": "Bangladesh"}, "maidens": 0, "balls": 60, "wickets": 2, "overs": 10.0, "conceded": 93}, "otherBowler": {"athlete": {"id": "629070", "name": "Mohammad Saifuddin", "shortName": "Saifuddin", "fullName": "Mohammad Saifuddin", "displayName": "Mohammad Saifuddin"}, "team": {"id": "25", "name": "Bangladesh", "abbreviation": "BDESH", "displayName": "Bangladesh"}, "maidens": 0, "balls": 54, "wickets": 1, "overs": 9.0, "conceded": 37}, "batsman": {"athlete": {"id": "502714", "name": "Mitchell Santner", "shortName": "Santner", "fullName": "Mitchell Josef Santner", "displayName": "Mitchell Santner"}, "team": {"id": "5", "name": "New Zealand", "abbreviation": "NZ", "displayName": "New Zealand"}, "totalRuns": 11, "faced": 6, "fours": 0, "runs": 319, "sixes": 1}, "otherBatsman": {"athlete": {"id": "55395", "name": "Colin de Grandhomme", "shortName": "Colin", "fullName": "Colin de Grandhomme", "displayName": "Colin de Grandhomme"}, "team": {"id": "5", "name": "New Zealand", "abbreviation": "NZ", "displayName": "New Zealand"}, "totalRuns": 31, "faced": 12, "fours": 3, "runs": 0, "sixes": 2}, "innings": {"id": "213133", "runRate": 6.51, "remainingBalls": 6, "byes": 0, "number": 1, "balls": 294, "noBalls": 0, "wickets": 6, "legByes": 0, "ballLimit": 300, "target": 0, "session": 1, "day": 1, "fallOfWickets": 0, "remainingOvers": 1.0, "totalRuns": 6, "wides": 0, "runs": 319}, "over": {"ball": 6, "balls": 6, "complete": true, "limit": 50.0, "maiden": 0, "noBall": 0, "wide": 0, "byes": 0, "legByes": 0, "number": 49, "runs": 18, "wickets": 0, "overs": 48.6, "actual": 48.6, "unique": 48.06}, "dismissal": {"dismissal": false, "bowled": false, "type": "", "bowler": {"athlete": {"id": "330902", "name": "Mustafizur Rahman", "shortName": "Mustafizur", "fullName": "Mustafizur Rahman", "displayName": "Mustafizur Rahman"}}, "batsman": {"athlete": {"id": "502714", "name": "Mitchell Santner", "shortName": "Santner", "fullName": "Mitchell Josef Santner", "displayName": "Mitchell Santner"}}, "fielder": {"athlete": {}}, "minutes": 0, "retiredText": ""}}, {"id": "149010", "clock": "00:00", "date": "2019-02-20T11:00", "playType": {"id": "1", "description": "run"}, "team": {"id": "5", "name": "New Zealand", "abbreviation": "NZ", "displayName": "New Zealand"}, "mediaId": 0, "period": 1, "periodText": "1st innings", "preText": "", "text": "full outside off, shuffles across but only manages to push it to long-on", "postText": "", "shortText": "Mohammad Saifuddin to de Grandhomme, 1 run", "homeScore": "320/6", "awayScore": "0", "scoreValue": 1, "sequence": 104901, "athletesInvolved": [{"id": "55395", "name": "Colin de Grandhomme", "shortName": "Colin", "displayName": "Colin de Grandhomme"}, {"id": "629070", "name": "Mohammad Saifuddin", "shortName": "Saifuddin", "displayName": "Mohammad Saifuddin"}], "speedKPH": "", "speedMPH": "", "bowler": {"athlete": {"id": "629070", "name": "Mohammad Saifuddin", "shortName": "Saifuddin", "fullName": "Mohammad Saifuddin", "displayName": "Mohammad Saifuddin"}, "team": {"id": "25", "name": "Bangladesh", "abbreviation": "BDESH", "displayName": "Bangladesh"}, "maidens": 0, "balls": 55, "wickets": 1, "overs": 9.1, "conceded": 38}, "otherBowler": {"athlete": {"id": "330902", "name": "Mustafizur Rahman", "shortName": "Mustafizur", "fullName": "Mustafizur Rahman", "displayName": "Mustafizur Rahman"}, "team": {"id": "25", "name": "Bangladesh", "abbreviation": "BDESH", "displayName": "Bangladesh"}, "maidens": 0, "balls": 60, "wickets": 2, "overs": 10.0, "conceded": 93}, "batsman": {"athlete": {"id": "55395", "name": "Colin de Grandhomme", "shortName": "Colin", "fullName": "Colin de Grandhomme", "displayName": "Colin de Grandhomme"}, "team": {"id": "5", "name": "New Zealand", "abbreviation": "NZ", "displayName": "New Zealand"}, "totalRuns": 32, "faced": 13, "fours": 3, "runs": 320, "sixes": 2}, "otherBatsman": {"athlete": {"id": "502714", "name": "Mitchell Santner", "shortName": "Santner", "fullName": "Mitchell Josef Santner", "displayName": "Mitchell Santner"}, "team": {"id": "5", "name": "New Zealand", "abbreviation": "NZ", "displayName": "New Zealand"}, "totalRuns": 11, "faced": 6, "fours": 0, "runs": 0, "sixes": 1}, "innings": {"id": "213133", "runRate": 6.5, "remainingBalls": 5, "byes": 0, "number": 1, "balls": 295, "noBalls": 0, "wickets": 6, "legByes": 0, "ballLimit": 300, "target": 0, "session": 1, "day": 1, "fallOfWickets": 0, "remainingOvers": 0.5, "totalRuns": 1, "wides": 0, "runs": 320}, "over": {"ball": 1, "balls": 6, "complete": false, "limit": 50.0, "maiden": 0, "noBall": 0, "wide": 0, "byes": 0, "legByes": 0, "number": 50, "runs": 11, "wickets": 0, "overs": 49.1, "actual": 49.1, "unique": 49.01}, "dismissal": {"dismissal": false, "bowled": false, "type": "", "bowler": {"athlete": {"id": "629070", "name": "Mohammad Saifuddin", "shortName": "Saifuddin", "fullName": "Mohammad Saifuddin", "displayName": "Mohammad Saifuddin"}}, "batsman": {"athlete": {"id": "55395", "name": "Colin de Grandhomme", "shortName": "Colin", "fullName": "Colin de Grandhomme", "displayName": "Colin de Grandhomme"}}, "fielder": {"athlete": {}}, "minutes": 0, "retiredText": ""}}, {"id": "149020", "clock": "00:00", "date": "2019-02-20T11:00", "playType": {"id": "1", "description": "run"}, "team": {"id": "5", "name": "New Zealand", "abbreviation": "NZ", "displayName": "New Zealand"}, "mediaId": 0, "period": 1, "periodText": "1st innings", "preText": "", "text": "full outside off, hammered to mid-off's right for two", "postText": "", "shortText": "Mohammad Saifuddin to Santner, 2 runs", "homeScore": "322/6", "awayScore": "0", "scoreValue": 2, "sequence": 104902, "athletesInvolved": [{"id": "629070", "name": "Mohammad Saifuddin", "shortName": "Saifuddin", "displayName": "Mohammad Saifuddin"}, {"id": "502714", "name": "Mitchell Santner", "shortName": "Santner", "displayName": "Mitchell Santner"}], "speedKPH": "", "speedMPH": "", "bowler": {"athlete": {"id": "629070", "name": "Mohammad Saifuddin", "shortName": "Saifuddin", "fullName": "Mohammad Saifuddin", "displayName": "Mohammad Saifuddin"}, "team": {"id": "25", "name": "Bangladesh", "abbreviation": "BDESH", "displayName": "Bangladesh"}, "maidens": 0, "balls": 56, "wickets": 1, "overs": 9.2, "conceded": 40}, "otherBowler": {"athlete": {"id": "330902", "name": "Mustafizur Rahman", "shortName": "Mustafizur", "fullName": "Mustafizur Rahman", "displayName": "Mustafizur Rahman"}, "team": {"id": "25", "name": "Bangladesh", "abbreviation": "BDESH", "displayName": "Bangladesh"}, "maidens": 0, "balls": 60, "wickets": 2, "overs": 10.0, "conceded": 93}, "batsman": {"athlete": {"id": "502714", "name": "Mitchell Santner", "shortName": "Santner", "fullName": "Mitchell Josef Santner", "displayName": "Mitchell Santner"}, "team": {"id": "5", "name": "New Zealand", "abbreviation": "NZ", "displayName": "New Zealand"}, "totalRuns": 13, "faced": 7, "fours": 0, "runs": 322, "sixes": 1}, "otherBatsman": {"athlete": {"id": "55395", "name": "Colin de Grandhomme", "shortName": "Colin", "fullName": "Colin de Grandhomme", "displayName": "Colin de Grandhomme"}, "team": {"id": "5", "name": "New Zealand", "abbreviation": "NZ", "displayName": "New Zealand"}, "totalRuns": 32, "faced": 13, "fours": 3, "runs": 0, "sixes": 2}, "innings": {"id": "213133", "runRate": 6.52, "remainingBalls": 4, "byes": 0, "number": 1, "balls": 296, "noBalls": 0, "wickets": 6, "legByes": 0, "ballLimit": 300, "target": 0, "session": 1, "day": 1, "fallOfWickets": 0, "remainingOvers": 0.4, "totalRuns": 2, "wides": 0, "runs": 322}, "over": {"ball": 2, "balls": 6, "complete": false, "limit": 50.0, "maiden": 0, "noBall": 0, "wide": 0, "byes": 0, "legByes": 0, "number": 50, "runs": 11, "wickets": 0, "overs": 49.2, "actual": 49.2, "unique": 49.02}, "dismissal": {"dismissal": false, "bowled": false, "type": "", "bowler": {"athlete": {"id": "629070", "name": "Mohammad Saifuddin", "shortName": "Saifuddin", "fullName": "Mohammad Saifuddin", "displayName": "Mohammad Saifuddin"}}, "batsman": {"athlete": {"id": "502714", "name": "Mitchell Santner", "shortName": "Santner", "fullName": "Mitchell Josef Santner", "displayName": "Mitchell Santner"}}, "fielder": {"athlete": {}}, "minutes": 0, "retiredText": ""}}, {"id": "149030", "clock": "00:00", "date": "2019-02-20T11:00", "playType": {"id": "1", "description": "run"}, "team": {"id": "5", "name": "New Zealand", "abbreviation": "NZ", "displayName": "New Zealand"}, "mediaId": 0, "period": 1, "periodText": "1st innings", "preText": "", "text": "full on middle, Santner swings, gets an inside edge to short fine-leg", "postText": "", "shortText": "Mohammad Saifuddin to Santner, 1 run", "homeScore": "323/6", "awayScore": "0", "scoreValue": 1, "sequence": 104903, "athletesInvolved": [{"id": "629070", "name": "Mohammad Saifuddin", "shortName": "Saifuddin", "displayName": "Mohammad Saifuddin"}, {"id": "502714", "name": "Mitchell Santner", "shortName": "Santner", "displayName": "Mitchell Santner"}], "speedKPH": "", "speedMPH": "", "bowler": {"athlete": {"id": "629070", "name": "Mohammad Saifuddin", "shortName": "Saifuddin", "fullName": "Mohammad Saifuddin", "displayName": "Mohammad Saifuddin"}, "team": {"id": "25", "name": "Bangladesh", "abbreviation": "BDESH", "displayName": "Bangladesh"}, "maidens": 0, "balls": 57, "wickets": 1, "overs": 9.3, "conceded": 41}, "otherBowler": {"athlete": {"id": "330902", "name": "Mustafizur Rahman", "shortName": "Mustafizur", "fullName": "Mustafizur Rahman", "displayName": "Mustafizur Rahman"}, "team": {"id": "25", "name": "Bangladesh", "abbreviation": "BDESH", "displayName": "Bangladesh"}, "maidens": 0, "balls": 60, "wickets": 2, "overs": 10.0, "conceded": 93}, "batsman": {"athlete": {"id": "502714", "name": "Mitchell Santner", "shortName": "Santner", "fullName": "Mitchell Josef Santner", "displayName": "Mitchell Santner"}, "team": {"id": "5", "name": "New Zealand", "abbreviation": "NZ", "displayName": "New Zealand"}, "totalRuns": 14, "faced": 8, "fours": 0, "runs": 323, "sixes": 1}, "otherBatsman": {"athlete": {"id": "55395", "name": "Colin de Grandhomme", "shortName": "Colin", "fullName": "Colin de Grandhomme", "displayName": "Colin de Grandhomme"}, "team": {"id": "5", "name": "New Zealand", "abbreviation": "NZ", "displayName": "New Zealand"}, "totalRuns": 32, "faced": 13, "fours": 3, "runs": 0, "sixes": 2}, "innings": {"id": "213133", "runRate": 6.52, "remainingBalls": 3, "byes": 0, "number": 1, "balls": 297, "noBalls": 0, "wickets": 6, "legByes": 0, "ballLimit": 300, "target": 0, "session": 1, "day": 1, "fallOfWickets": 0, "remainingOvers": 0.3, "totalRuns": 1, "wides": 0, "runs": 323}, "over": {"ball": 3, "balls": 6, "complete": false, "limit": 50.0, "maiden": 0, "noBall": 0, "wide": 0, "byes": 0, "legByes": 0, "number": 50, "runs": 11, "wickets": 0, "overs": 49.3, "actual": 49.3, "unique": 49.03}, "dismissal": {"dismissal": false, "bowled": false, "type": "", "bowler": {"athlete": {"id": "629070", "name": "Mohammad Saifuddin", "shortName": "Saifuddin", "fullName": "Mohammad Saifuddin", "displayName": "Mohammad Saifuddin"}}, "batsman": {"athlete": {"id": "502714", "name": "Mitchell Santner", "shortName": "Santner", "fullName": "Mitchell Josef Santner", "displayName": "Mitchell Santner"}}, "fielder": {"athlete": {}}, "minutes": 0, "retiredText": ""}}, {"id": "149040", "clock": "00:00", "date": "2019-02-20T11:00", "playType": {"id": "3", "description": "four"}, "team": {"id": "5", "name": "New Zealand", "abbreviation": "NZ", "displayName": "New Zealand"}, "mediaId": 0, "period": 1, "periodText": "1st innings", "preText": "", "text": "full on middle and de Grandhomme skips down the wicket and lofts it over the bowler", "postText": "", "shortText": "Mohammad Saifuddin to de Grandhomme, FOUR runs", "homeScore": "327/6", "awayScore": "0", "scoreValue": 4, "sequence": 104904, "athletesInvolved": [{"id": "55395", "name": "Colin de Grandhomme", "shortName": "Colin", "displayName": "Colin de Grandhomme"}, {"id": "629070", "name": "Mohammad Saifuddin", "shortName": "Saifuddin", "displayName": "Mohammad Saifuddin"}], "speedKPH": "", "speedMPH": "", "bowler": {"athlete": {"id": "629070", "name": "Mohammad Saifuddin", "shortName": "Saifuddin", "fullName": "Mohammad Saifuddin", "displayName": "Mohammad Saifuddin"}, "team": {"id": "25", "name": "Bangladesh", "abbreviation": "BDESH", "displayName": "Bangladesh"}, "maidens": 0, "balls": 58, "wickets": 1, "overs": 9.4, "conceded": 45}, "otherBowler": {"athlete": {"id": "330902", "name": "Mustafizur Rahman", "shortName": "Mustafizur", "fullName": "Mustafizur Rahman", "displayName": "Mustafizur Rahman"}, "team": {"id": "25", "name": "Bangladesh", "abbreviation": "BDESH", "displayName": "Bangladesh"}, "maidens": 0, "balls": 60, "wickets": 2, "overs": 10.0, "conceded": 93}, "batsman": {"athlete": {"id": "55395", "name": "Colin de Grandhomme", "shortName": "Colin", "fullName": "Colin de Grandhomme", "displayName": "Colin de Grandhomme"}, "team": {"id": "5", "name": "New Zealand", "abbreviation": "NZ", "displayName": "New Zealand"}, "totalRuns": 36, "faced": 14, "fours": 4, "runs": 327, "sixes": 2}, "otherBatsman": {"athlete": {"id": "502714", "name": "Mitchell Santner", "shortName": "Santner", "fullName": "Mitchell Josef Santner", "displayName": "Mitchell Santner"}, "team": {"id": "5", "name": "New Zealand", "abbreviation": "NZ", "displayName": "New Zealand"}, "totalRuns": 14, "faced": 8, "fours": 0, "runs": 0, "sixes": 1}, "innings": {"id": "213133", "runRate": 6.58, "remainingBalls": 2, "byes": 0, "number": 1, "balls": 298, "noBalls": 0, "wickets": 6, "legByes": 0, "ballLimit": 300, "target": 0, "session": 1, "day": 1, "fallOfWickets": 0, "remainingOvers": 0.2, "totalRuns": 4, "wides": 0, "runs": 327}, "over": {"ball": 4, "balls": 6, "complete": false, "limit": 50.0, "maiden": 0, "noBall": 0, "wide": 0, "byes": 0, "legByes": 0, "number": 50, "runs": 11, "wickets": 0, "overs": 49.4, "actual": 49.4, "unique": 49.04}, "dismissal": {"dismissal": false, "bowled": false, "type": "", "bowler": {"athlete": {"id": "629070", "name": "Mohammad Saifuddin", "shortName": "Saifuddin", "fullName": "Mohammad Saifuddin", "displayName": "Mohammad Saifuddin"}}, "batsman": {"athlete": {"id": "55395", "name": "Colin de Grandhomme", "shortName": "Colin", "fullName": "Colin de Grandhomme", "displayName": "Colin de Grandhomme"}}, "fielder": {"athlete": {}}, "minutes": 0, "retiredText": ""}}, {"id": "149050", "clock": "00:00", "date": "2019-02-20T11:00", "playType": {"id": "1", "description": "run"}, "team": {"id": "5", "name": "New Zealand", "abbreviation": "NZ", "displayName": "New Zealand"}, "mediaId": 0, "period": 1, "periodText": "1st innings", "preText": "", "text": "full on middle, flicked away to deep midwicket", "postText": "", "shortText": "Mohammad Saifuddin to de Grandhomme, 1 run", "homeScore": "328/6", "awayScore": "0", "scoreValue": 1, "sequence": 104905, "athletesInvolved": [{"id": "55395", "name": "Colin de Grandhomme", "shortName": "Colin", "displayName": "Colin de Grandhomme"}, {"id": "629070", "name": "Mohammad Saifuddin", "shortName": "Saifuddin", "displayName": "Mohammad Saifuddin"}], "speedKPH": "", "speedMPH": "", "bowler": {"athlete": {"id": "629070", "name": "Mohammad Saifuddin", "shortName": "Saifuddin", "fullName": "Mohammad Saifuddin", "displayName": "Mohammad Saifuddin"}, "team": {"id": "25", "name": "Bangladesh", "abbreviation": "BDESH", "displayName": "Bangladesh"}, "maidens": 0, "balls": 59, "wickets": 1, "overs": 9.5, "conceded": 46}, "otherBowler": {"athlete": {"id": "330902", "name": "Mustafizur Rahman", "shortName": "Mustafizur", "fullName": "Mustafizur Rahman", "displayName": "Mustafizur Rahman"}, "team": {"id": "25", "name": "Bangladesh", "abbreviation": "BDESH", "displayName": "Bangladesh"}, "maidens": 0, "balls": 60, "wickets": 2, "overs": 10.0, "conceded": 93}, "batsman": {"athlete": {"id": "55395", "name": "Colin de Grandhomme", "shortName": "Colin", "fullName": "Colin de Grandhomme", "displayName": "Colin de Grandhomme"}, "team": {"id": "5", "name": "New Zealand", "abbreviation": "NZ", "displayName": "New Zealand"}, "totalRuns": 37, "faced": 15, "fours": 4, "runs": 328, "sixes": 2}, "otherBatsman": {"athlete": {"id": "502714", "name": "Mitchell Santner", "shortName": "Santner", "fullName": "Mitchell Josef Santner", "displayName": "Mitchell Santner"}, "team": {"id": "5", "name": "New Zealand", "abbreviation": "NZ", "displayName": "New Zealand"}, "totalRuns": 14, "faced": 8, "fours": 0, "runs": 0, "sixes": 1}, "innings": {"id": "213133", "runRate": 6.58, "remainingBalls": 1, "byes": 0, "number": 1, "balls": 299, "noBalls": 0, "wickets": 6, "legByes": 0, "ballLimit": 300, "target": 0, "session": 1, "day": 1, "fallOfWickets": 0, "remainingOvers": 0.1, "totalRuns": 1, "wides": 0, "runs": 328}, "over": {"ball": 5, "balls": 6, "complete": false, "limit": 50.0, "maiden": 0, "noBall": 0, "wide": 0, "byes": 0, "legByes": 0, "number": 50, "runs": 11, "wickets": 0, "overs": 49.5, "actual": 49.5, "unique": 49.05}, "dismissal": {"dismissal": false, "bowled": false, "type": "", "bowler": {"athlete": {"id": "629070", "name": "Mohammad Saifuddin", "shortName": "Saifuddin", "fullName": "Mohammad Saifuddin", "displayName": "Mohammad Saifuddin"}}, "batsman": {"athlete": {"id": "55395", "name": "Colin de Grandhomme", "shortName": "Colin", "fullName": "Colin de Grandhomme", "displayName": "Colin de Grandhomme"}}, "fielder": {"athlete": {}}, "minutes": 0, "retiredText": ""}}, {"id": "149060", "clock": "00:00", "date": "2019-02-20T11:00", "playType": {"id": "1", "description": "run"}, "team": {"id": "5", "name": "New Zealand", "abbreviation": "NZ", "displayName": "New Zealand"}, "mediaId": 0, "period": 1, "periodText": "1st innings", "preText": "", "text": "full on middle, swings and squeezes it past short fine-leg for a couple", "postText": "Bangladesh have successfully chased a score over 300 only thrice in ODIs, the last such win coming in the 2015 world cup, against Scotland, in Nelson\n\nHarry: \"BD need to learn how to keep scoring without reckless shots at the top. Look at nZ score for first 25 overs where they were well below their final run rate. If BD tries to match final run rate at every over from beginning, then they will loose half the side by 10th or 20th over. then game is over. For example, dont praise when soumya flicks a ball for 6. you know suicide is coming.\"\n\nSaleque Sufi: \"Chasing 331 on any wicket against any bowling on any wicket is always a huge challenge . I do not think Bangladesh bowled at all well. Kiwis were savage on Mustafiz . He could not adjust his line and length and was predictable . Anyway with nothing to loose tigers must be positive and fight \"\n\nMichael: \"If the Bangladeshi top order bat well this could be a good game. And you would expect that they are due to do just that. Here's hoping!\"\n\nNazmul: \"Bangladesh's top order should take the responsibilities as threir inform player Mithun is not playing today. They should show their characters today.\"\n\n<strong>2.35pm</strong> Not much went right for Bangladesh after opting to bowl, exemplified by Mustafizur Rahman's returns of 2 for 93 in ten overs, by far his worst in an ODI. Nearly all New Zealand batsmen had a hit in the middle, and all of them, barring Colin Munro, had an impact. Ross Taylor headlined the innings with 69, as he went past Stephen Fleming to become the leading run scorer for New Zealand in ODIs. Henry Nicholls showcased his versatility, cracking another half-century, this time at No.3, and stand-in captain, Tom Latham, looked in sublime touch during his 51-ball 59. James Neesham and Colin de Grandhomme had some fun towards the end to catapult the total to 330. \n\nPerhaps Bangladesh can take solace in the fact that in the last ODI at the venue a similar score was chased down, but they'll have to bat a lot better than they have on the tour so far, and remember, they are a batsman light. Back with the chase soon", "shortText": "Mohammad Saifuddin to Santner, 2 runs", "homeScore": "330/6", "awayScore": "0", "scoreValue": 2, "sequence": 104906, "athletesInvolved": [{"id": "629070", "name": "Mohammad Saifuddin", "shortName": "Saifuddin", "displayName": "Mohammad Saifuddin"}, {"id": "502714", "name": "Mitchell Santner", "shortName": "Santner", "displayName": "Mitchell Santner"}], "speedKPH": "", "speedMPH": "", "bowler": {"athlete": {"id": "629070", "name": "Mohammad Saifuddin", "shortName": "Saifuddin", "fullName": "Mohammad Saifuddin", "displayName": "Mohammad Saifuddin"}, "team": {"id": "25", "name": "Bangladesh", "abbreviation": "BDESH", "displayName": "Bangladesh"}, "maidens": 0, "balls": 60, "wickets": 1, "overs": 10.0, "conceded": 48}, "otherBowler": {"athlete": {"id": "330902", "name": "Mustafizur Rahman", "shortName": "Mustafizur", "fullName": "Mustafizur Rahman", "displayName": "Mustafizur Rahman"}, "team": {"id": "25", "name": "Bangladesh", "abbreviation": "BDESH", "displayName": "Bangladesh"}, "maidens": 0, "balls": 60, "wickets": 2, "overs": 10.0, "conceded": 93}, "batsman": {"athlete": {"id": "502714", "name": "Mitchell Santner", "shortName": "Santner", "fullName": "Mitchell Josef Santner", "displayName": "Mitchell Santner"}, "team": {"id": "5", "name": "New Zealand", "abbreviation": "NZ", "displayName": "New Zealand"}, "totalRuns": 16, "faced": 9, "fours": 0, "runs": 330, "sixes": 1}, "otherBatsman": {"athlete": {"id": "55395", "name": "Colin de Grandhomme", "shortName": "Colin", "fullName": "Colin de Grandhomme", "displayName": "Colin de Grandhomme"}, "team": {"id": "5", "name": "New Zealand", "abbreviation": "NZ", "displayName": "New Zealand"}, "totalRuns": 37, "faced": 15, "fours": 4, "runs": 0, "sixes": 2}, "innings": {"id": "213133", "runRate": 6.6, "remainingBalls": 0, "byes": 0, "number": 1, "balls": 300, "noBalls": 0, "wickets": 6, "legByes": 0, "ballLimit": 300, "target": 0, "session": 1, "day": 1, "fallOfWickets": 0, "remainingOvers": 0.0, "totalRuns": 2, "wides": 0, "runs": 330}, "over": {"ball": 6, "balls": 6, "complete": true, "limit": 50.0, "maiden": 0, "noBall": 0, "wide": 0, "byes": 0, "legByes": 0, "number": 50, "runs": 11, "wickets": 0, "overs": 49.6, "actual": 49.6, "unique": 49.06}, "dismissal": {"dismissal": false, "bowled": false, "type": "", "bowler": {"athlete": {"id": "629070", "name": "Mohammad Saifuddin", "shortName": "Saifuddin", "fullName": "Mohammad Saifuddin", "displayName": "Mohammad Saifuddin"}}, "batsman": {"athlete": {"id": "502714", "name": "Mitchell Santner", "shortName": "Santner", "fullName": "Mitchell Josef Santner", "displayName": "Mitchell Santner"}}, "fielder": {"athlete": {}}, "minutes": 0, "retiredText": ""}}]}}