{"commentary": {"count": 308, "pageIndex": 13, "pageSize": 25, "pageCount": 13, "items": [{"id": "248050", "clock": "00:00", "date": "2018-10-21T14:30", "playType": {"id": "2", "description": "no run"}, "team": {"id": "9", "name": "Zimbabwe", "abbreviation": "ZIM", "displayName": "Zimbabwe"}, "mediaId": 0, "period": 2, "periodText": "2nd innings", "preText": "", "text": "fired full, he gets outside the line and blocks.", "postText": "", "shortText": "Mahmudullah to Chatara, no run", "homeScore": "0", "awayScore": "236/9", "scoreValue": 0, "sequence": 204805, "athletesInvolved": [{"id": "425639", "name": "Tendai Chatara", "shortName": "Chatara", "displayName": "Tendai Chatara"}, {"id": "56025", "name": "Mahmudullah", "shortName": "Mahmudullah", "displayName": "Mahmudullah"}], "speedKPH": "92.505", "speedMPH": "57.480", "bowler": {"athlete": {"id": "56025", "name": "Mahmudullah", "shortName": "Mahmudullah", "fullName": "Mohammad Mahmudullah", "displayName": "Mahmudullah"}, "team": {"id": "25", "name": "Bangladesh", "abbreviation": "BDESH", "displayName": "Bangladesh"}, "maidens": 0, "balls": 23, "wickets": 1, "overs": 3.5, "conceded": 24}, "otherBowler": {"athlete": {"id": "629070", "name": "Mohammad Saifuddin", "shortName": "Saifuddin", "fullName": "Mohammad Saifuddin", "displayName": "Mohammad Saifuddin"}, "team": {"id": "25", "name": "Bangladesh", "abbreviation": "BDESH", "displayName": "Bangladesh"}, "maidens": 1, "balls": 36, "wickets": 0, "overs": 6.0, "conceded": 22}, "batsman": {"athlete": {"id": "425639", "name": "Tendai Chatara", "shortName": "Chatara", "fullName": "Tendai Larry Chatara", "displayName": "Tendai Chatara"}, "team": {"id": "9", "name": "Zimbabwe", "abbreviation": "ZIM", "displayName": "Zimbabwe"}, "totalRuns": 0, "faced": 1, "fours": 0, "runs": 236, "sixes": 0}, "otherBatsman": {"athlete": {"id": "55870", "name": "Sean Williams", "shortName": "Williams", "fullName": "Sean Colin Williams", "displayName": "Sean Williams"}, "team": {"id": "9", "name": "Zimbabwe", "abbreviation": "ZIM", "displayName": "Zimbabwe"}, "totalRuns": 45, "faced": 54, "fours": 5, "runs": 0, "sixes": 1}, "innings": {"id": "209642", "runRate": 4.83, "remainingBalls": 7, "byes": 0, "number": 2, "balls": 293, "noBalls": 0, "requiredRunRate": "30.85", "wickets": 9, "legByes": 0, "ballLimit": 300, "target": 272, "session": 1, "day": 1, "fallOfWickets": 0, "remainingRuns": "36", "remainingOvers": 0.0, "totalRuns": 0, "wides": 0, "runs": 236}, "over": {"ball": 5, "balls": 6, "complete": false, "limit": 50.0, "maiden": 0, "noBall": 0, "wide": 0, "byes": 0, "legByes": 0, "number": 49, "runs": 13, "wickets": 1, "overs": 48.5, "actual": 48.5, "unique": 48.05}, "dismissal": {"dismissal": false, "bowled": false, "type": "", "bowler": {"athlete": {"id": "56025", "name": "Mahmudullah", "shortName": "Mahmudullah", "fullName": "Mohammad Mahmudullah", "displayName": "Mahmudullah"}}, "batsman": {"athlete": {"id": "425639", "name": "Tendai Chatara", "shortName": "Chatara", "fullName": "Tendai Larry Chatara", "displayName": "Tendai Chatara"}}, "fielder": {"athlete": {}}, "minutes": 0, "retiredText": ""}}, {"id": "248060", "clock": "00:00", "date": "2018-10-21T14:30", "playType": {"id": "2", "description": "no run"}, "team": {"id": "9", "name": "Zimbabwe", "abbreviation": "ZIM", "displayName": "Zimbabwe"}, "mediaId": 0, "period": 2, "periodText": "2nd innings", "preText": "", "postText": "", "shortText": "Mahmudullah to Chatara, no run", "homeScore": "0", "awayScore": "236/9", "scoreValue": 0, "sequence": 204806, "athletesInvolved": [{"id": "425639", "name": "Tendai Chatara", "shortName": "Chatara", "displayName": "Tendai Chatara"}, {"id": "56025", "name": "Mahmudullah", "shortName": "Mahmudullah", "displayName": "Mahmudullah"}], "speedKPH": "89.729", "speedMPH": "55.755", "bowler": {"athlete": {"id": "56025", "name": "Mahmudullah", "shortName": "Mahmudullah", "fullName": "Mohammad Mahmudullah", "displayName": "Mahmudullah"}, "team": {"id": "25", "name": "Bangladesh", "abbreviation": "BDESH", "displayName": "Bangladesh"}, "maidens": 0, "balls": 24, "wickets": 1, "overs": 4.0, "conceded": 24}, "otherBowler": {"athlete": {"id": "629070", "name": "Mohammad Saifuddin", "shortName": "Saifuddin", "fullName": "Mohammad Saifuddin", "displayName": "Mohammad Saifuddin"}, "team": {"id": "25", "name": "Bangladesh", "abbreviation": "BDESH", "displayName": "Bangladesh"}, "maidens": 1, "balls": 36, "wickets": 0, "overs": 6.0, "conceded": 22}, "batsman": {"athlete": {"id": "425639", "name": "Tendai Chatara", "shortName": "Chatara", "fullName": "Tendai Larry Chatara", "displayName": "Tendai Chatara"}, "team": {"id": "9", "name": "Zimbabwe", "abbreviation": "ZIM", "displayName": "Zimbabwe"}, "totalRuns": 0, "faced": 2, "fours": 0, "runs": 236, "sixes": 0}, "otherBatsman": {"athlete": {"id": "55870", "name": "Sean Williams", "shortName": "Williams", "fullName": "Sean Colin Williams", "displayName": "Sean Williams"}, "team": {"id": "9", "name": "Zimbabwe", "abbreviation": "ZIM", "displayName": "Zimbabwe"}, "totalRuns": 45, "faced": 54, "fours": 5, "runs": 0, "sixes": 1}, "innings": {"id": "209642", "runRate": 4.81, "remainingBalls": 6, "byes": 0, "number": 2, "balls": 294, "noBalls": 0, "requiredRunRate": "36.00", "wickets": 9, "legByes": 0, "ballLimit": 300, "target": 272, "session": 1, "day": 1, "fallOfWickets": 0, "remainingRuns": "36", "remainingOvers": 0.0, "totalRuns": 0, "wides": 0, "runs": 236}, "over": {"ball": 6, "balls": 6, "complete": true, "limit": 50.0, "maiden": 0, "noBall": 0, "wide": 0, "byes": 0, "legByes": 0, "number": 49, "runs": 13, "wickets": 1, "overs": 48.6, "actual": 48.6, "unique": 48.06}, "dismissal": {"dismissal": false, "bowled": false, "type": "", "bowler": {"athlete": {"id": "56025", "name": "Mahmudullah", "shortName": "Mahmudullah", "fullName": "Mohammad Mahmudullah", "displayName": "Mahmudullah"}}, "batsman": {"athlete": {"id": "425639", "name": "Tendai Chatara", "shortName": "Chatara", "fullName": "Tendai Larry Chatara", "displayName": "Tendai Chatara"}}, "fielder": {"athlete": {}}, "minutes": 0, "retiredText": ""}}, {"id": "249010", "clock": "00:00", "date": "2018-10-21T14:30", "playType": {"id": "1", "description": "run"}, "team": {"id": "9", "name": "Zimbabwe", "abbreviation": "ZIM", "displayName": "Zimbabwe"}, "mediaId": 0, "period": 2, "periodText": "2nd innings", "preText": "", "text": "wallops this full toss from outside off towards deep square leg.", "postText": "", "shortText": "Mohammad Saifuddin to Williams, 1 run", "homeScore": "0", "awayScore": "237/9", "scoreValue": 1, "sequence": 204901, "athletesInvolved": [{"id": "629070", "name": "Mohammad Saifuddin", "shortName": "Saifuddin", "displayName": "Mohammad Saifuddin"}, {"id": "55870", "name": "Sean Williams", "shortName": "Williams", "displayName": "Sean Williams"}], "speedKPH": "86.736", "speedMPH": "53.895", "bowler": {"athlete": {"id": "629070", "name": "Mohammad Saifuddin", "shortName": "Saifuddin", "fullName": "Mohammad Saifuddin", "displayName": "Mohammad Saifuddin"}, "team": {"id": "25", "name": "Bangladesh", "abbreviation": "BDESH", "displayName": "Bangladesh"}, "maidens": 1, "balls": 37, "wickets": 0, "overs": 6.1, "conceded": 23}, "otherBowler": {"athlete": {"id": "56025", "name": "Mahmudullah", "shortName": "Mahmudullah", "fullName": "Mohammad Mahmudullah", "displayName": "Mahmudullah"}, "team": {"id": "25", "name": "Bangladesh", "abbreviation": "BDESH", "displayName": "Bangladesh"}, "maidens": 0, "balls": 24, "wickets": 1, "overs": 4.0, "conceded": 24}, "batsman": {"athlete": {"id": "55870", "name": "Sean Williams", "shortName": "Williams", "fullName": "Sean Colin Williams", "displayName": "Sean Williams"}, "team": {"id": "9", "name": "Zimbabwe", "abbreviation": "ZIM", "displayName": "Zimbabwe"}, "totalRuns": 46, "faced": 55, "fours": 5, "runs": 237, "sixes": 1}, "otherBatsman": {"athlete": {"id": "425639", "name": "Tendai Chatara", "shortName": "Chatara", "fullName": "Tendai Larry Chatara", "displayName": "Tendai Chatara"}, "team": {"id": "9", "name": "Zimbabwe", "abbreviation": "ZIM", "displayName": "Zimbabwe"}, "totalRuns": 0, "faced": 2, "fours": 0, "runs": 0, "sixes": 0}, "innings": {"id": "209642", "runRate": 4.82, "remainingBalls": 5, "byes": 0, "number": 2, "balls": 295, "noBalls": 0, "requiredRunRate": "42.00", "wickets": 9, "legByes": 0, "ballLimit": 300, "target": 272, "session": 1, "day": 1, "fallOfWickets": 0, "remainingRuns": "35", "remainingOvers": 0.0, "totalRuns": 1, "wides": 0, "runs": 237}, "over": {"ball": 1, "balls": 6, "complete": false, "limit": 50.0, "maiden": 0, "noBall": 0, "wide": 0, "byes": 0, "legByes": 0, "number": 50, "runs": 7, "wickets": 0, "overs": 49.1, "actual": 49.1, "unique": 49.01}, "dismissal": {"dismissal": false, "bowled": false, "type": "", "bowler": {"athlete": {"id": "629070", "name": "Mohammad Saifuddin", "shortName": "Saifuddin", "fullName": "Mohammad Saifuddin", "displayName": "Mohammad Saifuddin"}}, "batsman": {"athlete": {"id": "55870", "name": "Sean Williams", "shortName": "Williams", "fullName": "Sean Colin Williams", "displayName": "Sean Williams"}}, "fielder": {"athlete": {}}, "minutes": 0, "retiredText": ""}}, {"id": "249020", "clock": "00:00", "date": "2018-10-21T14:30", "playType": {"id": "1", "description": "run"}, "team": {"id": "9", "name": "Zimbabwe", "abbreviation": "ZIM", "displayName": "Zimbabwe"}, "mediaId": 0, "period": 2, "periodText": "2nd innings", "preText": "", "text": "dabs this into the leg side as they jog the single", "postText": "", "shortText": "Mohammad Saifuddin to Chatara, 1 run", "homeScore": "0", "awayScore": "238/9", "scoreValue": 1, "sequence": 204902, "athletesInvolved": [{"id": "425639", "name": "Tendai Chatara", "shortName": "Chatara", "displayName": "Tendai Chatara"}, {"id": "629070", "name": "Mohammad Saifuddin", "shortName": "Saifuddin", "displayName": "Mohammad Saifuddin"}], "speedKPH": "124.475", "speedMPH": "77.345", "bowler": {"athlete": {"id": "629070", "name": "Mohammad Saifuddin", "shortName": "Saifuddin", "fullName": "Mohammad Saifuddin", "displayName": "Mohammad Saifuddin"}, "team": {"id": "25", "name": "Bangladesh", "abbreviation": "BDESH", "displayName": "Bangladesh"}, "maidens": 1, "balls": 38, "wickets": 0, "overs": 6.2, "conceded": 24}, "otherBowler": {"athlete": {"id": "56025", "name": "Mahmudullah", "shortName": "Mahmudullah", "fullName": "Mohammad Mahmudullah", "displayName": "Mahmudullah"}, "team": {"id": "25", "name": "Bangladesh", "abbreviation": "BDESH", "displayName": "Bangladesh"}, "maidens": 0, "balls": 24, "wickets": 1, "overs": 4.0, "conceded": 24}, "batsman": {"athlete": {"id": "425639", "name": "Tendai Chatara", "shortName": "Chatara", "fullName": "Tendai Larry Chatara", "displayName": "Tendai Chatara"}, "team": {"id": "9", "name": "Zimbabwe", "abbreviation": "ZIM", "displayName": "Zimbabwe"}, "totalRuns": 1, "faced": 3, "fours": 0, "runs": 238, "sixes": 0}, "otherBatsman": {"athlete": {"id": "55870", "name": "Sean Williams", "shortName": "Williams", "fullName": "Sean Colin Williams", "displayName": "Sean Williams"}, "team": {"id": "9", "name": "Zimbabwe", "abbreviation": "ZIM", "displayName": "Zimbabwe"}, "totalRuns": 46, "faced": 55, "fours": 5, "runs": 0, "sixes": 1}, "innings": {"id": "209642", "runRate": 4.82, "remainingBalls": 4, "byes": 0, "number": 2, "balls": 296, "noBalls": 0, "requiredRunRate": "51.00", "wickets": 9, "legByes": 0, "ballLimit": 300, "target": 272, "session": 1, "day": 1, "fallOfWickets": 0, "remainingRuns": "34", "remainingOvers": 0.0, "totalRuns": 1, "wides": 0, "runs": 238}, "over": {"ball": 2, "balls": 6, "complete": false, "limit": 50.0, "maiden": 0, "noBall": 0, "wide": 0, "byes": 0, "legByes": 0, "number": 50, "runs": 7, "wickets": 0, "overs": 49.2, "actual": 49.2, "unique": 49.02}, "dismissal": {"dismissal": false, "bowled": false, "type": "", "bowler": {"athlete": {"id": "629070", "name": "Mohammad Saifuddin", "shortName": "Saifuddin", "fullName": "Mohammad Saifuddin", "displayName": "Mohammad Saifuddin"}}, "batsman": {"athlete": {"id": "425639", "name": "Tendai Chatara", "shortName": "Chatara", "fullName": "Tendai Larry Chatara", "displayName": "Tendai Chatara"}}, "fielder": {"athlete": {}}, "minutes": 0, "retiredText": ""}}, {"id": "249030", "clock": "00:00", "date": "2018-10-21T14:30", "playType": {"id": "1", "description": "run"}, "team": {"id": "9", "name": "Zimbabwe", "abbreviation": "ZIM", "displayName": "Zimbabwe"}, "mediaId": 0, "period": 2, "periodText": "2nd innings", "preText": "", "text": "heaved across the line, off a thick inside edge towards deep square", "postText": "", "shortText": "Mohammad Saifuddin to Williams, 2 runs", "homeScore": "0", "awayScore": "240/9", "scoreValue": 2, "sequence": 204903, "athletesInvolved": [{"id": "629070", "name": "Mohammad Saifuddin", "shortName": "Saifuddin", "displayName": "Mohammad Saifuddin"}, {"id": "55870", "name": "Sean Williams", "shortName": "Williams", "displayName": "Sean Williams"}], "speedKPH": "126.152", "speedMPH": "78.387", "bowler": {"athlete": {"id": "629070", "name": "Mohammad Saifuddin", "shortName": "Saifuddin", "fullName": "Mohammad Saifuddin", "displayName": "Mohammad Saifuddin"}, "team": {"id": "25", "name": "Bangladesh", "abbreviation": "BDESH", "displayName": "Bangladesh"}, "maidens": 1, "balls": 39, "wickets": 0, "overs": 6.3, "conceded": 26}, "otherBowler": {"athlete": {"id": "56025", "name": "Mahmudullah", "shortName": "Mahmudullah", "fullName": "Mohammad Mahmudullah", "displayName": "Mahmudullah"}, "team": {"id": "25", "name": "Bangladesh", "abbreviation": "BDESH", "displayName": "Bangladesh"}, "maidens": 0, "balls": 24, "wickets": 1, "overs": 4.0, "conceded": 24}, "batsman": {"athlete": {"id": "55870", "name": "Sean Williams", "shortName": "Williams", "fullName": "Sean Colin Williams", "displayName": "Sean Williams"}, "team": {"id": "9", "name": "Zimbabwe", "abbreviation": "ZIM", "displayName": "Zimbabwe"}, "totalRuns": 48, "faced": 56, "fours": 5, "runs": 240, "sixes": 1}, "otherBatsman": {"athlete": {"id": "425639", "name": "Tendai Chatara", "shortName": "Chatara", "fullName": "Tendai Larry Chatara", "displayName": "Tendai Chatara"}, "team": {"id": "9", "name": "Zimbabwe", "abbreviation": "ZIM", "displayName": "Zimbabwe"}, "totalRuns": 1, "faced": 3, "fours": 0, "runs": 0, "sixes": 0}, "innings": {"id": "209642", "runRate": 4.84, "remainingBalls": 3, "byes": 0, "number": 2, "balls": 297, "noBalls": 0, "requiredRunRate": "64.00", "wickets": 9, "legByes": 0, "ballLimit": 300, "target": 272, "session": 1, "day": 1, "fallOfWickets": 0, "remainingRuns": "32", "remainingOvers": 0.0, "totalRuns": 2, "wides": 0, "runs": 240}, "over": {"ball": 3, "balls": 6, "complete": false, "limit": 50.0, "maiden": 0, "noBall": 0, "wide": 0, "byes": 0, "legByes": 0, "number": 50, "runs": 7, "wickets": 0, "overs": 49.3, "actual": 49.3, "unique": 49.03}, "dismissal": {"dismissal": false, "bowled": false, "type": "", "bowler": {"athlete": {"id": "629070", "name": "Mohammad Saifuddin", "shortName": "Saifuddin", "fullName": "Mohammad Saifuddin", "displayName": "Mohammad Saifuddin"}}, "batsman": {"athlete": {"id": "55870", "name": "Sean Williams", "shortName": "Williams", "fullName": "Sean Colin Williams", "displayName": "Sean Williams"}}, "fielder": {"athlete": {}}, "minutes": 0, "retiredText": ""}}, {"id": "249040", "clock": "00:00", "date": "2018-10-21T14:30", "playType": {"id": "1", "description": "run"}, "team": {"id": "9", "name": "Zimbabwe", "abbreviation": "ZIM", "displayName": "Zimbabwe"}, "mediaId": 0, "period": 2, "periodText": "2nd innings", "preText": "", "text": "whips this full delivery into the leg side", "postText": "", "shortText": "Mohammad Saifuddin to Williams, 1 run", "homeScore": "0", "awayScore": "241/9", "scoreValue": 1, "sequence": 204904, "athletesInvolved": [{"id": "629070", "name": "Mohammad Saifuddin", "shortName": "Saifuddin", "displayName": "Mohammad Saifuddin"}, {"id": "55870", "name": "Sean Williams", "shortName": "Williams", "displayName": "Sean Williams"}], "speedKPH": "127.129", "speedMPH": "78.994", "bowler": {"athlete": {"id": "629070", "name": "Mohammad Saifuddin", "shortName": "Saifuddin", "fullName": "Mohammad Saifuddin", "displayName": "Mohammad Saifuddin"}, "team": {"id": "25", "name": "Bangladesh", "abbreviation": "BDESH", "displayName": "Bangladesh"}, "maidens": 1, "balls": 40, "wickets": 0, "overs": 6.4, "conceded": 27}, "otherBowler": {"athlete": {"id": "56025", "name": "Mahmudullah", "shortName": "Mahmudullah", "fullName": "Mohammad Mahmudullah", "displayName": "Mahmudullah"}, "team": {"id": "25", "name": "Bangladesh", "abbreviation": "BDESH", "displayName": "Bangladesh"}, "maidens": 0, "balls": 24, "wickets": 1, "overs": 4.0, "conceded": 24}, "batsman": {"athlete": {"id": "55870", "name": "Sean Williams", "shortName": "Williams", "fullName": "Sean Colin Williams", "displayName": "Sean Williams"}, "team": {"id": "9", "name": "Zimbabwe", "abbreviation": "ZIM", "displayName": "Zimbabwe"}, "totalRuns": 49, "faced": 57, "fours": 5, "runs": 241, "sixes": 1}, "otherBatsman": {"athlete": {"id": "425639", "name": "Tendai Chatara", "shortName": "Chatara", "fullName": "Tendai Larry Chatara", "displayName": "Tendai Chatara"}, "team": {"id": "9", "name": "Zimbabwe", "abbreviation": "ZIM", "displayName": "Zimbabwe"}, "totalRuns": 1, "faced": 3, "fours": 0, "runs": 0, "sixes": 0}, "innings": {"id": "209642", "runRate": 4.85, "remainingBalls": 2, "byes": 0, "number": 2, "balls": 298, "noBalls": 0, "requiredRunRate": "93.00", "wickets": 9, "legByes": 0, "ballLimit": 300, "target": 272, "session": 1, "day": 1, "fallOfWickets": 0, "remainingRuns": "31", "remainingOvers": 0.0, "totalRuns": 1, "wides": 0, "runs": 241}, "over": {"ball": 4, "balls": 6, "complete": false, "limit": 50.0, "maiden": 0, "noBall": 0, "wide": 0, "byes": 0, "legByes": 0, "number": 50, "runs": 7, "wickets": 0, "overs": 49.4, "actual": 49.4, "unique": 49.04}, "dismissal": {"dismissal": false, "bowled": false, "type": "", "bowler": {"athlete": {"id": "629070", "name": "Mohammad Saifuddin", "shortName": "Saifuddin", "fullName": "Mohammad Saifuddin", "displayName": "Mohammad Saifuddin"}}, "batsman": {"athlete": {"id": "55870", "name": "Sean Williams", "shortName": "Williams", "fullName": "Sean Colin Williams", "displayName": "Sean Williams"}}, "fielder": {"athlete": {}}, "minutes": 0, "retiredText": ""}}, {"id": "249050", "clock": "00:00", "date": "2018-10-21T14:30", "playType": {"id": "1", "description": "run"}, "team": {"id": "9", "name": "Zimbabwe", "abbreviation": "ZIM", "displayName": "Zimbabwe"}, "mediaId": 0, "period": 2, "periodText": "2nd innings", "preText": "", "text": "off a thick inside edge to fine leg, once again swung blindly.", "postText": "", "shortText": "Mohammad Saifuddin to Chatara, 1 run", "homeScore": "0", "awayScore": "242/9", "scoreValue": 1, "sequence": 204905, "athletesInvolved": [{"id": "425639", "name": "Tendai Chatara", "shortName": "Chatara", "displayName": "Tendai Chatara"}, {"id": "629070", "name": "Mohammad Saifuddin", "shortName": "Saifuddin", "displayName": "Mohammad Saifuddin"}], "speedKPH": "129.261", "speedMPH": "80.319", "bowler": {"athlete": {"id": "629070", "name": "Mohammad Saifuddin", "shortName": "Saifuddin", "fullName": "Mohammad Saifuddin", "displayName": "Mohammad Saifuddin"}, "team": {"id": "25", "name": "Bangladesh", "abbreviation": "BDESH", "displayName": "Bangladesh"}, "maidens": 1, "balls": 41, "wickets": 0, "overs": 6.5, "conceded": 28}, "otherBowler": {"athlete": {"id": "56025", "name": "Mahmudullah", "shortName": "Mahmudullah", "fullName": "Mohammad Mahmudullah", "displayName": "Mahmudullah"}, "team": {"id": "25", "name": "Bangladesh", "abbreviation": "BDESH", "displayName": "Bangladesh"}, "maidens": 0, "balls": 24, "wickets": 1, "overs": 4.0, "conceded": 24}, "batsman": {"athlete": {"id": "425639", "name": "Tendai Chatara", "shortName": "Chatara", "fullName": "Tendai Larry Chatara", "displayName": "Tendai Chatara"}, "team": {"id": "9", "name": "Zimbabwe", "abbreviation": "ZIM", "displayName": "Zimbabwe"}, "totalRuns": 2, "faced": 4, "fours": 0, "runs": 242, "sixes": 0}, "otherBatsman": {"athlete": {"id": "55870", "name": "Sean Williams", "shortName": "Williams", "fullName": "Sean Colin Williams", "displayName": "Sean Williams"}, "team": {"id": "9", "name": "Zimbabwe", "abbreviation": "ZIM", "displayName": "Zimbabwe"}, "totalRuns": 49, "faced": 57, "fours": 5, "runs": 0, "sixes": 1}, "innings": {"id": "209642", "runRate": 4.85, "remainingBalls": 1, "byes": 0, "number": 2, "balls": 299, "noBalls": 0, "requiredRunRate": "180.00", "wickets": 9, "legByes": 0, "ballLimit": 300, "target": 272, "session": 1, "day": 1, "fallOfWickets": 0, "remainingRuns": "30", "remainingOvers": 0.0, "totalRuns": 1, "wides": 0, "runs": 242}, "over": {"ball": 5, "balls": 6, "complete": false, "limit": 50.0, "maiden": 0, "noBall": 0, "wide": 0, "byes": 0, "legByes": 0, "number": 50, "runs": 7, "wickets": 0, "overs": 49.5, "actual": 49.5, "unique": 49.05}, "dismissal": {"dismissal": false, "bowled": false, "type": "", "bowler": {"athlete": {"id": "629070", "name": "Mohammad Saifuddin", "shortName": "Saifuddin", "fullName": "Mohammad Saifuddin", "displayName": "Mohammad Saifuddin"}}, "batsman": {"athlete": {"id": "425639", "name": "Tendai Chatara", "shortName": "Chatara", "fullName": "Tendai Larry Chatara", "displayName": "Tendai Chatara"}}, "fielder": {"athlete": {}}, "minutes": 0, "retiredText": ""}}, {"id": "249060", "clock": "00:00", "date": "2018-10-21T14:30", "playType": {"id": "1", "description": "run"}, "team": {"id": "9", "name": "Zimbabwe", "abbreviation": "ZIM", "displayName": "Zimbabwe"}, "mediaId": 0, "period": 2, "periodText": "2nd innings", "preText": "", "text": "slower bouncer, flat-batted to long-on. <b> Game, set, match Bangladesh. </b>", "postText": "<b>10.20pm </b> A win looked unlikely for Bangladesh as they stumbled to 139 for 6 in 30 overs, but how they've bounced back. Imrul Kayes played the innings of his life to make 144, and with support from Saifuddin haled them past 270. Then with the ball, they were ruthless as you'd expect them to be at home. Mustafizur stifled them early, then the spinners took over and choked Zimbabwe before nailing the final blow. Victory was never in doubt 30 overs into the chase, with the visitors threatening a late charge at no stage despite dew allowing the ball to slide onto the bat a lot easier.\n\nNot all is lost yet for Zimbabwe. This is a long series and they can look back on a few positives. Jarvis finished with four for 37 while Chatara took three wickets and Mavuta got one. Zimbabwe's bowling unraveled in the last 10 overs. What they would be really concerned with is their fielding.\n\nImrul Kayes is the Man of the Match for his 144.", "shortText": "Mohammad Saifuddin to Williams, 1 run", "homeScore": "0", "awayScore": "243/9", "scoreValue": 1, "sequence": 204906, "athletesInvolved": [{"id": "629070", "name": "Mohammad Saifuddin", "shortName": "Saifuddin", "displayName": "Mohammad Saifuddin"}, {"id": "55870", "name": "Sean Williams", "shortName": "Williams", "displayName": "Sean Williams"}], "speedKPH": "94.866", "speedMPH": "58.947", "bowler": {"athlete": {"id": "629070", "name": "Mohammad Saifuddin", "shortName": "Saifuddin", "fullName": "Mohammad Saifuddin", "displayName": "Mohammad Saifuddin"}, "team": {"id": "25", "name": "Bangladesh", "abbreviation": "BDESH", "displayName": "Bangladesh"}, "maidens": 1, "balls": 42, "wickets": 0, "overs": 7.0, "conceded": 29}, "otherBowler": {"athlete": {"id": "56025", "name": "Mahmudullah", "shortName": "Mahmudullah", "fullName": "Mohammad Mahmudullah", "displayName": "Mahmudullah"}, "team": {"id": "25", "name": "Bangladesh", "abbreviation": "BDESH", "displayName": "Bangladesh"}, "maidens": 0, "balls": 24, "wickets": 1, "overs": 4.0, "conceded": 24}, "batsman": {"athlete": {"id": "55870", "name": "Sean Williams", "shortName": "Williams", "fullName": "Sean Colin Williams", "displayName": "Sean Williams"}, "team": {"id": "9", "name": "Zimbabwe", "abbreviation": "ZIM", "displayName": "Zimbabwe"}, "totalRuns": 50, "faced": 58, "fours": 5, "runs": 243, "sixes": 1}, "otherBatsman": {"athlete": {"id": "425639", "name": "Tendai Chatara", "shortName": "Chatara", "fullName": "Tendai Larry Chatara", "displayName": "Tendai Chatara"}, "team": {"id": "9", "name": "Zimbabwe", "abbreviation": "ZIM", "displayName": "Zimbabwe"}, "totalRuns": 2, "faced": 4, "fours": 0, "runs": 0, "sixes": 0}, "innings": {"id": "209642", "runRate": 4.86, "remainingBalls": 0, "byes": 0, "number": 2, "balls": 300, "noBalls": 0, "wickets": 9, "legByes": 0, "ballLimit": 300, "target": 272, "session": 1, "day": 1, "fallOfWickets": 0, "remainingRuns": "29", "remainingOvers": 0.0, "totalRuns": 1, "wides": 0, "runs": 243}, "over": {"ball": 6, "balls": 6, "complete": true, "limit": 50.0, "maiden": 0, "noBall": 0, "wide": 0, "byes": 0, "legByes": 0, "number": 50, "runs": 7, "wickets": 0, "overs": 49.6, "actual": 49.6, "unique": 49.06}, "dismissal": {"dismissal": false, "bowled": false, "type": "", "bowler": {"athlete": {"id": "629070", "name": "Mohammad Saifuddin", "shortName": "Saifuddin", "fullName": "Mohammad Saifuddin", "displayName": "Mohammad Saifuddin"}}, "batsman": {"athlete": {"id": "55870", "name": "Sean Williams", "shortName": "Williams", "fullName": "Sean Colin Williams", "displayName": "Sean Williams"}}, "fielder": {"athlete": {}}, "minutes": 0, "retiredText": ""}}]}}