{"commentary": {"count": 301, "pageIndex": 13, "pageSize": 25, "pageCount": 13, "items": [{"id": "148060", "clock": "00:00", "date": "2018-01-15T12:00", "playType": {"id": "9", "description": "out"}, "team": {"id": "9", "name": "Zimbabwe", "abbreviation": "ZIM", "displayName": "Zimbabwe"}, "mediaId": 0, "period": 1, "periodText": "1st innings", "preText": "", "text": "good length on off stump, and straightens after pitching. The batsman plays down the wrong line as the ball sneaks past the outside of his bat. The cutter earns Fizz another wicket. <b>Zimbabwe are all out for 170.</b>", "postText": "For the tennis fans here: From Roger Federer joining an illustrious 30+ list to a second big quartet for Rafa, here are the <a href=\"http://www.espn.in/tennis/story/_/id/22094584/second-career-slam-rafael-nadal-magnificent-seventh-djokovic-records-grabs-2018-australian-open\" target=\"_blank\">records</a> that could be created by some of the likely champions at the Australian Open.\n\n \n\n\n\n<b>3.20 pm</b> What a dominating bowling effort from Bangladesh, after choosing to field at the toss. They started with spin, and then strangled the visitors in the first innings of this opening tri-series match. Two ducks at the top, and despite a bit of a resistance in the middle overs, Zimbabwe were all out for 170 with more than two overs to go. It's not an easy pitch to bat on and Sikandar Raza made a slugging fifty, but each of Bangladesh's strike bowlers were among the wickets. Can Zimbabwe make this chase difficult? We'll find out in just a bit.", "shortText": "Mustafizur Rahman to Muzarabani, OUT", "homeScore": "170/10", "awayScore": "0", "scoreValue": 0, "sequence": 104806, "athletesInvolved": [{"id": "330902", "name": "Mustafizur Rahman", "shortName": "Mustafizur", "displayName": "Mustafizur Rahman"}, {"id": "827051", "name": "Blessing Muzarabani", "shortName": "Muzarabani", "displayName": "Blessing Muzarabani"}], "speedKPH": "117.427", "speedMPH": "72.966", "bowler": {"athlete": {"id": "330902", "name": "Mustafizur Rahman", "shortName": "Mustafizur", "fullName": "Mustafizur Rahman", "displayName": "Mustafizur Rahman"}, "team": {"id": "25", "name": "Bangladesh", "abbreviation": "BDESH", "displayName": "Bangladesh"}, "maidens": 1, "balls": 60, "wickets": 2, "overs": 10.0, "conceded": 29}, "otherBowler": {"athlete": {"id": "300619", "name": "Rubel Hossain", "shortName": "Rubel", "fullName": "Mohammad Rubel Hossain", "displayName": "Rubel Hossain"}, "team": {"id": "25", "name": "Bangladesh", "abbreviation": "BDESH", "displayName": "Bangladesh"}, "maidens": 0, "balls": 30, "wickets": 2, "overs": 5.0, "conceded": 24}, "batsman": {"athlete": {"id": "827051", "name": "Blessing Muzarabani", "shortName": "Muzarabani", "fullName": "Blessing Muzarabani", "displayName": "Blessing Muzarabani"}, "team": {"id": "9", "name": "Zimbabwe", "abbreviation": "ZIM", "displayName": "Zimbabwe"}, "totalRuns": 1, "faced": 5, "fours": 0, "runs": 170, "sixes": 0}, "otherBatsman": {"athlete": {"id": "332996", "name": "Kyle Jarvis", "shortName": "Jarvis", "fullName": "Kyle Malcolm Jarvis", "displayName": "Kyle Jarvis"}, "team": {"id": "9", "name": "Zimbabwe", "abbreviation": "ZIM", "displayName": "Zimbabwe"}, "totalRuns": 4, "faced": 10, "fours": 0, "runs": 0, "sixes": 0}, "innings": {"id": "201963", "runRate": 3.46, "remainingBalls": 6, "byes": 0, "number": 1, "balls": 294, "noBalls": 0, "wickets": 10, "legByes": 0, "ballLimit": 300, "target": 0, "session": 1, "day": 1, "fallOfWickets": 10, "remainingOvers": 1.0, "totalRuns": 0, "wides": 0, "runs": 170}, "over": {"ball": 6, "balls": 6, "complete": true, "limit": 50.0, "maiden": 0, "noBall": 0, "wide": 0, "byes": 0, "legByes": 0, "number": 49, "runs": 3, "wickets": 1, "overs": 48.6, "actual": 48.6, "unique": 48.06}, "dismissal": {"dismissal": true, "bowled": true, "type": "bowled", "bowler": {"athlete": {"id": "330902", "name": "Mustafizur Rahman", "shortName": "Mustafizur", "fullName": "Mustafizur Rahman", "displayName": "Mustafizur Rahman"}}, "batsman": {"athlete": {"id": "827051", "name": "Blessing Muzarabani", "shortName": "Muzarabani", "fullName": "Blessing Muzarabani", "displayName": "Blessing Muzarabani"}}, "fielder": {"athlete": {}}, "minutes": 0, "retiredText": "", "text": "B Muzarabani  b Mustafizur Rahman 1 (5b 0x4 0x6) SR: 20.00"}}]}}