{"commentary": {"count": 304, "pageIndex": 13, "pageSize": 25, "pageCount": 13, "items": [{"id": "149030", "clock": "00:00", "date": "2018-01-27T12:00", "playType": {"id": "1", "description": "run"}, "team": {"id": "8", "name": "Sri Lanka", "abbreviation": "SL", "displayName": "Sri Lanka"}, "mediaId": 0, "period": 1, "periodText": "1st innings", "preText": "Kamruzzaman Rez: \"Expected that Shakib will back with no doubt and make history of achieving Tri-Nations Cup for Bangladesh.\" Well, just hope that this from our correspondent Mohammad Isam doesn't turn out to be true. \"Given Dhaka's traffic, Shakib may not be back by the time of the presentation ceremony. Just joking, of course, although not about the traffic.\"", "text": "short of a length outside off, swings without getting behind the line and misses", "postText": "", "shortText": "Rubel Hossain to Chameera, 1 run", "homeScore": "220/9", "awayScore": "0", "scoreValue": 1, "sequence": 104903, "athletesInvolved": [{"id": "552152", "name": "Dushmantha Chameera", "shortName": "Chameera", "displayName": "Dushmantha Chameera"}, {"id": "300619", "name": "Rubel Hossain", "shortName": "Rubel", "displayName": "Rubel Hossain"}], "speedKPH": "", "speedMPH": "", "bowler": {"athlete": {"id": "300619", "name": "Rubel Hossain", "shortName": "Rubel", "fullName": "Mohammad Rubel Hossain", "displayName": "Rubel Hossain"}, "team": {"id": "25", "name": "Bangladesh", "abbreviation": "BDESH", "displayName": "Bangladesh"}, "maidens": 0, "balls": 57, "wickets": 4, "overs": 9.3, "conceded": 45}, "otherBowler": {"athlete": {"id": "330902", "name": "Mustafizur Rahman", "shortName": "Mustafizur", "fullName": "Mustafizur Rahman", "displayName": "Mustafizur Rahman"}, "team": {"id": "25", "name": "Bangladesh", "abbreviation": "BDESH", "displayName": "Bangladesh"}, "maidens": 0, "balls": 60, "wickets": 2, "overs": 10.0, "conceded": 29}, "batsman": {"athlete": {"id": "552152", "name": "Dushmantha Chameera", "shortName": "Chameera", "fullName": "Pathira Vasan Dushmantha Chameera", "displayName": "Dushmantha Chameera"}, "team": {"id": "8", "name": "Sri Lanka", "abbreviation": "SL", "displayName": "Sri Lanka"}, "totalRuns": 1, "faced": 1, "fours": 0, "runs": 220, "sixes": 0}, "otherBatsman": {"athlete": {"id": "49619", "name": "Suranga Lakmal", "shortName": "Lakmal", "fullName": "Ranasinghe Arachchige Suranga Lakmal", "displayName": "Suranga Lakmal"}, "team": {"id": "8", "name": "Sri Lanka", "abbreviation": "SL", "displayName": "Sri Lanka"}, "totalRuns": 1, "faced": 2, "fours": 0, "runs": 0, "sixes": 0}, "innings": {"id": "202338", "runRate": 4.44, "remainingBalls": 3, "byes": 0, "number": 1, "balls": 297, "noBalls": 0, "wickets": 9, "legByes": 0, "ballLimit": 300, "target": 0, "session": 1, "day": 1, "fallOfWickets": 0, "remainingOvers": 0.0, "totalRuns": 1, "wides": 0, "runs": 220}, "over": {"ball": 3, "balls": 6, "complete": false, "limit": 50.0, "maiden": 0, "noBall": 0, "wide": 0, "byes": 0, "legByes": 0, "number": 50, "runs": 2, "wickets": 2, "overs": 49.3, "actual": 49.3, "unique": 49.03}, "dismissal": {"dismissal": false, "bowled": false, "type": "", "bowler": {"athlete": {"id": "300619", "name": "Rubel Hossain", "shortName": "Rubel", "fullName": "Mohammad Rubel Hossain", "displayName": "Rubel Hossain"}}, "batsman": {"athlete": {"id": "552152", "name": "Dushmantha Chameera", "shortName": "Chameera", "fullName": "Pathira Vasan Dushmantha Chameera", "displayName": "Dushmantha Chameera"}}, "fielder": {"athlete": {}}, "minutes": 0, "retiredText": ""}}, {"id": "149040", "clock": "00:00", "date": "2018-01-27T12:00", "playType": {"id": "2", "description": "no run"}, "team": {"id": "8", "name": "Sri Lanka", "abbreviation": "SL", "displayName": "Sri Lanka"}, "mediaId": 0, "period": 1, "periodText": "1st innings", "preText": "", "text": "short of a length, again makes no effort to get behind it and drags it off the toe end down the pitch", "postText": "", "shortText": "Rubel Hossain to Lakmal, no run", "homeScore": "220/9", "awayScore": "0", "scoreValue": 0, "sequence": 104904, "athletesInvolved": [{"id": "49619", "name": "Suranga Lakmal", "shortName": "Lakmal", "displayName": "Suranga Lakmal"}, {"id": "300619", "name": "Rubel Hossain", "shortName": "Rubel", "displayName": "Rubel Hossain"}], "speedKPH": "", "speedMPH": "", "bowler": {"athlete": {"id": "300619", "name": "Rubel Hossain", "shortName": "Rubel", "fullName": "Mohammad Rubel Hossain", "displayName": "Rubel Hossain"}, "team": {"id": "25", "name": "Bangladesh", "abbreviation": "BDESH", "displayName": "Bangladesh"}, "maidens": 0, "balls": 58, "wickets": 4, "overs": 9.4, "conceded": 45}, "otherBowler": {"athlete": {"id": "330902", "name": "Mustafizur Rahman", "shortName": "Mustafizur", "fullName": "Mustafizur Rahman", "displayName": "Mustafizur Rahman"}, "team": {"id": "25", "name": "Bangladesh", "abbreviation": "BDESH", "displayName": "Bangladesh"}, "maidens": 0, "balls": 60, "wickets": 2, "overs": 10.0, "conceded": 29}, "batsman": {"athlete": {"id": "49619", "name": "Suranga Lakmal", "shortName": "Lakmal", "fullName": "Ranasinghe Arachchige Suranga Lakmal", "displayName": "Suranga Lakmal"}, "team": {"id": "8", "name": "Sri Lanka", "abbreviation": "SL", "displayName": "Sri Lanka"}, "totalRuns": 1, "faced": 3, "fours": 0, "runs": 220, "sixes": 0}, "otherBatsman": {"athlete": {"id": "552152", "name": "Dushmantha Chameera", "shortName": "Chameera", "fullName": "Pathira Vasan Dushmantha Chameera", "displayName": "Dushmantha Chameera"}, "team": {"id": "8", "name": "Sri Lanka", "abbreviation": "SL", "displayName": "Sri Lanka"}, "totalRuns": 1, "faced": 1, "fours": 0, "runs": 0, "sixes": 0}, "innings": {"id": "202338", "runRate": 4.42, "remainingBalls": 2, "byes": 0, "number": 1, "balls": 298, "noBalls": 0, "wickets": 9, "legByes": 0, "ballLimit": 300, "target": 0, "session": 1, "day": 1, "fallOfWickets": 0, "remainingOvers": 0.0, "totalRuns": 0, "wides": 0, "runs": 220}, "over": {"ball": 4, "balls": 6, "complete": false, "limit": 50.0, "maiden": 0, "noBall": 0, "wide": 0, "byes": 0, "legByes": 0, "number": 50, "runs": 2, "wickets": 2, "overs": 49.4, "actual": 49.4, "unique": 49.04}, "dismissal": {"dismissal": false, "bowled": false, "type": "", "bowler": {"athlete": {"id": "300619", "name": "Rubel Hossain", "shortName": "Rubel", "fullName": "Mohammad Rubel Hossain", "displayName": "Rubel Hossain"}}, "batsman": {"athlete": {"id": "49619", "name": "Suranga Lakmal", "shortName": "Lakmal", "fullName": "Ranasinghe Arachchige Suranga Lakmal", "displayName": "Suranga Lakmal"}}, "fielder": {"athlete": {}}, "minutes": 0, "retiredText": ""}}, {"id": "149050", "clock": "00:00", "date": "2018-01-27T12:00", "playType": {"id": "1", "description": "run"}, "team": {"id": "8", "name": "Sri Lanka", "abbreviation": "SL", "displayName": "Sri Lanka"}, "mediaId": 0, "period": 1, "periodText": "1st innings", "preText": "", "postText": "", "shortText": "Rubel Hossain to Lakmal, 1 run", "homeScore": "221/9", "awayScore": "0", "scoreValue": 1, "sequence": 104905, "athletesInvolved": [{"id": "49619", "name": "Suranga Lakmal", "shortName": "Lakmal", "displayName": "Suranga Lakmal"}, {"id": "300619", "name": "Rubel Hossain", "shortName": "Rubel", "displayName": "Rubel Hossain"}], "speedKPH": "", "speedMPH": "", "bowler": {"athlete": {"id": "300619", "name": "Rubel Hossain", "shortName": "Rubel", "fullName": "Mohammad Rubel Hossain", "displayName": "Rubel Hossain"}, "team": {"id": "25", "name": "Bangladesh", "abbreviation": "BDESH", "displayName": "Bangladesh"}, "maidens": 0, "balls": 59, "wickets": 4, "overs": 9.5, "conceded": 46}, "otherBowler": {"athlete": {"id": "330902", "name": "Mustafizur Rahman", "shortName": "Mustafizur", "fullName": "Mustafizur Rahman", "displayName": "Mustafizur Rahman"}, "team": {"id": "25", "name": "Bangladesh", "abbreviation": "BDESH", "displayName": "Bangladesh"}, "maidens": 0, "balls": 60, "wickets": 2, "overs": 10.0, "conceded": 29}, "batsman": {"athlete": {"id": "49619", "name": "Suranga Lakmal", "shortName": "Lakmal", "fullName": "Ranasinghe Arachchige Suranga Lakmal", "displayName": "Suranga Lakmal"}, "team": {"id": "8", "name": "Sri Lanka", "abbreviation": "SL", "displayName": "Sri Lanka"}, "totalRuns": 2, "faced": 4, "fours": 0, "runs": 221, "sixes": 0}, "otherBatsman": {"athlete": {"id": "552152", "name": "Dushmantha Chameera", "shortName": "Chameera", "fullName": "Pathira Vasan Dushmantha Chameera", "displayName": "Dushmantha Chameera"}, "team": {"id": "8", "name": "Sri Lanka", "abbreviation": "SL", "displayName": "Sri Lanka"}, "totalRuns": 1, "faced": 1, "fours": 0, "runs": 0, "sixes": 0}, "innings": {"id": "202338", "runRate": 4.43, "remainingBalls": 1, "byes": 0, "number": 1, "balls": 299, "noBalls": 0, "wickets": 9, "legByes": 0, "ballLimit": 300, "target": 0, "session": 1, "day": 1, "fallOfWickets": 0, "remainingOvers": 0.0, "totalRuns": 1, "wides": 0, "runs": 221}, "over": {"ball": 5, "balls": 6, "complete": false, "limit": 50.0, "maiden": 0, "noBall": 0, "wide": 0, "byes": 0, "legByes": 0, "number": 50, "runs": 2, "wickets": 2, "overs": 49.5, "actual": 49.5, "unique": 49.05}, "dismissal": {"dismissal": false, "bowled": false, "type": "", "bowler": {"athlete": {"id": "300619", "name": "Rubel Hossain", "shortName": "Rubel", "fullName": "Mohammad Rubel Hossain", "displayName": "Rubel Hossain"}}, "batsman": {"athlete": {"id": "49619", "name": "Suranga Lakmal", "shortName": "Lakmal", "fullName": "Ranasinghe Arachchige Suranga Lakmal", "displayName": "Suranga Lakmal"}}, "fielder": {"athlete": {}}, "minutes": 0, "retiredText": ""}}, {"id": "149060", "clock": "00:00", "date": "2018-01-27T12:00", "playType": {"id": "9", "description": "out"}, "team": {"id": "8", "name": "Sri Lanka", "abbreviation": "SL", "displayName": "Sri Lanka"}, "mediaId": 0, "period": 1, "periodText": "1st innings", "preText": "", "text": "fullish, curving in, stays away from it and swipes big. Misses and they take off for a bye. The run was always non-existent but this is the last ball of the innings and they make the dash. Anyway, it results in a run out at the striker's end by Rahim and Sri Lanka are all out", "postText": "<b>3.45pm</b> Is this a good total or is it not? This one's pretty tricky to answer. Not an easy pitch to bat on, by any means. But I guess the accuracy of our answer - whatever that may be - would depend a lot on how well or badly Sri Lanka bowl. Bangladesh have ample firepower and if they lose less than a couple of wickets in the first 15 overs or so, they should severely boost their chances. But whichever way you look at it, Sri Lanka would have wanted more - at least 250 - especially after that consolidating partnership between Dickwella and Tharanga. That said, their bowlers still have a fair bit to bowl at. Join us back in a bit for the chase.", "shortText": "Rubel Hossain to Chameera, OUT", "homeScore": "221/10", "awayScore": "0", "scoreValue": 0, "sequence": 104906, "athletesInvolved": [{"id": "552152", "name": "Dushmantha Chameera", "shortName": "Chameera", "displayName": "Dushmantha Chameera"}, {"id": "300619", "name": "Rubel Hossain", "shortName": "Rubel", "displayName": "Rubel Hossain"}], "speedKPH": "", "speedMPH": "", "bowler": {"athlete": {"id": "300619", "name": "Rubel Hossain", "shortName": "Rubel", "fullName": "Mohammad Rubel Hossain", "displayName": "Rubel Hossain"}, "team": {"id": "25", "name": "Bangladesh", "abbreviation": "BDESH", "displayName": "Bangladesh"}, "maidens": 0, "balls": 60, "wickets": 4, "overs": 10.0, "conceded": 46}, "otherBowler": {"athlete": {"id": "330902", "name": "Mustafizur Rahman", "shortName": "Mustafizur", "fullName": "Mustafizur Rahman", "displayName": "Mustafizur Rahman"}, "team": {"id": "25", "name": "Bangladesh", "abbreviation": "BDESH", "displayName": "Bangladesh"}, "maidens": 0, "balls": 60, "wickets": 2, "overs": 10.0, "conceded": 29}, "batsman": {"athlete": {"id": "552152", "name": "Dushmantha Chameera", "shortName": "Chameera", "fullName": "Pathira Vasan Dushmantha Chameera", "displayName": "Dushmantha Chameera"}, "team": {"id": "8", "name": "Sri Lanka", "abbreviation": "SL", "displayName": "Sri Lanka"}, "totalRuns": 1, "faced": 2, "fours": 0, "runs": 221, "sixes": 0}, "otherBatsman": {"athlete": {"id": "49619", "name": "Suranga Lakmal", "shortName": "Lakmal", "fullName": "Ranasinghe Arachchige Suranga Lakmal", "displayName": "Suranga Lakmal"}, "team": {"id": "8", "name": "Sri Lanka", "abbreviation": "SL", "displayName": "Sri Lanka"}, "totalRuns": 2, "faced": 4, "fours": 0, "runs": 0, "sixes": 0}, "innings": {"id": "202338", "runRate": 4.42, "remainingBalls": 0, "byes": 0, "number": 1, "balls": 300, "noBalls": 0, "wickets": 10, "legByes": 0, "ballLimit": 300, "target": 0, "session": 1, "day": 1, "fallOfWickets": 10, "remainingOvers": 0.0, "totalRuns": 0, "wides": 0, "runs": 221}, "over": {"ball": 6, "balls": 6, "complete": true, "limit": 50.0, "maiden": 0, "noBall": 0, "wide": 0, "byes": 0, "legByes": 0, "number": 50, "runs": 2, "wickets": 2, "overs": 49.6, "actual": 49.6, "unique": 49.06}, "dismissal": {"dismissal": true, "bowled": false, "type": "run out", "bowler": {"athlete": {"id": "300619", "name": "Rubel Hossain", "shortName": "Rubel", "fullName": "Mohammad Rubel Hossain", "displayName": "Rubel Hossain"}}, "batsman": {"athlete": {"id": "552152", "name": "Dushmantha Chameera", "shortName": "Chameera", "fullName": "Pathira Vasan Dushmantha Chameera", "displayName": "Dushmantha Chameera"}}, "fielder": {"athlete": {}}, "minutes": 0, "retiredText": "", "text": "RAS Lakmal run out (&dagger;Mushfiqur Rahim) 2 (4b 0x4 0x6) SR: 50.00"}}]}}