{"commentary": {"count": 233, "pageIndex": 10, "pageSize": 25, "pageCount": 10, "items": [{"id": "237020", "clock": "00:00", "date": "2018-12-14T12:00", "playType": {"id": "2", "description": "no run"}, "team": {"id": "25", "name": "Bangladesh", "abbreviation": "BDESH", "displayName": "Bangladesh"}, "mediaId": 0, "period": 2, "periodText": "2nd innings", "preText": "", "text": "fuller outside off, and Mushfiqur gets feet moving that time, comes forward to drive it well. But straight to cover", "postText": "", "shortText": "Paul to Mushfiqur Rahim, no run", "homeScore": "0", "awayScore": "184/2", "scoreValue": 0, "sequence": 203702, "athletesInvolved": [{"id": "677081", "name": "Keemo Paul", "shortName": "Paul", "displayName": "Keemo Paul"}, {"id": "56029", "name": "Mushfiqur Rahim", "shortName": "Mushfiqur", "displayName": "Mushfiqur Rahim"}], "speedKPH": "125.952", "speedMPH": "78.263", "bowler": {"athlete": {"id": "677081", "name": "Keemo Paul", "shortName": "Paul", "fullName": "Keemo Mandela Angus Paul", "displayName": "Keemo Paul"}, "team": {"id": "4", "name": "West Indies", "abbreviation": "WI", "displayName": "West Indies"}, "maidens": 0, "balls": 38, "wickets": 2, "overs": 6.2, "conceded": 28}, "otherBowler": {"athlete": {"id": "820351", "name": "Rovman Powell", "shortName": "Powell", "fullName": "Rovman Powell", "displayName": "Rovman Powell"}, "team": {"id": "4", "name": "West Indies", "abbreviation": "WI", "displayName": "West Indies"}, "maidens": 0, "balls": 18, "wickets": 0, "overs": 3.0, "conceded": 13}, "batsman": {"athlete": {"id": "56029", "name": "Mushfiqur Rahim", "shortName": "Mushfiqur", "fullName": "Mohammad Mushfiqur Rahim", "displayName": "Mushfiqur Rahim"}, "team": {"id": "25", "name": "Bangladesh", "abbreviation": "BDESH", "displayName": "Bangladesh"}, "totalRuns": 6, "faced": 10, "fours": 1, "runs": 184, "sixes": 0}, "otherBatsman": {"athlete": {"id": "56194", "name": "Tamim Iqbal", "shortName": "Tamim", "fullName": "Tamim Iqbal Khan", "displayName": "Tamim Iqbal"}, "team": {"id": "25", "name": "Bangladesh", "abbreviation": "BDESH", "displayName": "Bangladesh"}, "totalRuns": 73, "faced": 101, "fours": 7, "runs": 0, "sixes": 0}, "innings": {"id": "211221", "runRate": 4.92, "remainingBalls": 76, "byes": 0, "number": 2, "balls": 224, "noBalls": 0, "requiredRunRate": "1.18", "wickets": 2, "legByes": 0, "ballLimit": 300, "target": 199, "session": 1, "day": 1, "fallOfWickets": 0, "remainingRuns": "15", "remainingOvers": 11.3, "totalRuns": 0, "wides": 0, "runs": 184}, "over": {"ball": 2, "balls": 6, "complete": false, "limit": 50.0, "maiden": 0, "noBall": 0, "wide": 0, "byes": 0, "legByes": 0, "number": 38, "runs": 11, "wickets": 0, "overs": 37.2, "actual": 37.2, "unique": 37.02}, "dismissal": {"dismissal": false, "bowled": false, "type": "", "bowler": {"athlete": {"id": "677081", "name": "Keemo Paul", "shortName": "Paul", "fullName": "Keemo Mandela Angus Paul", "displayName": "Keemo Paul"}}, "batsman": {"athlete": {"id": "56029", "name": "Mushfiqur Rahim", "shortName": "Mushfiqur", "fullName": "Mohammad Mushfiqur Rahim", "displayName": "Mushfiqur Rahim"}}, "fielder": {"athlete": {}}, "minutes": 0, "retiredText": ""}}, {"id": "237030", "clock": "00:00", "date": "2018-12-14T12:00", "playType": {"id": "2", "description": "no run"}, "team": {"id": "25", "name": "Bangladesh", "abbreviation": "BDESH", "displayName": "Bangladesh"}, "mediaId": 0, "period": 2, "periodText": "2nd innings", "preText": "", "text": "fuller on the stumps, and defended back to the bowler", "postText": "", "shortText": "Paul to Mushfiqur Rahim, no run", "homeScore": "0", "awayScore": "184/2", "scoreValue": 0, "sequence": 203703, "athletesInvolved": [{"id": "677081", "name": "Keemo Paul", "shortName": "Paul", "displayName": "Keemo Paul"}, {"id": "56029", "name": "Mushfiqur Rahim", "shortName": "Mushfiqur", "displayName": "Mushfiqur Rahim"}], "speedKPH": "106.102", "speedMPH": "65.929", "bowler": {"athlete": {"id": "677081", "name": "Keemo Paul", "shortName": "Paul", "fullName": "Keemo Mandela Angus Paul", "displayName": "Keemo Paul"}, "team": {"id": "4", "name": "West Indies", "abbreviation": "WI", "displayName": "West Indies"}, "maidens": 0, "balls": 39, "wickets": 2, "overs": 6.3, "conceded": 28}, "otherBowler": {"athlete": {"id": "820351", "name": "Rovman Powell", "shortName": "Powell", "fullName": "Rovman Powell", "displayName": "Rovman Powell"}, "team": {"id": "4", "name": "West Indies", "abbreviation": "WI", "displayName": "West Indies"}, "maidens": 0, "balls": 18, "wickets": 0, "overs": 3.0, "conceded": 13}, "batsman": {"athlete": {"id": "56029", "name": "Mushfiqur Rahim", "shortName": "Mushfiqur", "fullName": "Mohammad Mushfiqur Rahim", "displayName": "Mushfiqur Rahim"}, "team": {"id": "25", "name": "Bangladesh", "abbreviation": "BDESH", "displayName": "Bangladesh"}, "totalRuns": 6, "faced": 11, "fours": 1, "runs": 184, "sixes": 0}, "otherBatsman": {"athlete": {"id": "56194", "name": "Tamim Iqbal", "shortName": "Tamim", "fullName": "Tamim Iqbal Khan", "displayName": "Tamim Iqbal"}, "team": {"id": "25", "name": "Bangladesh", "abbreviation": "BDESH", "displayName": "Bangladesh"}, "totalRuns": 73, "faced": 101, "fours": 7, "runs": 0, "sixes": 0}, "innings": {"id": "211221", "runRate": 4.9, "remainingBalls": 75, "byes": 0, "number": 2, "balls": 225, "noBalls": 0, "requiredRunRate": "1.20", "wickets": 2, "legByes": 0, "ballLimit": 300, "target": 199, "session": 1, "day": 1, "fallOfWickets": 0, "remainingRuns": "15", "remainingOvers": 11.3, "totalRuns": 0, "wides": 0, "runs": 184}, "over": {"ball": 3, "balls": 6, "complete": false, "limit": 50.0, "maiden": 0, "noBall": 0, "wide": 0, "byes": 0, "legByes": 0, "number": 38, "runs": 11, "wickets": 0, "overs": 37.3, "actual": 37.3, "unique": 37.03}, "dismissal": {"dismissal": false, "bowled": false, "type": "", "bowler": {"athlete": {"id": "677081", "name": "Keemo Paul", "shortName": "Paul", "fullName": "Keemo Mandela Angus Paul", "displayName": "Keemo Paul"}}, "batsman": {"athlete": {"id": "56029", "name": "Mushfiqur Rahim", "shortName": "Mushfiqur", "fullName": "Mohammad Mushfiqur Rahim", "displayName": "Mushfiqur Rahim"}}, "fielder": {"athlete": {}}, "minutes": 0, "retiredText": ""}}, {"id": "237040", "clock": "00:00", "date": "2018-12-14T12:00", "playType": {"id": "3", "description": "four"}, "team": {"id": "25", "name": "Bangladesh", "abbreviation": "BDESH", "displayName": "Bangladesh"}, "mediaId": 0, "period": 2, "periodText": "2nd innings", "preText": "", "text": "too short and put away. Room outside off and he's not pacy enough to bowl it so short. Mushfiqur rocks back and cuts it over point", "postText": "", "shortText": "Paul to Mushfiqur Rahim, FOUR runs", "homeScore": "0", "awayScore": "188/2", "scoreValue": 4, "sequence": 203704, "athletesInvolved": [{"id": "677081", "name": "Keemo Paul", "shortName": "Paul", "displayName": "Keemo Paul"}, {"id": "56029", "name": "Mushfiqur Rahim", "shortName": "Mushfiqur", "displayName": "Mushfiqur Rahim"}], "speedKPH": "126.346", "speedMPH": "78.508", "bowler": {"athlete": {"id": "677081", "name": "Keemo Paul", "shortName": "Paul", "fullName": "Keemo Mandela Angus Paul", "displayName": "Keemo Paul"}, "team": {"id": "4", "name": "West Indies", "abbreviation": "WI", "displayName": "West Indies"}, "maidens": 0, "balls": 40, "wickets": 2, "overs": 6.4, "conceded": 32}, "otherBowler": {"athlete": {"id": "820351", "name": "Rovman Powell", "shortName": "Powell", "fullName": "Rovman Powell", "displayName": "Rovman Powell"}, "team": {"id": "4", "name": "West Indies", "abbreviation": "WI", "displayName": "West Indies"}, "maidens": 0, "balls": 18, "wickets": 0, "overs": 3.0, "conceded": 13}, "batsman": {"athlete": {"id": "56029", "name": "Mushfiqur Rahim", "shortName": "Mushfiqur", "fullName": "Mohammad Mushfiqur Rahim", "displayName": "Mushfiqur Rahim"}, "team": {"id": "25", "name": "Bangladesh", "abbreviation": "BDESH", "displayName": "Bangladesh"}, "totalRuns": 10, "faced": 12, "fours": 2, "runs": 188, "sixes": 0}, "otherBatsman": {"athlete": {"id": "56194", "name": "Tamim Iqbal", "shortName": "Tamim", "fullName": "Tamim Iqbal Khan", "displayName": "Tamim Iqbal"}, "team": {"id": "25", "name": "Bangladesh", "abbreviation": "BDESH", "displayName": "Bangladesh"}, "totalRuns": 73, "faced": 101, "fours": 7, "runs": 0, "sixes": 0}, "innings": {"id": "211221", "runRate": 4.99, "remainingBalls": 74, "byes": 0, "number": 2, "balls": 226, "noBalls": 0, "requiredRunRate": "0.89", "wickets": 2, "legByes": 0, "ballLimit": 300, "target": 199, "session": 1, "day": 1, "fallOfWickets": 0, "remainingRuns": "11", "remainingOvers": 11.3, "totalRuns": 4, "wides": 0, "runs": 188}, "over": {"ball": 4, "balls": 6, "complete": false, "limit": 50.0, "maiden": 0, "noBall": 0, "wide": 0, "byes": 0, "legByes": 0, "number": 38, "runs": 11, "wickets": 0, "overs": 37.4, "actual": 37.4, "unique": 37.04}, "dismissal": {"dismissal": false, "bowled": false, "type": "", "bowler": {"athlete": {"id": "677081", "name": "Keemo Paul", "shortName": "Paul", "fullName": "Keemo Mandela Angus Paul", "displayName": "Keemo Paul"}}, "batsman": {"athlete": {"id": "56029", "name": "Mushfiqur Rahim", "shortName": "Mushfiqur", "fullName": "Mohammad Mushfiqur Rahim", "displayName": "Mushfiqur Rahim"}}, "fielder": {"athlete": {}}, "minutes": 0, "retiredText": ""}}, {"id": "237050", "clock": "00:00", "date": "2018-12-14T12:00", "playType": {"id": "4", "description": "six"}, "team": {"id": "25", "name": "Bangladesh", "abbreviation": "BDESH", "displayName": "Bangladesh"}, "mediaId": 0, "period": 2, "periodText": "2nd innings", "preText": "", "text": "same ball, same shot, better result. short outside off again, and he stays beside the ball, and cuts it uppishly. Goes all the way", "postText": "", "shortText": "Paul to Mushfiqur Rahim, SIX runs", "homeScore": "0", "awayScore": "194/2", "scoreValue": 6, "sequence": 203705, "athletesInvolved": [{"id": "677081", "name": "Keemo Paul", "shortName": "Paul", "displayName": "Keemo Paul"}, {"id": "56029", "name": "Mushfiqur Rahim", "shortName": "Mushfiqur", "displayName": "Mushfiqur Rahim"}], "speedKPH": "128.876", "speedMPH": "80.080", "bowler": {"athlete": {"id": "677081", "name": "Keemo Paul", "shortName": "Paul", "fullName": "Keemo Mandela Angus Paul", "displayName": "Keemo Paul"}, "team": {"id": "4", "name": "West Indies", "abbreviation": "WI", "displayName": "West Indies"}, "maidens": 0, "balls": 41, "wickets": 2, "overs": 6.5, "conceded": 38}, "otherBowler": {"athlete": {"id": "820351", "name": "Rovman Powell", "shortName": "Powell", "fullName": "Rovman Powell", "displayName": "Rovman Powell"}, "team": {"id": "4", "name": "West Indies", "abbreviation": "WI", "displayName": "West Indies"}, "maidens": 0, "balls": 18, "wickets": 0, "overs": 3.0, "conceded": 13}, "batsman": {"athlete": {"id": "56029", "name": "Mushfiqur Rahim", "shortName": "Mushfiqur", "fullName": "Mohammad Mushfiqur Rahim", "displayName": "Mushfiqur Rahim"}, "team": {"id": "25", "name": "Bangladesh", "abbreviation": "BDESH", "displayName": "Bangladesh"}, "totalRuns": 16, "faced": 13, "fours": 2, "runs": 194, "sixes": 1}, "otherBatsman": {"athlete": {"id": "56194", "name": "Tamim Iqbal", "shortName": "Tamim", "fullName": "Tamim Iqbal Khan", "displayName": "Tamim Iqbal"}, "team": {"id": "25", "name": "Bangladesh", "abbreviation": "BDESH", "displayName": "Bangladesh"}, "totalRuns": 73, "faced": 101, "fours": 7, "runs": 0, "sixes": 0}, "innings": {"id": "211221", "runRate": 5.12, "remainingBalls": 73, "byes": 0, "number": 2, "balls": 227, "noBalls": 0, "requiredRunRate": "0.41", "wickets": 2, "legByes": 0, "ballLimit": 300, "target": 199, "session": 1, "day": 1, "fallOfWickets": 0, "remainingRuns": "5", "remainingOvers": 11.3, "totalRuns": 6, "wides": 0, "runs": 194}, "over": {"ball": 5, "balls": 6, "complete": false, "limit": 50.0, "maiden": 0, "noBall": 0, "wide": 0, "byes": 0, "legByes": 0, "number": 38, "runs": 11, "wickets": 0, "overs": 37.5, "actual": 37.5, "unique": 37.05}, "dismissal": {"dismissal": false, "bowled": false, "type": "", "bowler": {"athlete": {"id": "677081", "name": "Keemo Paul", "shortName": "Paul", "fullName": "Keemo Mandela Angus Paul", "displayName": "Keemo Paul"}}, "batsman": {"athlete": {"id": "56029", "name": "Mushfiqur Rahim", "shortName": "Mushfiqur", "fullName": "Mohammad Mushfiqur Rahim", "displayName": "Mushfiqur Rahim"}}, "fielder": {"athlete": {}}, "minutes": 0, "retiredText": ""}}, {"id": "237060", "clock": "00:00", "date": "2018-12-14T12:00", "playType": {"id": "2", "description": "no run"}, "team": {"id": "25", "name": "Bangladesh", "abbreviation": "BDESH", "displayName": "Bangladesh"}, "mediaId": 0, "period": 2, "periodText": "2nd innings", "preText": "", "text": "keeps it a bit fuller outside off, slapped to cover", "postText": "", "shortText": "Paul to Mushfiqur Rahim, no run", "homeScore": "0", "awayScore": "194/2", "scoreValue": 0, "sequence": 203706, "athletesInvolved": [{"id": "677081", "name": "Keemo Paul", "shortName": "Paul", "displayName": "Keemo Paul"}, {"id": "56029", "name": "Mushfiqur Rahim", "shortName": "Mushfiqur", "displayName": "Mushfiqur Rahim"}], "speedKPH": "102.229", "speedMPH": "63.522", "bowler": {"athlete": {"id": "677081", "name": "Keemo Paul", "shortName": "Paul", "fullName": "Keemo Mandela Angus Paul", "displayName": "Keemo Paul"}, "team": {"id": "4", "name": "West Indies", "abbreviation": "WI", "displayName": "West Indies"}, "maidens": 0, "balls": 42, "wickets": 2, "overs": 7.0, "conceded": 38}, "otherBowler": {"athlete": {"id": "820351", "name": "Rovman Powell", "shortName": "Powell", "fullName": "Rovman Powell", "displayName": "Rovman Powell"}, "team": {"id": "4", "name": "West Indies", "abbreviation": "WI", "displayName": "West Indies"}, "maidens": 0, "balls": 18, "wickets": 0, "overs": 3.0, "conceded": 13}, "batsman": {"athlete": {"id": "56029", "name": "Mushfiqur Rahim", "shortName": "Mushfiqur", "fullName": "Mohammad Mushfiqur Rahim", "displayName": "Mushfiqur Rahim"}, "team": {"id": "25", "name": "Bangladesh", "abbreviation": "BDESH", "displayName": "Bangladesh"}, "totalRuns": 16, "faced": 14, "fours": 2, "runs": 194, "sixes": 1}, "otherBatsman": {"athlete": {"id": "56194", "name": "Tamim Iqbal", "shortName": "Tamim", "fullName": "Tamim Iqbal Khan", "displayName": "Tamim Iqbal"}, "team": {"id": "25", "name": "Bangladesh", "abbreviation": "BDESH", "displayName": "Bangladesh"}, "totalRuns": 73, "faced": 101, "fours": 7, "runs": 0, "sixes": 0}, "innings": {"id": "211221", "runRate": 5.1, "remainingBalls": 72, "byes": 0, "number": 2, "balls": 228, "noBalls": 0, "requiredRunRate": "0.41", "wickets": 2, "legByes": 0, "ballLimit": 300, "target": 199, "session": 1, "day": 1, "fallOfWickets": 0, "remainingRuns": "5", "remainingOvers": 11.3, "totalRuns": 0, "wides": 0, "runs": 194}, "over": {"ball": 6, "balls": 6, "complete": true, "limit": 50.0, "maiden": 0, "noBall": 0, "wide": 0, "byes": 0, "legByes": 0, "number": 38, "runs": 11, "wickets": 0, "overs": 37.6, "actual": 37.6, "unique": 37.06}, "dismissal": {"dismissal": false, "bowled": false, "type": "", "bowler": {"athlete": {"id": "677081", "name": "Keemo Paul", "shortName": "Paul", "fullName": "Keemo Mandela Angus Paul", "displayName": "Keemo Paul"}}, "batsman": {"athlete": {"id": "56029", "name": "Mushfiqur Rahim", "shortName": "Mushfiqur", "fullName": "Mohammad Mushfiqur Rahim", "displayName": "Mushfiqur Rahim"}}, "fielder": {"athlete": {}}, "minutes": 0, "retiredText": ""}}, {"id": "238010", "clock": "00:00", "date": "2018-12-14T12:00", "playType": {"id": "2", "description": "no run"}, "team": {"id": "25", "name": "Bangladesh", "abbreviation": "BDESH", "displayName": "Bangladesh"}, "mediaId": 0, "period": 2, "periodText": "2nd innings", "preText": "Malcolm : \"Despite his team getting a pasting the one player everyone will remember from this rather forgettable game is Shai Hope. If only there was an award for being an absolute boss in trying circumstances.\"", "text": "full ball outside off, he comes forward and opens the face to steer to point", "postText": "", "shortText": "Powell to Tamim Iqbal, no run", "homeScore": "0", "awayScore": "194/2", "scoreValue": 0, "sequence": 203801, "athletesInvolved": [{"id": "56194", "name": "Tamim Iqbal", "shortName": "Tamim", "displayName": "Tamim Iqbal"}, {"id": "820351", "name": "Rovman Powell", "shortName": "Powell", "displayName": "Rovman Powell"}], "speedKPH": "120.693", "speedMPH": "74.995", "bowler": {"athlete": {"id": "820351", "name": "Rovman Powell", "shortName": "Powell", "fullName": "Rovman Powell", "displayName": "Rovman Powell"}, "team": {"id": "4", "name": "West Indies", "abbreviation": "WI", "displayName": "West Indies"}, "maidens": 0, "balls": 19, "wickets": 0, "overs": 3.1, "conceded": 13}, "otherBowler": {"athlete": {"id": "677081", "name": "Keemo Paul", "shortName": "Paul", "fullName": "Keemo Mandela Angus Paul", "displayName": "Keemo Paul"}, "team": {"id": "4", "name": "West Indies", "abbreviation": "WI", "displayName": "West Indies"}, "maidens": 0, "balls": 42, "wickets": 2, "overs": 7.0, "conceded": 38}, "batsman": {"athlete": {"id": "56194", "name": "Tamim Iqbal", "shortName": "Tamim", "fullName": "Tamim Iqbal Khan", "displayName": "Tamim Iqbal"}, "team": {"id": "25", "name": "Bangladesh", "abbreviation": "BDESH", "displayName": "Bangladesh"}, "totalRuns": 73, "faced": 102, "fours": 7, "runs": 194, "sixes": 0}, "otherBatsman": {"athlete": {"id": "56029", "name": "Mushfiqur Rahim", "shortName": "Mushfiqur", "fullName": "Mohammad Mushfiqur Rahim", "displayName": "Mushfiqur Rahim"}, "team": {"id": "25", "name": "Bangladesh", "abbreviation": "BDESH", "displayName": "Bangladesh"}, "totalRuns": 16, "faced": 14, "fours": 2, "runs": 0, "sixes": 1}, "innings": {"id": "211221", "runRate": 5.08, "remainingBalls": 71, "byes": 0, "number": 2, "balls": 229, "noBalls": 0, "requiredRunRate": "0.42", "wickets": 2, "legByes": 0, "ballLimit": 300, "target": 199, "session": 1, "day": 1, "fallOfWickets": 0, "remainingRuns": "5", "remainingOvers": 11.3, "totalRuns": 0, "wides": 0, "runs": 194}, "over": {"ball": 1, "balls": 3, "complete": false, "limit": 50.0, "maiden": 0, "noBall": 0, "wide": 0, "byes": 0, "legByes": 0, "number": 39, "runs": 8, "wickets": 0, "overs": 38.1, "actual": 38.1, "unique": 38.01}, "dismissal": {"dismissal": false, "bowled": false, "type": "", "bowler": {"athlete": {"id": "820351", "name": "Rovman Powell", "shortName": "Powell", "fullName": "Rovman Powell", "displayName": "Rovman Powell"}}, "batsman": {"athlete": {"id": "56194", "name": "Tamim Iqbal", "shortName": "Tamim", "fullName": "Tamim Iqbal Khan", "displayName": "Tamim Iqbal"}}, "fielder": {"athlete": {}}, "minutes": 0, "retiredText": ""}}, {"id": "238020", "clock": "00:00", "date": "2018-12-14T12:00", "playType": {"id": "3", "description": "four"}, "team": {"id": "25", "name": "Bangladesh", "abbreviation": "BDESH", "displayName": "Bangladesh"}, "mediaId": 0, "period": 2, "periodText": "2nd innings", "preText": "", "text": "<b>cheeky</b> length ball outside off and he just comes forward, opens the face of the bat at the last moment to run it down to third man and tie the scores", "postText": "", "shortText": "Powell to Tamim Iqbal, FOUR runs", "homeScore": "0", "awayScore": "198/2", "scoreValue": 4, "sequence": 203802, "athletesInvolved": [{"id": "56194", "name": "Tamim Iqbal", "shortName": "Tamim", "displayName": "Tamim Iqbal"}, {"id": "820351", "name": "Rovman Powell", "shortName": "Powell", "displayName": "Rovman Powell"}], "speedKPH": "124.721", "speedMPH": "77.498", "bowler": {"athlete": {"id": "820351", "name": "Rovman Powell", "shortName": "Powell", "fullName": "Rovman Powell", "displayName": "Rovman Powell"}, "team": {"id": "4", "name": "West Indies", "abbreviation": "WI", "displayName": "West Indies"}, "maidens": 0, "balls": 20, "wickets": 0, "overs": 3.2, "conceded": 17}, "otherBowler": {"athlete": {"id": "677081", "name": "Keemo Paul", "shortName": "Paul", "fullName": "Keemo Mandela Angus Paul", "displayName": "Keemo Paul"}, "team": {"id": "4", "name": "West Indies", "abbreviation": "WI", "displayName": "West Indies"}, "maidens": 0, "balls": 42, "wickets": 2, "overs": 7.0, "conceded": 38}, "batsman": {"athlete": {"id": "56194", "name": "Tamim Iqbal", "shortName": "Tamim", "fullName": "Tamim Iqbal Khan", "displayName": "Tamim Iqbal"}, "team": {"id": "25", "name": "Bangladesh", "abbreviation": "BDESH", "displayName": "Bangladesh"}, "totalRuns": 77, "faced": 103, "fours": 8, "runs": 198, "sixes": 0}, "otherBatsman": {"athlete": {"id": "56029", "name": "Mushfiqur Rahim", "shortName": "Mushfiqur", "fullName": "Mohammad Mushfiqur Rahim", "displayName": "Mushfiqur Rahim"}, "team": {"id": "25", "name": "Bangladesh", "abbreviation": "BDESH", "displayName": "Bangladesh"}, "totalRuns": 16, "faced": 14, "fours": 2, "runs": 0, "sixes": 1}, "innings": {"id": "211221", "runRate": 5.16, "remainingBalls": 70, "byes": 0, "number": 2, "balls": 230, "noBalls": 0, "requiredRunRate": "0.08", "wickets": 2, "legByes": 0, "ballLimit": 300, "target": 199, "session": 1, "day": 1, "fallOfWickets": 0, "remainingRuns": "1", "remainingOvers": 11.3, "totalRuns": 4, "wides": 0, "runs": 198}, "over": {"ball": 2, "balls": 3, "complete": false, "limit": 50.0, "maiden": 0, "noBall": 0, "wide": 0, "byes": 0, "legByes": 0, "number": 39, "runs": 8, "wickets": 0, "overs": 38.2, "actual": 38.2, "unique": 38.02}, "dismissal": {"dismissal": false, "bowled": false, "type": "", "bowler": {"athlete": {"id": "820351", "name": "Rovman Powell", "shortName": "Powell", "fullName": "Rovman Powell", "displayName": "Rovman Powell"}}, "batsman": {"athlete": {"id": "56194", "name": "Tamim Iqbal", "shortName": "Tamim", "fullName": "Tamim Iqbal Khan", "displayName": "Tamim Iqbal"}}, "fielder": {"athlete": {}}, "minutes": 0, "retiredText": ""}}, {"id": "238030", "clock": "00:00", "date": "2018-12-14T12:00", "playType": {"id": "3", "description": "four"}, "team": {"id": "25", "name": "Bangladesh", "abbreviation": "BDESH", "displayName": "Bangladesh"}, "mediaId": 0, "period": 2, "periodText": "2nd innings", "preText": "", "text": "<b>Bangladesh have won by eight wickets, with 11.3 overs to spare</b> Fuller ball, wide of off, and he goes for the drive, opening the face once again and beating the man at short third man to get the winning runs. Comprehensive win, and <b>Bangladesh take the series 2-1</b>", "postText": "<b>7.10pm</b> That's all from us for the ODI series. Shai Hope single-handedly made it competitive, but collectively, Bangladesh were too powerful for West Indies. Can the visiting side change the script in the T20Is? Join us on December 17 to find out. Till then, this is Saurabh Somani, signing off on behalf of Hemant and Thilak.\n\n<b>7.04pm</b> <b>Rovman Powell:</b> \"Unfortunate for Oshane to miss out. We wanted an extra spinner today. Hope deserves a lot of credit. Lots of things to rectify, we have to go back to the nets and continue to work hard. We are making improvements, it's just that we are not improving at international pace.\" He also had words of praise for Shai Hope.\n\n<b>Mehidy Hasan Miraz</b> is the Man of the Match. \"I am really happy with bowling first because the wicket was turning a little. Thanks to our team-mates. Mushfiqur told Mashrafe that I should bowl when Hetmyer came in to bat, so thanks to Mushy.\"\n\n<b>Shai Hope</b> is the Player of the Series. Well deserved. \"Still a bit dizzy to be honest, but hanging in there. Yes I got a hundred, but obviously you want to win more than getting these hundreds. (On the lack of support adding pressure) Just a bit. But it's important for me to keep it flowing. One of those days.\"\n\nFinally, we have winning captain <b>Mashrafe Mortaza</b> speaking to raucous cheers from the crowd. \"All three matches bowlers have been good. The spinners especially bowled really tight. Overall it's going alright. I think we'll do well in the T20s too, but West Indies are world champions and a very good side in T20s.\"\n\n<b>6.50pm</b> Both of Bangladesh's wins were dominant. West Indies avoided the ignominy of a sweep thanks to Shai Hope, but that's the only thing they had going for them. For my money, Hope is the Man of the Match today too, though Mehidy will probably get it for his 4-29. But Hope's was a fantastic against-the-odds innings, going completely solo. The next highest for West Indies was 19, while Hope made 108*. His strike-rate was 82.44 - that too dragged down by falling wickets - and no one else scored at more than 60 even.", "shortText": "Powell to Tamim Iqbal, FOUR runs", "homeScore": "0", "awayScore": "202/2", "scoreValue": 4, "sequence": 203803, "athletesInvolved": [{"id": "56194", "name": "Tamim Iqbal", "shortName": "Tamim", "displayName": "Tamim Iqbal"}, {"id": "820351", "name": "Rovman Powell", "shortName": "Powell", "displayName": "Rovman Powell"}], "speedKPH": "124.317", "speedMPH": "77.247", "bowler": {"athlete": {"id": "820351", "name": "Rovman Powell", "shortName": "Powell", "fullName": "Rovman Powell", "displayName": "Rovman Powell"}, "team": {"id": "4", "name": "West Indies", "abbreviation": "WI", "displayName": "West Indies"}, "maidens": 0, "balls": 21, "wickets": 0, "overs": 3.3, "conceded": 21}, "otherBowler": {"athlete": {"id": "677081", "name": "Keemo Paul", "shortName": "Paul", "fullName": "Keemo Mandela Angus Paul", "displayName": "Keemo Paul"}, "team": {"id": "4", "name": "West Indies", "abbreviation": "WI", "displayName": "West Indies"}, "maidens": 0, "balls": 42, "wickets": 2, "overs": 7.0, "conceded": 38}, "batsman": {"athlete": {"id": "56194", "name": "Tamim Iqbal", "shortName": "Tamim", "fullName": "Tamim Iqbal Khan", "displayName": "Tamim Iqbal"}, "team": {"id": "25", "name": "Bangladesh", "abbreviation": "BDESH", "displayName": "Bangladesh"}, "totalRuns": 81, "faced": 104, "fours": 9, "runs": 202, "sixes": 0}, "otherBatsman": {"athlete": {"id": "56029", "name": "Mushfiqur Rahim", "shortName": "Mushfiqur", "fullName": "Mohammad Mushfiqur Rahim", "displayName": "Mushfiqur Rahim"}, "team": {"id": "25", "name": "Bangladesh", "abbreviation": "BDESH", "displayName": "Bangladesh"}, "totalRuns": 16, "faced": 14, "fours": 2, "runs": 0, "sixes": 1}, "innings": {"id": "211221", "runRate": 5.24, "remainingBalls": 69, "byes": 0, "number": 2, "balls": 231, "noBalls": 0, "wickets": 2, "legByes": 0, "ballLimit": 300, "target": 199, "session": 1, "day": 1, "fallOfWickets": 0, "remainingOvers": 11.3, "totalRuns": 4, "wides": 0, "runs": 202}, "over": {"ball": 3, "balls": 3, "complete": false, "limit": 50.0, "maiden": 0, "noBall": 0, "wide": 0, "byes": 0, "legByes": 0, "number": 39, "runs": 8, "wickets": 0, "overs": 38.3, "actual": 38.3, "unique": 38.03}, "dismissal": {"dismissal": false, "bowled": false, "type": "", "bowler": {"athlete": {"id": "820351", "name": "Rovman Powell", "shortName": "Powell", "fullName": "Rovman Powell", "displayName": "Rovman Powell"}}, "batsman": {"athlete": {"id": "56194", "name": "Tamim Iqbal", "shortName": "Tamim", "fullName": "Tamim Iqbal Khan", "displayName": "Tamim Iqbal"}}, "fielder": {"athlete": {}}, "minutes": 0, "retiredText": ""}}]}}