{"commentary": {"count": 304, "pageIndex": 13, "pageSize": 25, "pageCount": 13, "items": [{"id": "249010", "clock": "00:00", "date": "2018-12-11T13:00", "playType": {"id": "1", "description": "run"}, "team": {"id": "4", "name": "West Indies", "abbreviation": "WI", "displayName": "West Indies"}, "mediaId": 0, "period": 2, "periodText": "2nd innings", "preText": "Six needed off the final over. Both of Hope's previous two centuries came in ties. The ball has been given to Mahmudullah. They aren't going with Rubel then", "text": "too short, and he stays back to swat it to deep midwicket. The boundary is long enough for them to run two. Good running, but it also means Paul stays on strike", "postText": "", "shortText": "Mahmudullah to Paul, 2 runs", "homeScore": "0", "awayScore": "252/6", "scoreValue": 2, "sequence": 204901, "athletesInvolved": [{"id": "677081", "name": "Keemo Paul", "shortName": "Paul", "displayName": "Keemo Paul"}, {"id": "56025", "name": "Mahmudullah", "shortName": "Mahmudullah", "displayName": "Mahmudullah"}], "speedKPH": "92.433", "speedMPH": "57.435", "bowler": {"athlete": {"id": "56025", "name": "Mahmudullah", "shortName": "Mahmudullah", "fullName": "Mohammad Mahmudullah", "displayName": "Mahmudullah"}, "team": {"id": "25", "name": "Bangladesh", "abbreviation": "BDESH", "displayName": "Bangladesh"}, "maidens": 0, "balls": 7, "wickets": 0, "overs": 1.1, "conceded": 8}, "otherBowler": {"athlete": {"id": "330902", "name": "Mustafizur Rahman", "shortName": "Mustafizur", "fullName": "Mustafizur Rahman", "displayName": "Mustafizur Rahman"}, "team": {"id": "25", "name": "Bangladesh", "abbreviation": "BDESH", "displayName": "Bangladesh"}, "maidens": 1, "balls": 60, "wickets": 2, "overs": 10.0, "conceded": 63}, "batsman": {"athlete": {"id": "677081", "name": "Keemo Paul", "shortName": "Paul", "fullName": "Keemo Mandela Angus Paul", "displayName": "Keemo Paul"}, "team": {"id": "4", "name": "West Indies", "abbreviation": "WI", "displayName": "West Indies"}, "totalRuns": 15, "faced": 29, "fours": 0, "runs": 252, "sixes": 0}, "otherBatsman": {"athlete": {"id": "581379", "name": "Shai Hope", "shortName": "Hope", "fullName": "Shai Diego Hope", "displayName": "Shai Hope"}, "team": {"id": "4", "name": "West Indies", "abbreviation": "WI", "displayName": "West Indies"}, "totalRuns": 145, "faced": 143, "fours": 12, "runs": 0, "sixes": 3}, "innings": {"id": "211115", "runRate": 5.12, "remainingBalls": 5, "byes": 0, "number": 2, "balls": 295, "noBalls": 0, "requiredRunRate": "4.80", "wickets": 6, "legByes": 0, "ballLimit": 300, "target": 256, "session": 1, "day": 1, "fallOfWickets": 0, "remainingRuns": "4", "remainingOvers": 0.2, "totalRuns": 2, "wides": 0, "runs": 252}, "over": {"ball": 1, "balls": 4, "complete": false, "limit": 50.0, "maiden": 0, "noBall": 0, "wide": 0, "byes": 0, "legByes": 0, "number": 50, "runs": 6, "wickets": 0, "overs": 49.1, "actual": 49.1, "unique": 49.01}, "dismissal": {"dismissal": false, "bowled": false, "type": "", "bowler": {"athlete": {"id": "56025", "name": "Mahmudullah", "shortName": "Mahmudullah", "fullName": "Mohammad Mahmudullah", "displayName": "Mahmudullah"}}, "batsman": {"athlete": {"id": "677081", "name": "Keemo Paul", "shortName": "Paul", "fullName": "Keemo Mandela Angus Paul", "displayName": "Keemo Paul"}}, "fielder": {"athlete": {}}, "minutes": 0, "retiredText": ""}}, {"id": "249020", "clock": "00:00", "date": "2018-12-11T13:00", "playType": {"id": "1", "description": "run"}, "team": {"id": "4", "name": "West Indies", "abbreviation": "WI", "displayName": "West Indies"}, "mediaId": 0, "period": 2, "periodText": "2nd innings", "preText": "", "text": "too short again, and pulled. In the air but bounces well in front of deep midwicket", "postText": "", "shortText": "Mahmudullah to Paul, 1 run", "homeScore": "0", "awayScore": "253/6", "scoreValue": 1, "sequence": 204902, "athletesInvolved": [{"id": "677081", "name": "Keemo Paul", "shortName": "Paul", "displayName": "Keemo Paul"}, {"id": "56025", "name": "Mahmudullah", "shortName": "Mahmudullah", "displayName": "Mahmudullah"}], "speedKPH": "", "speedMPH": "", "bowler": {"athlete": {"id": "56025", "name": "Mahmudullah", "shortName": "Mahmudullah", "fullName": "Mohammad Mahmudullah", "displayName": "Mahmudullah"}, "team": {"id": "25", "name": "Bangladesh", "abbreviation": "BDESH", "displayName": "Bangladesh"}, "maidens": 0, "balls": 8, "wickets": 0, "overs": 1.2, "conceded": 9}, "otherBowler": {"athlete": {"id": "330902", "name": "Mustafizur Rahman", "shortName": "Mustafizur", "fullName": "Mustafizur Rahman", "displayName": "Mustafizur Rahman"}, "team": {"id": "25", "name": "Bangladesh", "abbreviation": "BDESH", "displayName": "Bangladesh"}, "maidens": 1, "balls": 60, "wickets": 2, "overs": 10.0, "conceded": 63}, "batsman": {"athlete": {"id": "677081", "name": "Keemo Paul", "shortName": "Paul", "fullName": "Keemo Mandela Angus Paul", "displayName": "Keemo Paul"}, "team": {"id": "4", "name": "West Indies", "abbreviation": "WI", "displayName": "West Indies"}, "totalRuns": 16, "faced": 30, "fours": 0, "runs": 253, "sixes": 0}, "otherBatsman": {"athlete": {"id": "581379", "name": "Shai Hope", "shortName": "Hope", "fullName": "Shai Diego Hope", "displayName": "Shai Hope"}, "team": {"id": "4", "name": "West Indies", "abbreviation": "WI", "displayName": "West Indies"}, "totalRuns": 145, "faced": 143, "fours": 12, "runs": 0, "sixes": 3}, "innings": {"id": "211115", "runRate": 5.12, "remainingBalls": 4, "byes": 0, "number": 2, "balls": 296, "noBalls": 0, "requiredRunRate": "4.50", "wickets": 6, "legByes": 0, "ballLimit": 300, "target": 256, "session": 1, "day": 1, "fallOfWickets": 0, "remainingRuns": "3", "remainingOvers": 0.2, "totalRuns": 1, "wides": 0, "runs": 253}, "over": {"ball": 2, "balls": 4, "complete": false, "limit": 50.0, "maiden": 0, "noBall": 0, "wide": 0, "byes": 0, "legByes": 0, "number": 50, "runs": 6, "wickets": 0, "overs": 49.2, "actual": 49.2, "unique": 49.02}, "dismissal": {"dismissal": false, "bowled": false, "type": "", "bowler": {"athlete": {"id": "56025", "name": "Mahmudullah", "shortName": "Mahmudullah", "fullName": "Mohammad Mahmudullah", "displayName": "Mahmudullah"}}, "batsman": {"athlete": {"id": "677081", "name": "Keemo Paul", "shortName": "Paul", "fullName": "Keemo Mandela Angus Paul", "displayName": "Keemo Paul"}}, "fielder": {"athlete": {}}, "minutes": 0, "retiredText": ""}}, {"id": "249030", "clock": "00:00", "date": "2018-12-11T13:00", "playType": {"id": "1", "description": "run"}, "team": {"id": "4", "name": "West Indies", "abbreviation": "WI", "displayName": "West Indies"}, "mediaId": 0, "period": 2, "periodText": "2nd innings", "preText": "Manj: \"Nobody noticed the partnership crossed 50. \"", "text": "too short again, Hope stays low and swivel-pulls to deep square leg", "postText": "", "shortText": "Mahmudullah to Hope, 1 run", "homeScore": "0", "awayScore": "254/6", "scoreValue": 1, "sequence": 204903, "athletesInvolved": [{"id": "56025", "name": "Mahmudullah", "shortName": "Mahmudullah", "displayName": "Mahmudullah"}, {"id": "581379", "name": "Shai Hope", "shortName": "Hope", "displayName": "Shai Hope"}], "speedKPH": "84.721", "speedMPH": "52.643", "bowler": {"athlete": {"id": "56025", "name": "Mahmudullah", "shortName": "Mahmudullah", "fullName": "Mohammad Mahmudullah", "displayName": "Mahmudullah"}, "team": {"id": "25", "name": "Bangladesh", "abbreviation": "BDESH", "displayName": "Bangladesh"}, "maidens": 0, "balls": 9, "wickets": 0, "overs": 1.3, "conceded": 10}, "otherBowler": {"athlete": {"id": "330902", "name": "Mustafizur Rahman", "shortName": "Mustafizur", "fullName": "Mustafizur Rahman", "displayName": "Mustafizur Rahman"}, "team": {"id": "25", "name": "Bangladesh", "abbreviation": "BDESH", "displayName": "Bangladesh"}, "maidens": 1, "balls": 60, "wickets": 2, "overs": 10.0, "conceded": 63}, "batsman": {"athlete": {"id": "581379", "name": "Shai Hope", "shortName": "Hope", "fullName": "Shai Diego Hope", "displayName": "Shai Hope"}, "team": {"id": "4", "name": "West Indies", "abbreviation": "WI", "displayName": "West Indies"}, "totalRuns": 146, "faced": 144, "fours": 12, "runs": 254, "sixes": 3}, "otherBatsman": {"athlete": {"id": "677081", "name": "Keemo Paul", "shortName": "Paul", "fullName": "Keemo Mandela Angus Paul", "displayName": "Keemo Paul"}, "team": {"id": "4", "name": "West Indies", "abbreviation": "WI", "displayName": "West Indies"}, "totalRuns": 16, "faced": 30, "fours": 0, "runs": 0, "sixes": 0}, "innings": {"id": "211115", "runRate": 5.13, "remainingBalls": 3, "byes": 0, "number": 2, "balls": 297, "noBalls": 0, "requiredRunRate": "4.00", "wickets": 6, "legByes": 0, "ballLimit": 300, "target": 256, "session": 1, "day": 1, "fallOfWickets": 0, "remainingRuns": "2", "remainingOvers": 0.2, "totalRuns": 1, "wides": 0, "runs": 254}, "over": {"ball": 3, "balls": 4, "complete": false, "limit": 50.0, "maiden": 0, "noBall": 0, "wide": 0, "byes": 0, "legByes": 0, "number": 50, "runs": 6, "wickets": 0, "overs": 49.3, "actual": 49.3, "unique": 49.03}, "dismissal": {"dismissal": false, "bowled": false, "type": "", "bowler": {"athlete": {"id": "56025", "name": "Mahmudullah", "shortName": "Mahmudullah", "fullName": "Mohammad Mahmudullah", "displayName": "Mahmudullah"}}, "batsman": {"athlete": {"id": "581379", "name": "Shai Hope", "shortName": "Hope", "fullName": "Shai Diego Hope", "displayName": "Shai Hope"}}, "fielder": {"athlete": {}}, "minutes": 0, "retiredText": ""}}, {"id": "249040", "clock": "00:00", "date": "2018-12-11T13:00", "playType": {"id": "1", "description": "run"}, "team": {"id": "4", "name": "West Indies", "abbreviation": "WI", "displayName": "West Indies"}, "mediaId": 0, "period": 2, "periodText": "2nd innings", "preText": "2 needed off 3.", "text": "too short again, and pulled away again, and they run a hard two. <b>West Indies have won</b> Magnificent, magnificent knock by Shai Hope. It's the first win for West Indies on tour after two bad defeats in the Tests and one thrashing in the first ODI. But they have now levelled the series and there is all to play for in the last ODI.", "postText": "<b>9.24pm</b> That's all from us for this ODI. On behalf of Akshay Gopalakrishnan and Venkat Raghav, this is Saurabh Somani signing off. Do join us for the series-deciding third ODI.\n\n<b>9.17 pm</b> <b>Mashrafe Mortaza:</b> \"It was a 50-50 match at the end, but we couldn't hold the pressure. There's a match left, so hopefully we'll come back. (On the last few overs of their batting) We lost a lot of wickets when set in the middle and then Shakib, Mahmudullah got out. Dropping some catches was also costly. Credit goes to him (Shai Hope) he batted really well. He held his nerve and finished it nicely. Our batting was alright till about 20-25 overs. Bowling we started very well. This was a better pitch than last time. Still it was a good fight.<br><br>\n\nNo surprise at all that <b>Shai Hope</b> is the Man of the Match. \"Not jsut yet (on top of the world). Still 1-1 in the series, but very pleased. I backed myself and knew that as long as I batted till the end, we'd get a victory. I asked Keemo to bat as deep as he possibly could. It wasn't the easiest wicket to come in on and strike the ball. <br><br>\n\n<b>Rovman Powell:</b> \"I think the guys did a fantastic job. At the interval we'd take 250 on this wicket. The bowling department has always done well. We didn't start well as we wanted, but we pulled it back in the death overs. The start is something we're looking to improve. We have a chance now to win the series. Shai played a blinder of an innings. It goes to show that if the batsmen stand up, they can get big scores.<br><br>\n\nHope is being hugged and greeted by every West Indies member. It's been an incredible innings. His partners were often too slow, but he just carried on, and on, and on. Found the fence everytime it was needed. Never let the pressure consume him. Then took on Mustafizur in a key penultimate over which tipped the balance West Indies' way. Stick around for the presentations, there promises to be interesting things that will be said.", "shortText": "Mahmudullah to Paul, 2 runs", "homeScore": "0", "awayScore": "256/6", "scoreValue": 2, "sequence": 204904, "athletesInvolved": [{"id": "677081", "name": "Keemo Paul", "shortName": "Paul", "displayName": "Keemo Paul"}, {"id": "56025", "name": "Mahmudullah", "shortName": "Mahmudullah", "displayName": "Mahmudullah"}], "speedKPH": "94.311", "speedMPH": "58.602", "bowler": {"athlete": {"id": "56025", "name": "Mahmudullah", "shortName": "Mahmudullah", "fullName": "Mohammad Mahmudullah", "displayName": "Mahmudullah"}, "team": {"id": "25", "name": "Bangladesh", "abbreviation": "BDESH", "displayName": "Bangladesh"}, "maidens": 0, "balls": 10, "wickets": 0, "overs": 1.4, "conceded": 12}, "otherBowler": {"athlete": {"id": "330902", "name": "Mustafizur Rahman", "shortName": "Mustafizur", "fullName": "Mustafizur Rahman", "displayName": "Mustafizur Rahman"}, "team": {"id": "25", "name": "Bangladesh", "abbreviation": "BDESH", "displayName": "Bangladesh"}, "maidens": 1, "balls": 60, "wickets": 2, "overs": 10.0, "conceded": 63}, "batsman": {"athlete": {"id": "677081", "name": "Keemo Paul", "shortName": "Paul", "fullName": "Keemo Mandela Angus Paul", "displayName": "Keemo Paul"}, "team": {"id": "4", "name": "West Indies", "abbreviation": "WI", "displayName": "West Indies"}, "totalRuns": 18, "faced": 31, "fours": 0, "runs": 256, "sixes": 0}, "otherBatsman": {"athlete": {"id": "581379", "name": "Shai Hope", "shortName": "Hope", "fullName": "Shai Diego Hope", "displayName": "Shai Hope"}, "team": {"id": "4", "name": "West Indies", "abbreviation": "WI", "displayName": "West Indies"}, "totalRuns": 146, "faced": 144, "fours": 12, "runs": 0, "sixes": 3}, "innings": {"id": "211115", "runRate": 5.15, "remainingBalls": 2, "byes": 0, "number": 2, "balls": 298, "noBalls": 0, "wickets": 6, "legByes": 0, "ballLimit": 300, "target": 256, "session": 1, "day": 1, "fallOfWickets": 0, "remainingOvers": 0.2, "totalRuns": 2, "wides": 0, "runs": 256}, "over": {"ball": 4, "balls": 4, "complete": false, "limit": 50.0, "maiden": 0, "noBall": 0, "wide": 0, "byes": 0, "legByes": 0, "number": 50, "runs": 6, "wickets": 0, "overs": 49.4, "actual": 49.4, "unique": 49.04}, "dismissal": {"dismissal": false, "bowled": false, "type": "", "bowler": {"athlete": {"id": "56025", "name": "Mahmudullah", "shortName": "Mahmudullah", "fullName": "Mohammad Mahmudullah", "displayName": "Mahmudullah"}}, "batsman": {"athlete": {"id": "677081", "name": "Keemo Paul", "shortName": "Paul", "fullName": "Keemo Mandela Angus Paul", "displayName": "Keemo Paul"}}, "fielder": {"athlete": {}}, "minutes": 0, "retiredText": ""}}]}}