{"commentary": {"count": 308, "pageIndex": 13, "pageSize": 25, "pageCount": 13, "items": [{"id": "148060", "clock": "00:00", "date": "2019-06-02T10:30", "playType": {"id": "1", "description": "run"}, "team": {"id": "25", "name": "Bangladesh", "abbreviation": "BDESH", "displayName": "Bangladesh"}, "mediaId": 0, "period": 1, "periodText": "1st innings", "preText": "", "text": "charges and creates a half-volley but the sweetly struck square drive flies straight to the man on the cover-point rope", "postText": "", "shortText": "Morris to Mahmudullah, 1 run", "homeScore": "316/5", "awayScore": "0", "scoreValue": 1, "sequence": 104806, "athletesInvolved": [{"id": "439952", "name": "Chris Morris", "shortName": "Morris", "displayName": "Chris Morris"}, {"id": "56025", "name": "Mahmudullah", "shortName": "Mahmudullah", "displayName": "Mahmudullah"}], "speedKPH": "", "speedMPH": "", "bowler": {"athlete": {"id": "439952", "name": "Chris Morris", "shortName": "Morris", "fullName": "Christopher Henry Morris", "displayName": "Chris Morris"}, "team": {"id": "3", "name": "South Africa", "abbreviation": "SA", "displayName": "South Africa"}, "maidens": 0, "balls": 59, "wickets": 1, "overs": 9.5, "conceded": 73}, "otherBowler": {"athlete": {"id": "540316", "name": "Andile Phehlukwayo", "shortName": "Andile", "fullName": "Andile Lucky Phehlukwayo", "displayName": "Andile Phehlukwayo"}, "team": {"id": "3", "name": "South Africa", "abbreviation": "SA", "displayName": "South Africa"}, "maidens": 1, "balls": 60, "wickets": 2, "overs": 10.0, "conceded": 52}, "batsman": {"athlete": {"id": "56025", "name": "Mahmudullah", "shortName": "Mahmudullah", "fullName": "Mohammad Mahmudullah", "displayName": "Mahmudullah"}, "team": {"id": "25", "name": "Bangladesh", "abbreviation": "BDESH", "displayName": "Bangladesh"}, "totalRuns": 37, "faced": 30, "fours": 3, "runs": 316, "sixes": 0}, "otherBatsman": {"athlete": {"id": "550133", "name": "Mosaddek Hossain", "shortName": "Mosaddek", "fullName": "Mosaddek Hossain Saikat", "displayName": "Mosaddek Hossain"}, "team": {"id": "25", "name": "Bangladesh", "abbreviation": "BDESH", "displayName": "Bangladesh"}, "totalRuns": 26, "faced": 19, "fours": 4, "runs": 0, "sixes": 0}, "innings": {"id": "216163", "runRate": 6.47, "remainingBalls": 7, "byes": 0, "number": 1, "balls": 293, "noBalls": 0, "wickets": 5, "legByes": 0, "ballLimit": 300, "target": 0, "session": 1, "day": 1, "fallOfWickets": 0, "remainingOvers": 1.1, "totalRuns": 1, "wides": 0, "runs": 316}, "over": {"ball": 6, "balls": 6, "complete": false, "limit": 50.0, "maiden": 0, "noBall": 0, "wide": 0, "byes": 0, "legByes": 0, "number": 49, "runs": 14, "wickets": 1, "overs": 48.5, "actual": 48.5, "unique": 48.06}, "dismissal": {"dismissal": false, "bowled": false, "type": "", "bowler": {"athlete": {"id": "439952", "name": "Chris Morris", "shortName": "Morris", "fullName": "Christopher Henry Morris", "displayName": "Chris Morris"}}, "batsman": {"athlete": {"id": "56025", "name": "Mahmudullah", "shortName": "Mahmudullah", "fullName": "Mohammad Mahmudullah", "displayName": "Mahmudullah"}}, "fielder": {"athlete": {}}, "minutes": 0, "retiredText": ""}}, {"id": "148070", "clock": "00:00", "date": "2019-06-02T10:30", "playType": {"id": "9", "description": "out"}, "team": {"id": "25", "name": "Bangladesh", "abbreviation": "BDESH", "displayName": "Bangladesh"}, "mediaId": 0, "period": 1, "periodText": "1st innings", "preText": "", "text": "<strong>chipped to mid off!</strong> It was a low full toss, he sat deep in his crease to try and loft over mid off, but just chipped it off the toe of the bat straight to Phehlukwayo on the circle and he took the simple catch with no celebration at all", "postText": "", "shortText": "Morris to Mosaddek Hossain, OUT", "homeScore": "316/6", "awayScore": "0", "scoreValue": 0, "sequence": 104807, "athletesInvolved": [{"id": "540316", "name": "Andile Phehlukwayo", "shortName": "Andile", "displayName": "Andile Phehlukwayo"}, {"id": "439952", "name": "Chris Morris", "shortName": "Morris", "displayName": "Chris Morris"}, {"id": "550133", "name": "Mosaddek Hossain", "shortName": "Mosaddek", "displayName": "Mosaddek Hossain"}], "speedKPH": "", "speedMPH": "", "bowler": {"athlete": {"id": "439952", "name": "Chris Morris", "shortName": "Morris", "fullName": "Christopher Henry Morris", "displayName": "Chris Morris"}, "team": {"id": "3", "name": "South Africa", "abbreviation": "SA", "displayName": "South Africa"}, "maidens": 0, "balls": 60, "wickets": 2, "overs": 10.0, "conceded": 73}, "otherBowler": {"athlete": {"id": "540316", "name": "Andile Phehlukwayo", "shortName": "Andile", "fullName": "Andile Lucky Phehlukwayo", "displayName": "Andile Phehlukwayo"}, "team": {"id": "3", "name": "South Africa", "abbreviation": "SA", "displayName": "South Africa"}, "maidens": 1, "balls": 60, "wickets": 2, "overs": 10.0, "conceded": 52}, "batsman": {"athlete": {"id": "550133", "name": "Mosaddek Hossain", "shortName": "Mosaddek", "fullName": "Mosaddek Hossain Saikat", "displayName": "Mosaddek Hossain"}, "team": {"id": "25", "name": "Bangladesh", "abbreviation": "BDESH", "displayName": "Bangladesh"}, "totalRuns": 26, "faced": 20, "fours": 4, "runs": 316, "sixes": 0}, "otherBatsman": {"athlete": {"id": "56025", "name": "Mahmudullah", "shortName": "Mahmudullah", "fullName": "Mohammad Mahmudullah", "displayName": "Mahmudullah"}, "team": {"id": "25", "name": "Bangladesh", "abbreviation": "BDESH", "displayName": "Bangladesh"}, "totalRuns": 37, "faced": 30, "fours": 3, "runs": 0, "sixes": 0}, "innings": {"id": "216163", "runRate": 6.44, "remainingBalls": 6, "byes": 0, "number": 1, "balls": 294, "noBalls": 0, "wickets": 6, "legByes": 0, "ballLimit": 300, "target": 0, "session": 1, "day": 1, "fallOfWickets": 6, "remainingOvers": 0.0, "totalRuns": 0, "wides": 0, "runs": 316}, "over": {"ball": 7, "balls": 6, "complete": true, "limit": 50.0, "maiden": 0, "noBall": 0, "wide": 0, "byes": 0, "legByes": 0, "number": 49, "runs": 14, "wickets": 1, "overs": 48.6, "actual": 48.6, "unique": 48.07}, "dismissal": {"dismissal": true, "bowled": true, "type": "caught", "bowler": {"athlete": {"id": "439952", "name": "Chris Morris", "shortName": "Morris", "fullName": "Christopher Henry Morris", "displayName": "Chris Morris"}}, "batsman": {"athlete": {"id": "550133", "name": "Mosaddek Hossain", "shortName": "Mosaddek", "fullName": "Mosaddek Hossain Saikat", "displayName": "Mosaddek Hossain"}}, "fielder": {"athlete": {}}, "minutes": 32, "retiredText": "", "text": "Mosaddek Hossain c Phehlukwayo b Morris 26 (32m 20b 4x4 0x6) SR: 130.00"}}, {"id": "149010", "clock": "00:00", "date": "2019-06-02T10:30", "playType": {"id": "4", "description": "six"}, "team": {"id": "25", "name": "Bangladesh", "abbreviation": "BDESH", "displayName": "Bangladesh"}, "mediaId": 0, "period": 1, "periodText": "1st innings", "preText": "Rabada to finish", "text": "<strong>launched over square leg into the stands!</strong> A length ball in the slot on leg stump, he shipped this up and over forward square with immense power!", "postText": "", "shortText": "Rabada to Mahmudullah, SIX runs", "homeScore": "322/6", "awayScore": "0", "scoreValue": 6, "sequence": 104901, "athletesInvolved": [{"id": "56025", "name": "Mahmudullah", "shortName": "Mahmudullah", "displayName": "Mahmudullah"}, {"id": "550215", "name": "Kagiso Rabada", "shortName": "Rabada", "displayName": "Kagiso Rabada"}], "speedKPH": "", "speedMPH": "", "bowler": {"athlete": {"id": "550215", "name": "Kagiso Rabada", "shortName": "Rabada", "fullName": "Kagiso Rabada", "displayName": "Kagiso Rabada"}, "team": {"id": "3", "name": "South Africa", "abbreviation": "SA", "displayName": "South Africa"}, "maidens": 0, "balls": 55, "wickets": 0, "overs": 9.1, "conceded": 49}, "otherBowler": {"athlete": {"id": "439952", "name": "Chris Morris", "shortName": "Morris", "fullName": "Christopher Henry Morris", "displayName": "Chris Morris"}, "team": {"id": "3", "name": "South Africa", "abbreviation": "SA", "displayName": "South Africa"}, "maidens": 0, "balls": 60, "wickets": 2, "overs": 10.0, "conceded": 73}, "batsman": {"athlete": {"id": "56025", "name": "Mahmudullah", "shortName": "Mahmudullah", "fullName": "Mohammad Mahmudullah", "displayName": "Mahmudullah"}, "team": {"id": "25", "name": "Bangladesh", "abbreviation": "BDESH", "displayName": "Bangladesh"}, "totalRuns": 43, "faced": 31, "fours": 3, "runs": 322, "sixes": 1}, "otherBatsman": {"athlete": {"id": "629063", "name": "Mehidy Hasan", "shortName": "Mehidy", "fullName": "Mehidy Hasan Miraz", "displayName": "Mehidy Hasan"}, "team": {"id": "25", "name": "Bangladesh", "abbreviation": "BDESH", "displayName": "Bangladesh"}, "totalRuns": 0, "faced": 0, "fours": 0, "runs": 0, "sixes": 0}, "innings": {"id": "216163", "runRate": 6.54, "remainingBalls": 5, "byes": 0, "number": 1, "balls": 295, "noBalls": 0, "wickets": 6, "legByes": 0, "ballLimit": 300, "target": 0, "session": 1, "day": 1, "fallOfWickets": 0, "remainingOvers": 0.4, "totalRuns": 6, "wides": 0, "runs": 322}, "over": {"ball": 1, "balls": 6, "complete": false, "limit": 50.0, "maiden": 0, "noBall": 0, "wide": 0, "byes": 0, "legByes": 0, "number": 50, "runs": 14, "wickets": 0, "overs": 49.1, "actual": 49.1, "unique": 49.01}, "dismissal": {"dismissal": false, "bowled": false, "type": "", "bowler": {"athlete": {"id": "550215", "name": "Kagiso Rabada", "shortName": "Rabada", "fullName": "Kagiso Rabada", "displayName": "Kagiso Rabada"}}, "batsman": {"athlete": {"id": "56025", "name": "Mahmudullah", "shortName": "Mahmudullah", "fullName": "Mohammad Mahmudullah", "displayName": "Mahmudullah"}}, "fielder": {"athlete": {}}, "minutes": 0, "retiredText": ""}}, {"id": "149020", "clock": "00:00", "date": "2019-06-02T10:30", "playType": {"id": "1", "description": "run"}, "team": {"id": "25", "name": "Bangladesh", "abbreviation": "BDESH", "displayName": "Bangladesh"}, "mediaId": 0, "period": 1, "periodText": "1st innings", "preText": "", "text": "slower ball on off, he dabs this to backward point for a single", "postText": "", "shortText": "Rabada to Mahmudullah, 1 run", "homeScore": "323/6", "awayScore": "0", "scoreValue": 1, "sequence": 104902, "athletesInvolved": [{"id": "56025", "name": "Mahmudullah", "shortName": "Mahmudullah", "displayName": "Mahmudullah"}, {"id": "550215", "name": "Kagiso Rabada", "shortName": "Rabada", "displayName": "Kagiso Rabada"}], "speedKPH": "", "speedMPH": "", "bowler": {"athlete": {"id": "550215", "name": "Kagiso Rabada", "shortName": "Rabada", "fullName": "Kagiso Rabada", "displayName": "Kagiso Rabada"}, "team": {"id": "3", "name": "South Africa", "abbreviation": "SA", "displayName": "South Africa"}, "maidens": 0, "balls": 56, "wickets": 0, "overs": 9.2, "conceded": 50}, "otherBowler": {"athlete": {"id": "439952", "name": "Chris Morris", "shortName": "Morris", "fullName": "Christopher Henry Morris", "displayName": "Chris Morris"}, "team": {"id": "3", "name": "South Africa", "abbreviation": "SA", "displayName": "South Africa"}, "maidens": 0, "balls": 60, "wickets": 2, "overs": 10.0, "conceded": 73}, "batsman": {"athlete": {"id": "56025", "name": "Mahmudullah", "shortName": "Mahmudullah", "fullName": "Mohammad Mahmudullah", "displayName": "Mahmudullah"}, "team": {"id": "25", "name": "Bangladesh", "abbreviation": "BDESH", "displayName": "Bangladesh"}, "totalRuns": 44, "faced": 32, "fours": 3, "runs": 323, "sixes": 1}, "otherBatsman": {"athlete": {"id": "629063", "name": "Mehidy Hasan", "shortName": "Mehidy", "fullName": "Mehidy Hasan Miraz", "displayName": "Mehidy Hasan"}, "team": {"id": "25", "name": "Bangladesh", "abbreviation": "BDESH", "displayName": "Bangladesh"}, "totalRuns": 0, "faced": 0, "fours": 0, "runs": 0, "sixes": 0}, "innings": {"id": "216163", "runRate": 6.54, "remainingBalls": 4, "byes": 0, "number": 1, "balls": 296, "noBalls": 0, "wickets": 6, "legByes": 0, "ballLimit": 300, "target": 0, "session": 1, "day": 1, "fallOfWickets": 0, "remainingOvers": 0.4, "totalRuns": 1, "wides": 0, "runs": 323}, "over": {"ball": 2, "balls": 6, "complete": false, "limit": 50.0, "maiden": 0, "noBall": 0, "wide": 0, "byes": 0, "legByes": 0, "number": 50, "runs": 14, "wickets": 0, "overs": 49.2, "actual": 49.2, "unique": 49.02}, "dismissal": {"dismissal": false, "bowled": false, "type": "", "bowler": {"athlete": {"id": "550215", "name": "Kagiso Rabada", "shortName": "Rabada", "fullName": "Kagiso Rabada", "displayName": "Kagiso Rabada"}}, "batsman": {"athlete": {"id": "56025", "name": "Mahmudullah", "shortName": "Mahmudullah", "fullName": "Mohammad Mahmudullah", "displayName": "Mahmudullah"}}, "fielder": {"athlete": {}}, "minutes": 0, "retiredText": ""}}, {"id": "149030", "clock": "00:00", "date": "2019-06-02T10:30", "playType": {"id": "3", "description": "four"}, "team": {"id": "25", "name": "Bangladesh", "abbreviation": "BDESH", "displayName": "Bangladesh"}, "mediaId": 0, "period": 1, "periodText": "1st innings", "preText": "", "text": "<strong>cracked over cover!</strong> Some shot this first ball. He cleared the front leg, got a length ball outside off and just caressed it up and over cover!", "postText": "", "shortText": "Rabada to Mehidy Hasan Miraz, FOUR runs", "homeScore": "327/6", "awayScore": "0", "scoreValue": 4, "sequence": 104903, "athletesInvolved": [{"id": "629063", "name": "Mehidy Hasan", "shortName": "Mehidy", "displayName": "Mehidy Hasan"}, {"id": "550215", "name": "Kagiso Rabada", "shortName": "Rabada", "displayName": "Kagiso Rabada"}], "speedKPH": "", "speedMPH": "", "bowler": {"athlete": {"id": "550215", "name": "Kagiso Rabada", "shortName": "Rabada", "fullName": "Kagiso Rabada", "displayName": "Kagiso Rabada"}, "team": {"id": "3", "name": "South Africa", "abbreviation": "SA", "displayName": "South Africa"}, "maidens": 0, "balls": 57, "wickets": 0, "overs": 9.3, "conceded": 54}, "otherBowler": {"athlete": {"id": "439952", "name": "Chris Morris", "shortName": "Morris", "fullName": "Christopher Henry Morris", "displayName": "Chris Morris"}, "team": {"id": "3", "name": "South Africa", "abbreviation": "SA", "displayName": "South Africa"}, "maidens": 0, "balls": 60, "wickets": 2, "overs": 10.0, "conceded": 73}, "batsman": {"athlete": {"id": "629063", "name": "Mehidy Hasan", "shortName": "Mehidy", "fullName": "Mehidy Hasan Miraz", "displayName": "Mehidy Hasan"}, "team": {"id": "25", "name": "Bangladesh", "abbreviation": "BDESH", "displayName": "Bangladesh"}, "totalRuns": 4, "faced": 1, "fours": 1, "runs": 327, "sixes": 0}, "otherBatsman": {"athlete": {"id": "56025", "name": "Mahmudullah", "shortName": "Mahmudullah", "fullName": "Mohammad Mahmudullah", "displayName": "Mahmudullah"}, "team": {"id": "25", "name": "Bangladesh", "abbreviation": "BDESH", "displayName": "Bangladesh"}, "totalRuns": 44, "faced": 32, "fours": 3, "runs": 0, "sixes": 1}, "innings": {"id": "216163", "runRate": 6.6, "remainingBalls": 3, "byes": 0, "number": 1, "balls": 297, "noBalls": 0, "wickets": 6, "legByes": 0, "ballLimit": 300, "target": 0, "session": 1, "day": 1, "fallOfWickets": 0, "remainingOvers": 0.3, "totalRuns": 4, "wides": 0, "runs": 327}, "over": {"ball": 3, "balls": 6, "complete": false, "limit": 50.0, "maiden": 0, "noBall": 0, "wide": 0, "byes": 0, "legByes": 0, "number": 50, "runs": 14, "wickets": 0, "overs": 49.3, "actual": 49.3, "unique": 49.03}, "dismissal": {"dismissal": false, "bowled": false, "type": "", "bowler": {"athlete": {"id": "550215", "name": "Kagiso Rabada", "shortName": "Rabada", "fullName": "Kagiso Rabada", "displayName": "Kagiso Rabada"}}, "batsman": {"athlete": {"id": "629063", "name": "Mehidy Hasan", "shortName": "Mehidy", "fullName": "Mehidy Hasan Miraz", "displayName": "Mehidy Hasan"}}, "fielder": {"athlete": {}}, "minutes": 0, "retiredText": ""}}, {"id": "149040", "clock": "00:00", "date": "2019-06-02T10:30", "playType": {"id": "2", "description": "no run"}, "team": {"id": "25", "name": "Bangladesh", "abbreviation": "BDESH", "displayName": "Bangladesh"}, "mediaId": 0, "period": 1, "periodText": "1st innings", "preText": "", "text": "length slower ball, he charges and swings hard but <strong>misses</strong>", "postText": "", "shortText": "Rabada to Mehidy Hasan Miraz, no run", "homeScore": "327/6", "awayScore": "0", "scoreValue": 0, "sequence": 104904, "athletesInvolved": [{"id": "629063", "name": "Mehidy Hasan", "shortName": "Mehidy", "displayName": "Mehidy Hasan"}, {"id": "550215", "name": "Kagiso Rabada", "shortName": "Rabada", "displayName": "Kagiso Rabada"}], "speedKPH": "", "speedMPH": "", "bowler": {"athlete": {"id": "550215", "name": "Kagiso Rabada", "shortName": "Rabada", "fullName": "Kagiso Rabada", "displayName": "Kagiso Rabada"}, "team": {"id": "3", "name": "South Africa", "abbreviation": "SA", "displayName": "South Africa"}, "maidens": 0, "balls": 58, "wickets": 0, "overs": 9.4, "conceded": 54}, "otherBowler": {"athlete": {"id": "439952", "name": "Chris Morris", "shortName": "Morris", "fullName": "Christopher Henry Morris", "displayName": "Chris Morris"}, "team": {"id": "3", "name": "South Africa", "abbreviation": "SA", "displayName": "South Africa"}, "maidens": 0, "balls": 60, "wickets": 2, "overs": 10.0, "conceded": 73}, "batsman": {"athlete": {"id": "629063", "name": "Mehidy Hasan", "shortName": "Mehidy", "fullName": "Mehidy Hasan Miraz", "displayName": "Mehidy Hasan"}, "team": {"id": "25", "name": "Bangladesh", "abbreviation": "BDESH", "displayName": "Bangladesh"}, "totalRuns": 4, "faced": 2, "fours": 1, "runs": 327, "sixes": 0}, "otherBatsman": {"athlete": {"id": "56025", "name": "Mahmudullah", "shortName": "Mahmudullah", "fullName": "Mohammad Mahmudullah", "displayName": "Mahmudullah"}, "team": {"id": "25", "name": "Bangladesh", "abbreviation": "BDESH", "displayName": "Bangladesh"}, "totalRuns": 44, "faced": 32, "fours": 3, "runs": 0, "sixes": 1}, "innings": {"id": "216163", "runRate": 6.58, "remainingBalls": 2, "byes": 0, "number": 1, "balls": 298, "noBalls": 0, "wickets": 6, "legByes": 0, "ballLimit": 300, "target": 0, "session": 1, "day": 1, "fallOfWickets": 0, "remainingOvers": 0.2, "totalRuns": 0, "wides": 0, "runs": 327}, "over": {"ball": 4, "balls": 6, "complete": false, "limit": 50.0, "maiden": 0, "noBall": 0, "wide": 0, "byes": 0, "legByes": 0, "number": 50, "runs": 14, "wickets": 0, "overs": 49.4, "actual": 49.4, "unique": 49.04}, "dismissal": {"dismissal": false, "bowled": false, "type": "", "bowler": {"athlete": {"id": "550215", "name": "Kagiso Rabada", "shortName": "Rabada", "fullName": "Kagiso Rabada", "displayName": "Kagiso Rabada"}}, "batsman": {"athlete": {"id": "629063", "name": "Mehidy Hasan", "shortName": "Mehidy", "fullName": "Mehidy Hasan Miraz", "displayName": "Mehidy Hasan"}}, "fielder": {"athlete": {}}, "minutes": 0, "retiredText": ""}}, {"id": "149050", "clock": "00:00", "date": "2019-06-02T10:30", "playType": {"id": "1", "description": "run"}, "team": {"id": "25", "name": "Bangladesh", "abbreviation": "BDESH", "displayName": "Bangladesh"}, "mediaId": 0, "period": 1, "periodText": "1st innings", "preText": "", "text": "high short ball outside off, he reaches up and swats it down off the toe of the bat to midwicket for one", "postText": "", "shortText": "Rabada to Mehidy Hasan Miraz, 1 run", "homeScore": "328/6", "awayScore": "0", "scoreValue": 1, "sequence": 104905, "athletesInvolved": [{"id": "629063", "name": "Mehidy Hasan", "shortName": "Mehidy", "displayName": "Mehidy Hasan"}, {"id": "550215", "name": "Kagiso Rabada", "shortName": "Rabada", "displayName": "Kagiso Rabada"}], "speedKPH": "", "speedMPH": "", "bowler": {"athlete": {"id": "550215", "name": "Kagiso Rabada", "shortName": "Rabada", "fullName": "Kagiso Rabada", "displayName": "Kagiso Rabada"}, "team": {"id": "3", "name": "South Africa", "abbreviation": "SA", "displayName": "South Africa"}, "maidens": 0, "balls": 59, "wickets": 0, "overs": 9.5, "conceded": 55}, "otherBowler": {"athlete": {"id": "439952", "name": "Chris Morris", "shortName": "Morris", "fullName": "Christopher Henry Morris", "displayName": "Chris Morris"}, "team": {"id": "3", "name": "South Africa", "abbreviation": "SA", "displayName": "South Africa"}, "maidens": 0, "balls": 60, "wickets": 2, "overs": 10.0, "conceded": 73}, "batsman": {"athlete": {"id": "629063", "name": "Mehidy Hasan", "shortName": "Mehidy", "fullName": "Mehidy Hasan Miraz", "displayName": "Mehidy Hasan"}, "team": {"id": "25", "name": "Bangladesh", "abbreviation": "BDESH", "displayName": "Bangladesh"}, "totalRuns": 5, "faced": 3, "fours": 1, "runs": 328, "sixes": 0}, "otherBatsman": {"athlete": {"id": "56025", "name": "Mahmudullah", "shortName": "Mahmudullah", "fullName": "Mohammad Mahmudullah", "displayName": "Mahmudullah"}, "team": {"id": "25", "name": "Bangladesh", "abbreviation": "BDESH", "displayName": "Bangladesh"}, "totalRuns": 44, "faced": 32, "fours": 3, "runs": 0, "sixes": 1}, "innings": {"id": "216163", "runRate": 6.58, "remainingBalls": 1, "byes": 0, "number": 1, "balls": 299, "noBalls": 0, "wickets": 6, "legByes": 0, "ballLimit": 300, "target": 0, "session": 1, "day": 1, "fallOfWickets": 0, "remainingOvers": 0.1, "totalRuns": 1, "wides": 0, "runs": 328}, "over": {"ball": 5, "balls": 6, "complete": false, "limit": 50.0, "maiden": 0, "noBall": 0, "wide": 0, "byes": 0, "legByes": 0, "number": 50, "runs": 14, "wickets": 0, "overs": 49.5, "actual": 49.5, "unique": 49.05}, "dismissal": {"dismissal": false, "bowled": false, "type": "", "bowler": {"athlete": {"id": "550215", "name": "Kagiso Rabada", "shortName": "Rabada", "fullName": "Kagiso Rabada", "displayName": "Kagiso Rabada"}}, "batsman": {"athlete": {"id": "629063", "name": "Mehidy Hasan", "shortName": "Mehidy", "fullName": "Mehidy Hasan Miraz", "displayName": "Mehidy Hasan"}}, "fielder": {"athlete": {}}, "minutes": 0, "retiredText": ""}}, {"id": "149060", "clock": "00:00", "date": "2019-06-02T10:30", "playType": {"id": "1", "description": "run"}, "team": {"id": "25", "name": "Bangladesh", "abbreviation": "BDESH", "displayName": "Bangladesh"}, "mediaId": 0, "period": 1, "periodText": "1st innings", "preText": "", "text": "he charges and drives powerfully through cover, Miller has a long chase on the rope and he makes a great diving save to keep it to two!", "postText": "Watch on Hotstar (India only): Highlights of <a href=\"https://www.hotstar.com/sports/cricket/icc-cricket-world-cup-england-and-wales-2019/south-africa-vs-bangladesh-m190711/match-clips/bdesh-ride-on-shakibs-steady-75/1260005621?utm_source=espn&utm_campaign=CWC2019Partnerships\" target=\"_blank\">Shakib's 75</a> and <a href=\"https://www.hotstar.com/sports/cricket/icc-cricket-world-cup-england-and-wales-2019/south-africa-vs-bangladesh-m190711/match-clips/mushfiqurs-78-pile-on-sa-misery/1260005622?utm_source=espn&utm_campaign=CWC2019Partnerships\" target=\"_blank\">Mushfiqur's 78</a>\n\n\n<strong>2.16pm Innings Break</strong> What a performance by Bangladesh. Their highest score in ODIs after being sent into bat. It was set up by Soumya at the top with a blistering 42. Then Shakib and Mushfiqur put together an outstanding 142-run stand before Mahmudullah and Mosaddek finished the job. Shakib: \"We knew the wicket was a good one. We needed to be patient enough and stay there and we knew we would get some bad balls to hit. I think it's a very defendable total. We need to bowl well. Everyone is believing we can defend this total.\"\n\n\nOur Match Day show is now live. Join Daren Ganga, M Kartik and Shahriar Nafees as they analyse the first half\n\n<!--\nname: livestream\nurl: https://livestream.com/accounts/6115179/events/8702805\n-->\n\nSouth Africa need their highest ever successful run chase in World Cups to avoid going 0-2 in this World Cup.\n\n<!--\nname: twitter\nurl: https://twitter.com/sambitbal/status/1135173443379269637?s=20\n-->\n\nGerry: \"It appears \"all this talk about 330-350\" was correct, after all!\"\n\nAtul: \"I remember, few months back one of SA player mentioned that they are world's best bowling side (commenting on indian bowler's). I feel Sorry for them after watching last two games. \"\n\nShashank will be back shortly to take you through the start of the chase.", "shortText": "Rabada to Mahmudullah, 2 runs", "homeScore": "330/6", "awayScore": "0", "scoreValue": 2, "sequence": 104906, "athletesInvolved": [{"id": "56025", "name": "Mahmudullah", "shortName": "Mahmudullah", "displayName": "Mahmudullah"}, {"id": "550215", "name": "Kagiso Rabada", "shortName": "Rabada", "displayName": "Kagiso Rabada"}], "speedKPH": "", "speedMPH": "", "bowler": {"athlete": {"id": "550215", "name": "Kagiso Rabada", "shortName": "Rabada", "fullName": "Kagiso Rabada", "displayName": "Kagiso Rabada"}, "team": {"id": "3", "name": "South Africa", "abbreviation": "SA", "displayName": "South Africa"}, "maidens": 0, "balls": 60, "wickets": 0, "overs": 10.0, "conceded": 57}, "otherBowler": {"athlete": {"id": "439952", "name": "Chris Morris", "shortName": "Morris", "fullName": "Christopher Henry Morris", "displayName": "Chris Morris"}, "team": {"id": "3", "name": "South Africa", "abbreviation": "SA", "displayName": "South Africa"}, "maidens": 0, "balls": 60, "wickets": 2, "overs": 10.0, "conceded": 73}, "batsman": {"athlete": {"id": "56025", "name": "Mahmudullah", "shortName": "Mahmudullah", "fullName": "Mohammad Mahmudullah", "displayName": "Mahmudullah"}, "team": {"id": "25", "name": "Bangladesh", "abbreviation": "BDESH", "displayName": "Bangladesh"}, "totalRuns": 46, "faced": 33, "fours": 3, "runs": 330, "sixes": 1}, "otherBatsman": {"athlete": {"id": "629063", "name": "Mehidy Hasan", "shortName": "Mehidy", "fullName": "Mehidy Hasan Miraz", "displayName": "Mehidy Hasan"}, "team": {"id": "25", "name": "Bangladesh", "abbreviation": "BDESH", "displayName": "Bangladesh"}, "totalRuns": 5, "faced": 3, "fours": 1, "runs": 0, "sixes": 0}, "innings": {"id": "216163", "runRate": 6.6, "remainingBalls": 0, "byes": 0, "number": 1, "balls": 300, "noBalls": 0, "wickets": 6, "legByes": 0, "ballLimit": 300, "target": 0, "session": 1, "day": 1, "fallOfWickets": 0, "remainingOvers": 0.0, "totalRuns": 2, "wides": 0, "runs": 330}, "over": {"ball": 6, "balls": 6, "complete": true, "limit": 50.0, "maiden": 0, "noBall": 0, "wide": 0, "byes": 0, "legByes": 0, "number": 50, "runs": 14, "wickets": 0, "overs": 49.6, "actual": 49.6, "unique": 49.06}, "dismissal": {"dismissal": false, "bowled": false, "type": "", "bowler": {"athlete": {"id": "550215", "name": "Kagiso Rabada", "shortName": "Rabada", "fullName": "Kagiso Rabada", "displayName": "Kagiso Rabada"}}, "batsman": {"athlete": {"id": "56025", "name": "Mahmudullah", "shortName": "Mahmudullah", "fullName": "Mohammad Mahmudullah", "displayName": "Mahmudullah"}}, "fielder": {"athlete": {}}, "minutes": 0, "retiredText": ""}}]}}