{"commentary": {"count": 307, "pageIndex": 13, "pageSize": 25, "pageCount": 13, "items": [{"id": "248060", "clock": "00:00", "date": "2018-07-25T14:30", "playType": {"id": "9", "description": "out"}, "team": {"id": "25", "name": "Bangladesh", "abbreviation": "BDESH", "displayName": "Bangladesh"}, "mediaId": 0, "period": 2, "periodText": "2nd innings", "preText": "", "text": "he's holed out here. Sabbir tries to heave this full toss and gets down on one knee and half-sweeps it from outside off. Deep midwicket runs to his right and grabs it, but the set batsman is still there. Eight off the last over.", "postText": "", "shortText": "Paul to Sabbir Rahman, OUT", "homeScore": "0", "awayScore": "264/5", "scoreValue": 0, "sequence": 204806, "athletesInvolved": [{"id": "670025", "name": "Shimron Hetmyer", "shortName": "Hetmyer", "displayName": "Shimron Hetmyer"}, {"id": "677081", "name": "Keemo Paul", "shortName": "Paul", "displayName": "Keemo Paul"}, {"id": "373538", "name": "Sabbir Rahman", "shortName": "Sabbir", "displayName": "Sabbir Rahman"}], "speedKPH": "", "speedMPH": "", "bowler": {"athlete": {"id": "677081", "name": "Keemo Paul", "shortName": "Paul", "fullName": "Keemo Mandela Angus Paul", "displayName": "Keemo Paul"}, "team": {"id": "4", "name": "West Indies", "abbreviation": "WI", "displayName": "West Indies"}, "maidens": 0, "balls": 42, "wickets": 1, "overs": 7.0, "conceded": 43}, "otherBowler": {"athlete": {"id": "391485", "name": "Jason Holder", "shortName": "Holder", "fullName": "Jason Omar Holder", "displayName": "Jason Holder"}, "team": {"id": "4", "name": "West Indies", "abbreviation": "WI", "displayName": "West Indies"}, "maidens": 0, "balls": 54, "wickets": 0, "overs": 9.0, "conceded": 62}, "batsman": {"athlete": {"id": "373538", "name": "Sabbir Rahman", "shortName": "Sabbir", "fullName": "Mohammad Sabbir Rahman", "displayName": "Sabbir Rahman"}, "team": {"id": "25", "name": "Bangladesh", "abbreviation": "BDESH", "displayName": "Bangladesh"}, "totalRuns": 12, "faced": 11, "fours": 1, "runs": 264, "sixes": 0}, "otherBatsman": {"athlete": {"id": "56029", "name": "Mushfiqur Rahim", "shortName": "Mushfiqur", "fullName": "Mohammad Mushfiqur Rahim", "displayName": "Mushfiqur Rahim"}, "team": {"id": "25", "name": "Bangladesh", "abbreviation": "BDESH", "displayName": "Bangladesh"}, "totalRuns": 68, "faced": 66, "fours": 5, "runs": 0, "sixes": 1}, "innings": {"id": "207082", "runRate": 5.38, "remainingBalls": 6, "byes": 0, "number": 2, "balls": 294, "noBalls": 0, "requiredRunRate": "8.00", "wickets": 5, "legByes": 0, "ballLimit": 300, "target": 272, "session": 1, "day": 1, "fallOfWickets": 5, "remainingRuns": "8", "remainingOvers": 0.0, "totalRuns": 0, "wides": 0, "runs": 264}, "over": {"ball": 6, "balls": 6, "complete": true, "limit": 50.0, "maiden": 0, "noBall": 0, "wide": 0, "byes": 0, "legByes": 0, "number": 49, "runs": 6, "wickets": 1, "overs": 48.6, "actual": 48.6, "unique": 48.06}, "dismissal": {"dismissal": true, "bowled": true, "type": "caught", "bowler": {"athlete": {"id": "677081", "name": "Keemo Paul", "shortName": "Paul", "fullName": "Keemo Mandela Angus Paul", "displayName": "Keemo Paul"}}, "batsman": {"athlete": {"id": "373538", "name": "Sabbir Rahman", "shortName": "Sabbir", "fullName": "Mohammad Sabbir Rahman", "displayName": "Sabbir Rahman"}}, "fielder": {"athlete": {}}, "minutes": 0, "retiredText": "", "text": "Sabbir Rahman c Hetmyer b Paul 12 (11b 1x4 0x6) SR: 109.09"}}, {"id": "249010", "clock": "00:00", "date": "2018-07-25T14:30", "playType": {"id": "9", "description": "out"}, "team": {"id": "25", "name": "Bangladesh", "abbreviation": "BDESH", "displayName": "Bangladesh"}, "mediaId": 0, "period": 2, "periodText": "2nd innings", "preText": "Holder to shoulder the responsibility of the last over. He has gone at nearly seven an over so far. And he has exactly seven to defend.", "text": "oh dear! Mushfiqur Rahim perishes in the final over. With eight to get, the set batsman is gone. Shades of World T20 2016 in Bangalore. A full toss that slips out of the hand and Mushfiqur swats it straight into the hands of deep midwicket. Hardly a delivery that deserves a wicket but that's fortune for you", "postText": "", "shortText": "Holder to Mushfiqur Rahim, OUT", "homeScore": "0", "awayScore": "264/6", "scoreValue": 0, "sequence": 204901, "athletesInvolved": [{"id": "677081", "name": "Keemo Paul", "shortName": "Paul", "displayName": "Keemo Paul"}, {"id": "391485", "name": "Jason Holder", "shortName": "Holder", "displayName": "Jason Holder"}, {"id": "56029", "name": "Mushfiqur Rahim", "shortName": "Mushfiqur", "displayName": "Mushfiqur Rahim"}], "speedKPH": "", "speedMPH": "", "bowler": {"athlete": {"id": "391485", "name": "Jason Holder", "shortName": "Holder", "fullName": "Jason Omar Holder", "displayName": "Jason Holder"}, "team": {"id": "4", "name": "West Indies", "abbreviation": "WI", "displayName": "West Indies"}, "maidens": 0, "balls": 55, "wickets": 1, "overs": 9.1, "conceded": 62}, "otherBowler": {"athlete": {"id": "677081", "name": "Keemo Paul", "shortName": "Paul", "fullName": "Keemo Mandela Angus Paul", "displayName": "Keemo Paul"}, "team": {"id": "4", "name": "West Indies", "abbreviation": "WI", "displayName": "West Indies"}, "maidens": 0, "balls": 42, "wickets": 1, "overs": 7.0, "conceded": 43}, "batsman": {"athlete": {"id": "56029", "name": "Mushfiqur Rahim", "shortName": "Mushfiqur", "fullName": "Mohammad Mushfiqur Rahim", "displayName": "Mushfiqur Rahim"}, "team": {"id": "25", "name": "Bangladesh", "abbreviation": "BDESH", "displayName": "Bangladesh"}, "totalRuns": 68, "faced": 67, "fours": 5, "runs": 264, "sixes": 1}, "otherBatsman": {"athlete": {"id": "550133", "name": "Mosaddek Hossain", "shortName": "Mosaddek", "fullName": "Mosaddek Hossain Saikat", "displayName": "Mosaddek Hossain"}, "team": {"id": "25", "name": "Bangladesh", "abbreviation": "BDESH", "displayName": "Bangladesh"}, "totalRuns": 0, "faced": 0, "fours": 0, "runs": 0, "sixes": 0}, "innings": {"id": "207082", "runRate": 5.36, "remainingBalls": 5, "byes": 0, "number": 2, "balls": 295, "noBalls": 0, "requiredRunRate": "9.60", "wickets": 6, "legByes": 0, "ballLimit": 300, "target": 272, "session": 1, "day": 1, "fallOfWickets": 6, "remainingRuns": "8", "remainingOvers": 0.0, "totalRuns": 0, "wides": 0, "runs": 264}, "over": {"ball": 1, "balls": 6, "complete": false, "limit": 50.0, "maiden": 0, "noBall": 0, "wide": 0, "byes": 0, "legByes": 0, "number": 50, "runs": 4, "wickets": 1, "overs": 49.1, "actual": 49.1, "unique": 49.01}, "dismissal": {"dismissal": true, "bowled": true, "type": "caught", "bowler": {"athlete": {"id": "391485", "name": "Jason Holder", "shortName": "Holder", "fullName": "Jason Omar Holder", "displayName": "Jason Holder"}}, "batsman": {"athlete": {"id": "56029", "name": "Mushfiqur Rahim", "shortName": "Mushfiqur", "fullName": "Mohammad Mushfiqur Rahim", "displayName": "Mushfiqur Rahim"}}, "fielder": {"athlete": {}}, "minutes": 0, "retiredText": "", "text": "Mushfiqur Rahim c Paul b Holder 68 (67b 5x4 1x6) SR: 101.49"}}, {"id": "249020", "clock": "00:00", "date": "2018-07-25T14:30", "playType": {"id": "2", "description": "no run"}, "team": {"id": "25", "name": "Bangladesh", "abbreviation": "BDESH", "displayName": "Bangladesh"}, "mediaId": 0, "period": 2, "periodText": "2nd innings", "preText": "", "text": "good delivery. Toeing the line but just inside it as he fires it wide outside off, making the batsman reach out as he misses", "postText": "", "shortText": "Holder to Mosaddek Hossain, no run", "homeScore": "0", "awayScore": "264/6", "scoreValue": 0, "sequence": 204902, "athletesInvolved": [{"id": "391485", "name": "Jason Holder", "shortName": "Holder", "displayName": "Jason Holder"}, {"id": "550133", "name": "Mosaddek Hossain", "shortName": "Mosaddek", "displayName": "Mosaddek Hossain"}], "speedKPH": "", "speedMPH": "", "bowler": {"athlete": {"id": "391485", "name": "Jason Holder", "shortName": "Holder", "fullName": "Jason Omar Holder", "displayName": "Jason Holder"}, "team": {"id": "4", "name": "West Indies", "abbreviation": "WI", "displayName": "West Indies"}, "maidens": 0, "balls": 56, "wickets": 1, "overs": 9.2, "conceded": 62}, "otherBowler": {"athlete": {"id": "677081", "name": "Keemo Paul", "shortName": "Paul", "fullName": "Keemo Mandela Angus Paul", "displayName": "Keemo Paul"}, "team": {"id": "4", "name": "West Indies", "abbreviation": "WI", "displayName": "West Indies"}, "maidens": 0, "balls": 42, "wickets": 1, "overs": 7.0, "conceded": 43}, "batsman": {"athlete": {"id": "550133", "name": "Mosaddek Hossain", "shortName": "Mosaddek", "fullName": "Mosaddek Hossain Saikat", "displayName": "Mosaddek Hossain"}, "team": {"id": "25", "name": "Bangladesh", "abbreviation": "BDESH", "displayName": "Bangladesh"}, "totalRuns": 0, "faced": 1, "fours": 0, "runs": 264, "sixes": 0}, "otherBatsman": {"athlete": {"id": "56007", "name": "Mashrafe Mortaza", "shortName": "Mortaza", "fullName": "Mashrafe Bin Mortaza", "displayName": "Mashrafe Mortaza"}, "team": {"id": "25", "name": "Bangladesh", "abbreviation": "BDESH", "displayName": "Bangladesh"}, "totalRuns": 0, "faced": 0, "fours": 0, "runs": 0, "sixes": 0}, "innings": {"id": "207082", "runRate": 5.35, "remainingBalls": 4, "byes": 0, "number": 2, "balls": 296, "noBalls": 0, "requiredRunRate": "12.00", "wickets": 6, "legByes": 0, "ballLimit": 300, "target": 272, "session": 1, "day": 1, "fallOfWickets": 0, "remainingRuns": "8", "remainingOvers": 0.0, "totalRuns": 0, "wides": 0, "runs": 264}, "over": {"ball": 2, "balls": 6, "complete": false, "limit": 50.0, "maiden": 0, "noBall": 0, "wide": 0, "byes": 0, "legByes": 0, "number": 50, "runs": 4, "wickets": 1, "overs": 49.2, "actual": 49.2, "unique": 49.02}, "dismissal": {"dismissal": false, "bowled": false, "type": "", "bowler": {"athlete": {"id": "391485", "name": "Jason Holder", "shortName": "Holder", "fullName": "Jason Omar Holder", "displayName": "Jason Holder"}}, "batsman": {"athlete": {"id": "550133", "name": "Mosaddek Hossain", "shortName": "Mosaddek", "fullName": "Mosaddek Hossain Saikat", "displayName": "Mosaddek Hossain"}}, "fielder": {"athlete": {}}, "minutes": 0, "retiredText": ""}}, {"id": "249030", "clock": "00:00", "date": "2018-07-25T14:30", "playType": {"id": "2", "description": "no run"}, "team": {"id": "25", "name": "Bangladesh", "abbreviation": "BDESH", "displayName": "Bangladesh"}, "mediaId": 0, "period": 2, "periodText": "2nd innings", "preText": "", "text": "bowled! Top stuff from the West Indies captain. Slides in a yorker on his leg stump and all Mosaddek can do is squeeze it straight back to the bowler", "postText": "", "shortText": "Holder to Mosaddek Hossain, no run", "homeScore": "0", "awayScore": "264/6", "scoreValue": 0, "sequence": 204903, "athletesInvolved": [{"id": "391485", "name": "Jason Holder", "shortName": "Holder", "displayName": "Jason Holder"}, {"id": "550133", "name": "Mosaddek Hossain", "shortName": "Mosaddek", "displayName": "Mosaddek Hossain"}], "speedKPH": "", "speedMPH": "", "bowler": {"athlete": {"id": "391485", "name": "Jason Holder", "shortName": "Holder", "fullName": "Jason Omar Holder", "displayName": "Jason Holder"}, "team": {"id": "4", "name": "West Indies", "abbreviation": "WI", "displayName": "West Indies"}, "maidens": 0, "balls": 57, "wickets": 1, "overs": 9.3, "conceded": 62}, "otherBowler": {"athlete": {"id": "677081", "name": "Keemo Paul", "shortName": "Paul", "fullName": "Keemo Mandela Angus Paul", "displayName": "Keemo Paul"}, "team": {"id": "4", "name": "West Indies", "abbreviation": "WI", "displayName": "West Indies"}, "maidens": 0, "balls": 42, "wickets": 1, "overs": 7.0, "conceded": 43}, "batsman": {"athlete": {"id": "550133", "name": "Mosaddek Hossain", "shortName": "Mosaddek", "fullName": "Mosaddek Hossain Saikat", "displayName": "Mosaddek Hossain"}, "team": {"id": "25", "name": "Bangladesh", "abbreviation": "BDESH", "displayName": "Bangladesh"}, "totalRuns": 0, "faced": 2, "fours": 0, "runs": 264, "sixes": 0}, "otherBatsman": {"athlete": {"id": "56007", "name": "Mashrafe Mortaza", "shortName": "Mortaza", "fullName": "Mashrafe Bin Mortaza", "displayName": "Mashrafe Mortaza"}, "team": {"id": "25", "name": "Bangladesh", "abbreviation": "BDESH", "displayName": "Bangladesh"}, "totalRuns": 0, "faced": 0, "fours": 0, "runs": 0, "sixes": 0}, "innings": {"id": "207082", "runRate": 5.33, "remainingBalls": 3, "byes": 0, "number": 2, "balls": 297, "noBalls": 0, "requiredRunRate": "16.00", "wickets": 6, "legByes": 0, "ballLimit": 300, "target": 272, "session": 1, "day": 1, "fallOfWickets": 0, "remainingRuns": "8", "remainingOvers": 0.0, "totalRuns": 0, "wides": 0, "runs": 264}, "over": {"ball": 3, "balls": 6, "complete": false, "limit": 50.0, "maiden": 0, "noBall": 0, "wide": 0, "byes": 0, "legByes": 0, "number": 50, "runs": 4, "wickets": 1, "overs": 49.3, "actual": 49.3, "unique": 49.03}, "dismissal": {"dismissal": false, "bowled": false, "type": "", "bowler": {"athlete": {"id": "391485", "name": "Jason Holder", "shortName": "Holder", "fullName": "Jason Omar Holder", "displayName": "Jason Holder"}}, "batsman": {"athlete": {"id": "550133", "name": "Mosaddek Hossain", "shortName": "Mosaddek", "fullName": "Mosaddek Hossain Saikat", "displayName": "Mosaddek Hossain"}}, "fielder": {"athlete": {}}, "minutes": 0, "retiredText": ""}}, {"id": "249040", "clock": "00:00", "date": "2018-07-25T14:30", "playType": {"id": "1", "description": "run"}, "team": {"id": "25", "name": "Bangladesh", "abbreviation": "BDESH", "displayName": "Bangladesh"}, "mediaId": 0, "period": 2, "periodText": "2nd innings", "preText": "Divy: \"Suddenly memories of Ms Dhoni taking off his gloves in my eyes. Game on!\"", "text": "a blind heave that gets the leading edge and pops over backward point and drops safely in the outfield", "postText": "", "shortText": "Holder to Mosaddek Hossain, 2 runs", "homeScore": "0", "awayScore": "266/6", "scoreValue": 2, "sequence": 204904, "athletesInvolved": [{"id": "391485", "name": "Jason Holder", "shortName": "Holder", "displayName": "Jason Holder"}, {"id": "550133", "name": "Mosaddek Hossain", "shortName": "Mosaddek", "displayName": "Mosaddek Hossain"}], "speedKPH": "", "speedMPH": "", "bowler": {"athlete": {"id": "391485", "name": "Jason Holder", "shortName": "Holder", "fullName": "Jason Omar Holder", "displayName": "Jason Holder"}, "team": {"id": "4", "name": "West Indies", "abbreviation": "WI", "displayName": "West Indies"}, "maidens": 0, "balls": 58, "wickets": 1, "overs": 9.4, "conceded": 64}, "otherBowler": {"athlete": {"id": "677081", "name": "Keemo Paul", "shortName": "Paul", "fullName": "Keemo Mandela Angus Paul", "displayName": "Keemo Paul"}, "team": {"id": "4", "name": "West Indies", "abbreviation": "WI", "displayName": "West Indies"}, "maidens": 0, "balls": 42, "wickets": 1, "overs": 7.0, "conceded": 43}, "batsman": {"athlete": {"id": "550133", "name": "Mosaddek Hossain", "shortName": "Mosaddek", "fullName": "Mosaddek Hossain Saikat", "displayName": "Mosaddek Hossain"}, "team": {"id": "25", "name": "Bangladesh", "abbreviation": "BDESH", "displayName": "Bangladesh"}, "totalRuns": 2, "faced": 3, "fours": 0, "runs": 266, "sixes": 0}, "otherBatsman": {"athlete": {"id": "56007", "name": "Mashrafe Mortaza", "shortName": "Mortaza", "fullName": "Mashrafe Bin Mortaza", "displayName": "Mashrafe Mortaza"}, "team": {"id": "25", "name": "Bangladesh", "abbreviation": "BDESH", "displayName": "Bangladesh"}, "totalRuns": 0, "faced": 0, "fours": 0, "runs": 0, "sixes": 0}, "innings": {"id": "207082", "runRate": 5.35, "remainingBalls": 2, "byes": 0, "number": 2, "balls": 298, "noBalls": 0, "requiredRunRate": "18.00", "wickets": 6, "legByes": 0, "ballLimit": 300, "target": 272, "session": 1, "day": 1, "fallOfWickets": 0, "remainingRuns": "6", "remainingOvers": 0.0, "totalRuns": 2, "wides": 0, "runs": 266}, "over": {"ball": 4, "balls": 6, "complete": false, "limit": 50.0, "maiden": 0, "noBall": 0, "wide": 0, "byes": 0, "legByes": 0, "number": 50, "runs": 4, "wickets": 1, "overs": 49.4, "actual": 49.4, "unique": 49.04}, "dismissal": {"dismissal": false, "bowled": false, "type": "", "bowler": {"athlete": {"id": "391485", "name": "Jason Holder", "shortName": "Holder", "fullName": "Jason Omar Holder", "displayName": "Jason Holder"}}, "batsman": {"athlete": {"id": "550133", "name": "Mosaddek Hossain", "shortName": "Mosaddek", "fullName": "Mosaddek Hossain Saikat", "displayName": "Mosaddek Hossain"}}, "fielder": {"athlete": {}}, "minutes": 0, "retiredText": ""}}, {"id": "249050", "clock": "00:00", "date": "2018-07-25T14:30", "playType": {"id": "1", "description": "run"}, "team": {"id": "25", "name": "Bangladesh", "abbreviation": "BDESH", "displayName": "Bangladesh"}, "mediaId": 0, "period": 2, "periodText": "2nd innings", "preText": "Six off two needed. Tension all around.", "text": "another full toss, yorker gone wrong but Holder won't care because it's only drilled along the ground to deep midwicket", "postText": "", "shortText": "Holder to Mosaddek Hossain, 1 run", "homeScore": "0", "awayScore": "267/6", "scoreValue": 1, "sequence": 204905, "athletesInvolved": [{"id": "391485", "name": "Jason Holder", "shortName": "Holder", "displayName": "Jason Holder"}, {"id": "550133", "name": "Mosaddek Hossain", "shortName": "Mosaddek", "displayName": "Mosaddek Hossain"}], "speedKPH": "", "speedMPH": "", "bowler": {"athlete": {"id": "391485", "name": "Jason Holder", "shortName": "Holder", "fullName": "Jason Omar Holder", "displayName": "Jason Holder"}, "team": {"id": "4", "name": "West Indies", "abbreviation": "WI", "displayName": "West Indies"}, "maidens": 0, "balls": 59, "wickets": 1, "overs": 9.5, "conceded": 65}, "otherBowler": {"athlete": {"id": "677081", "name": "Keemo Paul", "shortName": "Paul", "fullName": "Keemo Mandela Angus Paul", "displayName": "Keemo Paul"}, "team": {"id": "4", "name": "West Indies", "abbreviation": "WI", "displayName": "West Indies"}, "maidens": 0, "balls": 42, "wickets": 1, "overs": 7.0, "conceded": 43}, "batsman": {"athlete": {"id": "550133", "name": "Mosaddek Hossain", "shortName": "Mosaddek", "fullName": "Mosaddek Hossain Saikat", "displayName": "Mosaddek Hossain"}, "team": {"id": "25", "name": "Bangladesh", "abbreviation": "BDESH", "displayName": "Bangladesh"}, "totalRuns": 3, "faced": 4, "fours": 0, "runs": 267, "sixes": 0}, "otherBatsman": {"athlete": {"id": "56007", "name": "Mashrafe Mortaza", "shortName": "Mortaza", "fullName": "Mashrafe Bin Mortaza", "displayName": "Mashrafe Mortaza"}, "team": {"id": "25", "name": "Bangladesh", "abbreviation": "BDESH", "displayName": "Bangladesh"}, "totalRuns": 0, "faced": 0, "fours": 0, "runs": 0, "sixes": 0}, "innings": {"id": "207082", "runRate": 5.35, "remainingBalls": 1, "byes": 0, "number": 2, "balls": 299, "noBalls": 0, "requiredRunRate": "30.00", "wickets": 6, "legByes": 0, "ballLimit": 300, "target": 272, "session": 1, "day": 1, "fallOfWickets": 0, "remainingRuns": "5", "remainingOvers": 0.0, "totalRuns": 1, "wides": 0, "runs": 267}, "over": {"ball": 5, "balls": 6, "complete": false, "limit": 50.0, "maiden": 0, "noBall": 0, "wide": 0, "byes": 0, "legByes": 0, "number": 50, "runs": 4, "wickets": 1, "overs": 49.5, "actual": 49.5, "unique": 49.05}, "dismissal": {"dismissal": false, "bowled": false, "type": "", "bowler": {"athlete": {"id": "391485", "name": "Jason Holder", "shortName": "Holder", "fullName": "Jason Omar Holder", "displayName": "Jason Holder"}}, "batsman": {"athlete": {"id": "550133", "name": "Mosaddek Hossain", "shortName": "Mosaddek", "fullName": "Mosaddek Hossain Saikat", "displayName": "Mosaddek Hossain"}}, "fielder": {"athlete": {}}, "minutes": 0, "retiredText": ""}}, {"id": "249060", "clock": "00:00", "date": "2018-07-25T14:30", "playType": {"id": "1", "description": "run"}, "team": {"id": "25", "name": "Bangladesh", "abbreviation": "BDESH", "displayName": "Bangladesh"}, "mediaId": 0, "period": 2, "periodText": "2nd innings", "preText": "Holder is vigorously wiping the ball. Must be so hard gripping it. Five needed.", "text": "no, they won't get it. Holder lets out a roar at his crease and he is mobbed by his team-mates. A fuller delivery that angles into the pads that's driven straight along the ground to long-on", "postText": "<b>10.25pm</b> One can only imagine how Mushfiqur Rahim must be feeling right now. He played a top knock that put his team on the brink of a win that would've sealed the series. But then, he perished at the last hurdle. Looking to heave away a full toss. Caught at deep midwicket. Shades of <i>that</i> World T20 <a href=\"http://www.espncricinfo.com/series/8604/scorecard/951353/india-vs-bangladesh-25th-match,-super-10-group-2-world-t20-2015-16/\" target=\"_blank\">clash against India</a>. Shades of what happened against Afghanistan in India. At least the third time that he's had to endure heartbreak after coming so close. Each of those dismissals ended in catches to deep midwicket, and each of them to full tosses.\n\nBut to put this down to Mushfiqur alone would be unfair. Bangladesh had numerous chances to seal this. They were cruising at over 10 an over until the seventh over. They had nine wickets in hand. And then began an irreparable slowdown. Tamim Iqbal ate up 85 balls for his 54. In no time, the run rate halved, going from 10 to 5. They didn't bother to rotate the strike. The pressure built up. But they recovered well enough from that, and with Mahmudullah and Mushfiqur at the crease, it was still their game to lose. And then miscommunication sent back Mahmudullah, before finally, Mushfiqur perished. You don't get more chances than that to win a game. Bangladesh will introspect on this game well into the night. But they have one more chance to bounce back, as the teams head into the decider, and put the debacle of the Test series defeat behind them.\n\n<b>Shimron Hetmyer is the Man of the Match</b> for his blistering century. That brings us to the end of this match's coverage then. If you missed it,  <a href=\"http://www.espncricinfo.com/series/18712/report/1146721/west-indies-vs-bangladesh-2nd-odi-bangladesh-tour-of-west-indies-and-united-states-of-america-2018\" target=\"_blank\">Mohammad Isam's report</a> should be up shortly, so head over there. But from here, it's goodbye from Shashank Kishore and myself. Thanks for joining us.", "shortText": "Holder to Mashrafe Mortaza, 1 run", "homeScore": "0", "awayScore": "268/6", "scoreValue": 1, "sequence": 204906, "athletesInvolved": [{"id": "56007", "name": "Mashrafe Mortaza", "shortName": "Mortaza", "displayName": "Mashrafe Mortaza"}, {"id": "391485", "name": "Jason Holder", "shortName": "Holder", "displayName": "Jason Holder"}], "speedKPH": "", "speedMPH": "", "bowler": {"athlete": {"id": "391485", "name": "Jason Holder", "shortName": "Holder", "fullName": "Jason Omar Holder", "displayName": "Jason Holder"}, "team": {"id": "4", "name": "West Indies", "abbreviation": "WI", "displayName": "West Indies"}, "maidens": 0, "balls": 60, "wickets": 1, "overs": 10.0, "conceded": 66}, "otherBowler": {"athlete": {"id": "677081", "name": "Keemo Paul", "shortName": "Paul", "fullName": "Keemo Mandela Angus Paul", "displayName": "Keemo Paul"}, "team": {"id": "4", "name": "West Indies", "abbreviation": "WI", "displayName": "West Indies"}, "maidens": 0, "balls": 42, "wickets": 1, "overs": 7.0, "conceded": 43}, "batsman": {"athlete": {"id": "56007", "name": "Mashrafe Mortaza", "shortName": "Mortaza", "fullName": "Mashrafe Bin Mortaza", "displayName": "Mashrafe Mortaza"}, "team": {"id": "25", "name": "Bangladesh", "abbreviation": "BDESH", "displayName": "Bangladesh"}, "totalRuns": 1, "faced": 1, "fours": 0, "runs": 268, "sixes": 0}, "otherBatsman": {"athlete": {"id": "550133", "name": "Mosaddek Hossain", "shortName": "Mosaddek", "fullName": "Mosaddek Hossain Saikat", "displayName": "Mosaddek Hossain"}, "team": {"id": "25", "name": "Bangladesh", "abbreviation": "BDESH", "displayName": "Bangladesh"}, "totalRuns": 3, "faced": 4, "fours": 0, "runs": 0, "sixes": 0}, "innings": {"id": "207082", "runRate": 5.36, "remainingBalls": 0, "byes": 0, "number": 2, "balls": 300, "noBalls": 0, "wickets": 6, "legByes": 0, "ballLimit": 300, "target": 272, "session": 1, "day": 1, "fallOfWickets": 0, "remainingRuns": "4", "remainingOvers": 0.0, "totalRuns": 1, "wides": 0, "runs": 268}, "over": {"ball": 6, "balls": 6, "complete": true, "limit": 50.0, "maiden": 0, "noBall": 0, "wide": 0, "byes": 0, "legByes": 0, "number": 50, "runs": 4, "wickets": 1, "overs": 49.6, "actual": 49.6, "unique": 49.06}, "dismissal": {"dismissal": false, "bowled": false, "type": "", "bowler": {"athlete": {"id": "391485", "name": "Jason Holder", "shortName": "Holder", "fullName": "Jason Omar Holder", "displayName": "Jason Holder"}}, "batsman": {"athlete": {"id": "56007", "name": "Mashrafe Mortaza", "shortName": "Mortaza", "fullName": "Mashrafe Bin Mortaza", "displayName": "Mashrafe Mortaza"}}, "fielder": {"athlete": {}}, "minutes": 0, "retiredText": ""}}]}}