{"commentary": {"count": 304, "pageIndex": 13, "pageSize": 25, "pageCount": 13, "items": [{"id": "249030", "clock": "00:00", "date": "2018-07-22T09:30", "playType": {"id": "2", "description": "no run"}, "team": {"id": "4", "name": "West Indies", "abbreviation": "WI", "displayName": "West Indies"}, "mediaId": 0, "period": 2, "periodText": "2nd innings", "preText": "", "text": "looks to reverse scoop this full delivery, lobs behind to the keeper off his forearm", "postText": "", "shortText": "Mustafizur Rahman to Bishoo, no run", "homeScore": "0", "awayScore": "229/9", "scoreValue": 0, "sequence": 204903, "athletesInvolved": [{"id": "330902", "name": "Mustafizur Rahman", "shortName": "Mustafizur", "displayName": "Mustafizur Rahman"}, {"id": "341593", "name": "Devendra Bishoo", "shortName": "Bishoo", "displayName": "Devendra Bishoo"}], "speedKPH": "", "speedMPH": "", "bowler": {"athlete": {"id": "330902", "name": "Mustafizur Rahman", "shortName": "Mustafizur", "fullName": "Mustafizur Rahman", "displayName": "Mustafizur Rahman"}, "team": {"id": "25", "name": "Bangladesh", "abbreviation": "BDESH", "displayName": "Bangladesh"}, "maidens": 0, "balls": 45, "wickets": 2, "overs": 7.3, "conceded": 33}, "otherBowler": {"athlete": {"id": "300619", "name": "Rubel Hossain", "shortName": "Rubel", "fullName": "Mohammad Rubel Hossain", "displayName": "Rubel Hossain"}, "team": {"id": "25", "name": "Bangladesh", "abbreviation": "BDESH", "displayName": "Bangladesh"}, "maidens": 0, "balls": 48, "wickets": 1, "overs": 8.0, "conceded": 52}, "batsman": {"athlete": {"id": "341593", "name": "Devendra Bishoo", "shortName": "Bishoo", "fullName": "Devendra Bishoo", "displayName": "Devendra Bishoo"}, "team": {"id": "4", "name": "West Indies", "abbreviation": "WI", "displayName": "West Indies"}, "totalRuns": 27, "faced": 37, "fours": 3, "runs": 229, "sixes": 0}, "otherBatsman": {"athlete": {"id": "670031", "name": "Alzarri Joseph", "shortName": "Joseph", "fullName": "Alzarri Shaheim Joseph", "displayName": "Alzarri Joseph"}, "team": {"id": "4", "name": "West Indies", "abbreviation": "WI", "displayName": "West Indies"}, "totalRuns": 29, "faced": 21, "fours": 2, "runs": 0, "sixes": 2}, "innings": {"id": "206971", "runRate": 4.62, "remainingBalls": 3, "byes": 0, "number": 2, "balls": 297, "noBalls": 0, "requiredRunRate": "102.00", "wickets": 9, "legByes": 0, "ballLimit": 300, "target": 280, "session": 1, "day": 1, "fallOfWickets": 0, "remainingRuns": "51", "remainingOvers": 0.0, "totalRuns": 0, "wides": 0, "runs": 229}, "over": {"ball": 3, "balls": 6, "complete": false, "limit": 50.0, "maiden": 0, "noBall": 0, "wide": 0, "byes": 0, "legByes": 0, "number": 50, "runs": 3, "wickets": 0, "overs": 49.3, "actual": 49.3, "unique": 49.03}, "dismissal": {"dismissal": false, "bowled": false, "type": "", "bowler": {"athlete": {"id": "330902", "name": "Mustafizur Rahman", "shortName": "Mustafizur", "fullName": "Mustafizur Rahman", "displayName": "Mustafizur Rahman"}}, "batsman": {"athlete": {"id": "341593", "name": "Devendra Bishoo", "shortName": "Bishoo", "fullName": "Devendra Bishoo", "displayName": "Devendra Bishoo"}}, "fielder": {"athlete": {}}, "minutes": 0, "retiredText": ""}}, {"id": "249040", "clock": "00:00", "date": "2018-07-22T09:30", "playType": {"id": "1", "description": "run"}, "team": {"id": "4", "name": "West Indies", "abbreviation": "WI", "displayName": "West Indies"}, "mediaId": 0, "period": 2, "periodText": "2nd innings", "preText": "", "text": "driven to mid-off for a quick single, one more for the overthrow. A direct hit at the bowler's end as they went for the first run would've nailed it.", "postText": "", "shortText": "Mustafizur Rahman to Bishoo, 2 runs", "homeScore": "0", "awayScore": "231/9", "scoreValue": 2, "sequence": 204904, "athletesInvolved": [{"id": "330902", "name": "Mustafizur Rahman", "shortName": "Mustafizur", "displayName": "Mustafizur Rahman"}, {"id": "341593", "name": "Devendra Bishoo", "shortName": "Bishoo", "displayName": "Devendra Bishoo"}], "speedKPH": "", "speedMPH": "", "bowler": {"athlete": {"id": "330902", "name": "Mustafizur Rahman", "shortName": "Mustafizur", "fullName": "Mustafizur Rahman", "displayName": "Mustafizur Rahman"}, "team": {"id": "25", "name": "Bangladesh", "abbreviation": "BDESH", "displayName": "Bangladesh"}, "maidens": 0, "balls": 46, "wickets": 2, "overs": 7.4, "conceded": 35}, "otherBowler": {"athlete": {"id": "300619", "name": "Rubel Hossain", "shortName": "Rubel", "fullName": "Mohammad Rubel Hossain", "displayName": "Rubel Hossain"}, "team": {"id": "25", "name": "Bangladesh", "abbreviation": "BDESH", "displayName": "Bangladesh"}, "maidens": 0, "balls": 48, "wickets": 1, "overs": 8.0, "conceded": 52}, "batsman": {"athlete": {"id": "341593", "name": "Devendra Bishoo", "shortName": "Bishoo", "fullName": "Devendra Bishoo", "displayName": "Devendra Bishoo"}, "team": {"id": "4", "name": "West Indies", "abbreviation": "WI", "displayName": "West Indies"}, "totalRuns": 29, "faced": 38, "fours": 3, "runs": 231, "sixes": 0}, "otherBatsman": {"athlete": {"id": "670031", "name": "Alzarri Joseph", "shortName": "Joseph", "fullName": "Alzarri Shaheim Joseph", "displayName": "Alzarri Joseph"}, "team": {"id": "4", "name": "West Indies", "abbreviation": "WI", "displayName": "West Indies"}, "totalRuns": 29, "faced": 21, "fours": 2, "runs": 0, "sixes": 2}, "innings": {"id": "206971", "runRate": 4.65, "remainingBalls": 2, "byes": 0, "number": 2, "balls": 298, "noBalls": 0, "requiredRunRate": "147.00", "wickets": 9, "legByes": 0, "ballLimit": 300, "target": 280, "session": 1, "day": 1, "fallOfWickets": 0, "remainingRuns": "49", "remainingOvers": 0.0, "totalRuns": 2, "wides": 0, "runs": 231}, "over": {"ball": 4, "balls": 6, "complete": false, "limit": 50.0, "maiden": 0, "noBall": 0, "wide": 0, "byes": 0, "legByes": 0, "number": 50, "runs": 3, "wickets": 0, "overs": 49.4, "actual": 49.4, "unique": 49.04}, "dismissal": {"dismissal": false, "bowled": false, "type": "", "bowler": {"athlete": {"id": "330902", "name": "Mustafizur Rahman", "shortName": "Mustafizur", "fullName": "Mustafizur Rahman", "displayName": "Mustafizur Rahman"}}, "batsman": {"athlete": {"id": "341593", "name": "Devendra Bishoo", "shortName": "Bishoo", "fullName": "Devendra Bishoo", "displayName": "Devendra Bishoo"}}, "fielder": {"athlete": {}}, "minutes": 0, "retiredText": ""}}, {"id": "249050", "clock": "00:00", "date": "2018-07-22T09:30", "playType": {"id": "2", "description": "no run"}, "team": {"id": "4", "name": "West Indies", "abbreviation": "WI", "displayName": "West Indies"}, "mediaId": 0, "period": 2, "periodText": "2nd innings", "preText": "", "text": "defends back a dipping full toss.", "postText": "", "shortText": "Mustafizur Rahman to Bishoo, no run", "homeScore": "0", "awayScore": "231/9", "scoreValue": 0, "sequence": 204905, "athletesInvolved": [{"id": "330902", "name": "Mustafizur Rahman", "shortName": "Mustafizur", "displayName": "Mustafizur Rahman"}, {"id": "341593", "name": "Devendra Bishoo", "shortName": "Bishoo", "displayName": "Devendra Bishoo"}], "speedKPH": "", "speedMPH": "", "bowler": {"athlete": {"id": "330902", "name": "Mustafizur Rahman", "shortName": "Mustafizur", "fullName": "Mustafizur Rahman", "displayName": "Mustafizur Rahman"}, "team": {"id": "25", "name": "Bangladesh", "abbreviation": "BDESH", "displayName": "Bangladesh"}, "maidens": 0, "balls": 47, "wickets": 2, "overs": 7.5, "conceded": 35}, "otherBowler": {"athlete": {"id": "300619", "name": "Rubel Hossain", "shortName": "Rubel", "fullName": "Mohammad Rubel Hossain", "displayName": "Rubel Hossain"}, "team": {"id": "25", "name": "Bangladesh", "abbreviation": "BDESH", "displayName": "Bangladesh"}, "maidens": 0, "balls": 48, "wickets": 1, "overs": 8.0, "conceded": 52}, "batsman": {"athlete": {"id": "341593", "name": "Devendra Bishoo", "shortName": "Bishoo", "fullName": "Devendra Bishoo", "displayName": "Devendra Bishoo"}, "team": {"id": "4", "name": "West Indies", "abbreviation": "WI", "displayName": "West Indies"}, "totalRuns": 29, "faced": 39, "fours": 3, "runs": 231, "sixes": 0}, "otherBatsman": {"athlete": {"id": "670031", "name": "Alzarri Joseph", "shortName": "Joseph", "fullName": "Alzarri Shaheim Joseph", "displayName": "Alzarri Joseph"}, "team": {"id": "4", "name": "West Indies", "abbreviation": "WI", "displayName": "West Indies"}, "totalRuns": 29, "faced": 21, "fours": 2, "runs": 0, "sixes": 2}, "innings": {"id": "206971", "runRate": 4.63, "remainingBalls": 1, "byes": 0, "number": 2, "balls": 299, "noBalls": 0, "requiredRunRate": "294.00", "wickets": 9, "legByes": 0, "ballLimit": 300, "target": 280, "session": 1, "day": 1, "fallOfWickets": 0, "remainingRuns": "49", "remainingOvers": 0.0, "totalRuns": 0, "wides": 0, "runs": 231}, "over": {"ball": 5, "balls": 6, "complete": false, "limit": 50.0, "maiden": 0, "noBall": 0, "wide": 0, "byes": 0, "legByes": 0, "number": 50, "runs": 3, "wickets": 0, "overs": 49.5, "actual": 49.5, "unique": 49.05}, "dismissal": {"dismissal": false, "bowled": false, "type": "", "bowler": {"athlete": {"id": "330902", "name": "Mustafizur Rahman", "shortName": "Mustafizur", "fullName": "Mustafizur Rahman", "displayName": "Mustafizur Rahman"}}, "batsman": {"athlete": {"id": "341593", "name": "Devendra Bishoo", "shortName": "Bishoo", "fullName": "Devendra Bishoo", "displayName": "Devendra Bishoo"}}, "fielder": {"athlete": {}}, "minutes": 0, "retiredText": ""}}, {"id": "249060", "clock": "00:00", "date": "2018-07-22T09:30", "playType": {"id": "2", "description": "no run"}, "team": {"id": "4", "name": "West Indies", "abbreviation": "WI", "displayName": "West Indies"}, "mediaId": 0, "period": 2, "periodText": "2nd innings", "preText": "", "text": "through with the pull even before the ball arrived, beaten.", "postText": "That's that from all of us here tonight. Remember the next game will be a Day-Night fixture, here in Providence. Do check your local listings, but rest assured that we will bring you every ball of it. Till then, this is Shashank and Akshay saying goodnight from the ESPNcricinfo desk. Cheers and thanks for your company.\n\n\n<b>5.51pm </b> Bangladesh have broken the Caribbean duck. Inspirational performance from the under-fire seniors, who the board president felt weren't serious about Test cricket. Shakib made 97, Tamim batted right through to top score with 131 and Mushfiqur played a fine cameo that helped Bangladesh blast 43 off the last two overs. Then their inspirational captain, Mashrafe Mortaza, who didn't nearly travel here because of his ill wife, did the rest. Taking four wickets across three terrific spells of control to seal the deal. How change of colour does wonderful things. Is this the same side that was beaten in two Tests in little over five days?\n\nShimron Hetmyer was impressive, stroking a half-century, to keep West Indies alive till the 35th over, and then their chase unraveled. The last-wicket pair of Alzarri and Bishoo added a half-century stand, but that was merely to delay the inevitable. Disappointing outings overall for Chris Gayle and Andre Russell.\n\n<b> Tamim Iqbal is the Player of the Match for his 130*. </b> \"Test series didn't go our way, but this is the format we're most comfortable in. Good to see the boys bounce back,\" he says.", "shortText": "Mustafizur Rahman to Bishoo, no run", "homeScore": "0", "awayScore": "231/9", "scoreValue": 0, "sequence": 204906, "athletesInvolved": [{"id": "330902", "name": "Mustafizur Rahman", "shortName": "Mustafizur", "displayName": "Mustafizur Rahman"}, {"id": "341593", "name": "Devendra Bishoo", "shortName": "Bishoo", "displayName": "Devendra Bishoo"}], "speedKPH": "", "speedMPH": "", "bowler": {"athlete": {"id": "330902", "name": "Mustafizur Rahman", "shortName": "Mustafizur", "fullName": "Mustafizur Rahman", "displayName": "Mustafizur Rahman"}, "team": {"id": "25", "name": "Bangladesh", "abbreviation": "BDESH", "displayName": "Bangladesh"}, "maidens": 0, "balls": 48, "wickets": 2, "overs": 8.0, "conceded": 35}, "otherBowler": {"athlete": {"id": "300619", "name": "Rubel Hossain", "shortName": "Rubel", "fullName": "Mohammad Rubel Hossain", "displayName": "Rubel Hossain"}, "team": {"id": "25", "name": "Bangladesh", "abbreviation": "BDESH", "displayName": "Bangladesh"}, "maidens": 0, "balls": 48, "wickets": 1, "overs": 8.0, "conceded": 52}, "batsman": {"athlete": {"id": "341593", "name": "Devendra Bishoo", "shortName": "Bishoo", "fullName": "Devendra Bishoo", "displayName": "Devendra Bishoo"}, "team": {"id": "4", "name": "West Indies", "abbreviation": "WI", "displayName": "West Indies"}, "totalRuns": 29, "faced": 40, "fours": 3, "runs": 231, "sixes": 0}, "otherBatsman": {"athlete": {"id": "670031", "name": "Alzarri Joseph", "shortName": "Joseph", "fullName": "Alzarri Shaheim Joseph", "displayName": "Alzarri Joseph"}, "team": {"id": "4", "name": "West Indies", "abbreviation": "WI", "displayName": "West Indies"}, "totalRuns": 29, "faced": 21, "fours": 2, "runs": 0, "sixes": 2}, "innings": {"id": "206971", "runRate": 4.62, "remainingBalls": 0, "byes": 0, "number": 2, "balls": 300, "noBalls": 0, "wickets": 9, "legByes": 0, "ballLimit": 300, "target": 280, "session": 1, "day": 1, "fallOfWickets": 0, "remainingRuns": "49", "remainingOvers": 0.0, "totalRuns": 0, "wides": 0, "runs": 231}, "over": {"ball": 6, "balls": 6, "complete": true, "limit": 50.0, "maiden": 0, "noBall": 0, "wide": 0, "byes": 0, "legByes": 0, "number": 50, "runs": 3, "wickets": 0, "overs": 49.6, "actual": 49.6, "unique": 49.06}, "dismissal": {"dismissal": false, "bowled": false, "type": "", "bowler": {"athlete": {"id": "330902", "name": "Mustafizur Rahman", "shortName": "Mustafizur", "fullName": "Mustafizur Rahman", "displayName": "Mustafizur Rahman"}}, "batsman": {"athlete": {"id": "341593", "name": "Devendra Bishoo", "shortName": "Bishoo", "fullName": "Devendra Bishoo", "displayName": "Devendra Bishoo"}}, "fielder": {"athlete": {}}, "minutes": 0, "retiredText": ""}}]}}