{"commentary": {"count": 308, "pageIndex": 13, "pageSize": 25, "pageCount": 13, "items": [{"id": "148050", "clock": "00:00", "date": "2018-07-22T09:30", "playType": {"id": "4", "description": "six"}, "team": {"id": "25", "name": "Bangladesh", "abbreviation": "BDESH", "displayName": "Bangladesh"}, "mediaId": 0, "period": 1, "periodText": "1st innings", "preText": "", "text": "overpitched on middle and leg, heaves it over deep midwicket with the angle and the wind. Big, booming shot", "postText": "", "shortText": "Holder to Mushfiqur Rahim, SIX runs", "homeScore": "254/3", "awayScore": "0", "scoreValue": 6, "sequence": 104805, "athletesInvolved": [{"id": "391485", "name": "Jason Holder", "shortName": "Holder", "displayName": "Jason Holder"}, {"id": "56029", "name": "Mushfiqur Rahim", "shortName": "Mushfiqur", "displayName": "Mushfiqur Rahim"}], "speedKPH": "", "speedMPH": "", "bowler": {"athlete": {"id": "391485", "name": "Jason Holder", "shortName": "Holder", "fullName": "Jason Omar Holder", "displayName": "Jason Holder"}, "team": {"id": "4", "name": "West Indies", "abbreviation": "WI", "displayName": "West Indies"}, "maidens": 0, "balls": 53, "wickets": 1, "overs": 8.5, "conceded": 43}, "otherBowler": {"athlete": {"id": "276298", "name": "Andre Russell", "shortName": "Russell", "fullName": "Andre Dwayne Russell", "displayName": "Andre Russell"}, "team": {"id": "4", "name": "West Indies", "abbreviation": "WI", "displayName": "West Indies"}, "maidens": 0, "balls": 48, "wickets": 0, "overs": 8.0, "conceded": 41}, "batsman": {"athlete": {"id": "56029", "name": "Mushfiqur Rahim", "shortName": "Mushfiqur", "fullName": "Mohammad Mushfiqur Rahim", "displayName": "Mushfiqur Rahim"}, "team": {"id": "25", "name": "Bangladesh", "abbreviation": "BDESH", "displayName": "Bangladesh"}, "totalRuns": 22, "faced": 8, "fours": 1, "runs": 254, "sixes": 2}, "otherBatsman": {"athlete": {"id": "56194", "name": "Tamim Iqbal", "shortName": "Tamim", "fullName": "Tamim Iqbal Khan", "displayName": "Tamim Iqbal"}, "team": {"id": "25", "name": "Bangladesh", "abbreviation": "BDESH", "displayName": "Bangladesh"}, "totalRuns": 117, "faced": 157, "fours": 10, "runs": 0, "sixes": 1}, "innings": {"id": "206970", "runRate": 5.2, "remainingBalls": 7, "byes": 0, "number": 1, "balls": 293, "noBalls": 0, "wickets": 3, "legByes": 0, "ballLimit": 300, "target": 0, "session": 1, "day": 1, "fallOfWickets": 0, "remainingOvers": 0.0, "totalRuns": 6, "wides": 0, "runs": 254}, "over": {"ball": 5, "balls": 6, "complete": false, "limit": 50.0, "maiden": 0, "noBall": 0, "wide": 0, "byes": 0, "legByes": 0, "number": 49, "runs": 22, "wickets": 0, "overs": 48.5, "actual": 48.5, "unique": 48.05}, "dismissal": {"dismissal": false, "bowled": false, "type": "", "bowler": {"athlete": {"id": "391485", "name": "Jason Holder", "shortName": "Holder", "fullName": "Jason Omar Holder", "displayName": "Jason Holder"}}, "batsman": {"athlete": {"id": "56029", "name": "Mushfiqur Rahim", "shortName": "Mushfiqur", "fullName": "Mohammad Mushfiqur Rahim", "displayName": "Mushfiqur Rahim"}}, "fielder": {"athlete": {}}, "minutes": 0, "retiredText": ""}}, {"id": "148060", "clock": "00:00", "date": "2018-07-22T09:30", "playType": {"id": "3", "description": "four"}, "team": {"id": "25", "name": "Bangladesh", "abbreviation": "BDESH", "displayName": "Bangladesh"}, "mediaId": 0, "period": 1, "periodText": "1st innings", "preText": "Around the wicket", "text": "full, angled across outside off, thumped straight down the ground with loads of bottom-hand power", "postText": "22 off that over.. this is what they needed a lot earlier", "shortText": "Holder to Mushfiqur Rahim, FOUR runs", "homeScore": "258/3", "awayScore": "0", "scoreValue": 4, "sequence": 104806, "athletesInvolved": [{"id": "391485", "name": "Jason Holder", "shortName": "Holder", "displayName": "Jason Holder"}, {"id": "56029", "name": "Mushfiqur Rahim", "shortName": "Mushfiqur", "displayName": "Mushfiqur Rahim"}], "speedKPH": "", "speedMPH": "", "bowler": {"athlete": {"id": "391485", "name": "Jason Holder", "shortName": "Holder", "fullName": "Jason Omar Holder", "displayName": "Jason Holder"}, "team": {"id": "4", "name": "West Indies", "abbreviation": "WI", "displayName": "West Indies"}, "maidens": 0, "balls": 54, "wickets": 1, "overs": 9.0, "conceded": 47}, "otherBowler": {"athlete": {"id": "276298", "name": "Andre Russell", "shortName": "Russell", "fullName": "Andre Dwayne Russell", "displayName": "Andre Russell"}, "team": {"id": "4", "name": "West Indies", "abbreviation": "WI", "displayName": "West Indies"}, "maidens": 0, "balls": 48, "wickets": 0, "overs": 8.0, "conceded": 41}, "batsman": {"athlete": {"id": "56029", "name": "Mushfiqur Rahim", "shortName": "Mushfiqur", "fullName": "Mohammad Mushfiqur Rahim", "displayName": "Mushfiqur Rahim"}, "team": {"id": "25", "name": "Bangladesh", "abbreviation": "BDESH", "displayName": "Bangladesh"}, "totalRuns": 26, "faced": 9, "fours": 2, "runs": 258, "sixes": 2}, "otherBatsman": {"athlete": {"id": "56194", "name": "Tamim Iqbal", "shortName": "Tamim", "fullName": "Tamim Iqbal Khan", "displayName": "Tamim Iqbal"}, "team": {"id": "25", "name": "Bangladesh", "abbreviation": "BDESH", "displayName": "Bangladesh"}, "totalRuns": 117, "faced": 157, "fours": 10, "runs": 0, "sixes": 1}, "innings": {"id": "206970", "runRate": 5.26, "remainingBalls": 6, "byes": 0, "number": 1, "balls": 294, "noBalls": 0, "wickets": 3, "legByes": 0, "ballLimit": 300, "target": 0, "session": 1, "day": 1, "fallOfWickets": 0, "remainingOvers": 0.0, "totalRuns": 4, "wides": 0, "runs": 258}, "over": {"ball": 6, "balls": 6, "complete": true, "limit": 50.0, "maiden": 0, "noBall": 0, "wide": 0, "byes": 0, "legByes": 0, "number": 49, "runs": 22, "wickets": 0, "overs": 48.6, "actual": 48.6, "unique": 48.06}, "dismissal": {"dismissal": false, "bowled": false, "type": "", "bowler": {"athlete": {"id": "391485", "name": "Jason Holder", "shortName": "Holder", "fullName": "Jason Omar Holder", "displayName": "Jason Holder"}}, "batsman": {"athlete": {"id": "56029", "name": "Mushfiqur Rahim", "shortName": "Mushfiqur", "fullName": "Mohammad Mushfiqur Rahim", "displayName": "Mushfiqur Rahim"}}, "fielder": {"athlete": {}}, "minutes": 0, "retiredText": ""}}, {"id": "149010", "clock": "00:00", "date": "2018-07-22T09:30", "playType": {"id": "4", "description": "six"}, "team": {"id": "25", "name": "Bangladesh", "abbreviation": "BDESH", "displayName": "Bangladesh"}, "mediaId": 0, "period": 1, "periodText": "1st innings", "preText": "", "text": "full toss, angled across, Tamim presents the full face of the bat and chips it over long-off with a well-timed shot", "postText": "", "shortText": "Russell to Tamim Iqbal, SIX runs", "homeScore": "264/3", "awayScore": "0", "scoreValue": 6, "sequence": 104901, "athletesInvolved": [{"id": "56194", "name": "Tamim Iqbal", "shortName": "Tamim", "displayName": "Tamim Iqbal"}, {"id": "276298", "name": "Andre Russell", "shortName": "Russell", "displayName": "Andre Russell"}], "speedKPH": "", "speedMPH": "", "bowler": {"athlete": {"id": "276298", "name": "Andre Russell", "shortName": "Russell", "fullName": "Andre Dwayne Russell", "displayName": "Andre Russell"}, "team": {"id": "4", "name": "West Indies", "abbreviation": "WI", "displayName": "West Indies"}, "maidens": 0, "balls": 49, "wickets": 0, "overs": 8.1, "conceded": 47}, "otherBowler": {"athlete": {"id": "391485", "name": "Jason Holder", "shortName": "Holder", "fullName": "Jason Omar Holder", "displayName": "Jason Holder"}, "team": {"id": "4", "name": "West Indies", "abbreviation": "WI", "displayName": "West Indies"}, "maidens": 0, "balls": 54, "wickets": 1, "overs": 9.0, "conceded": 47}, "batsman": {"athlete": {"id": "56194", "name": "Tamim Iqbal", "shortName": "Tamim", "fullName": "Tamim Iqbal Khan", "displayName": "Tamim Iqbal"}, "team": {"id": "25", "name": "Bangladesh", "abbreviation": "BDESH", "displayName": "Bangladesh"}, "totalRuns": 123, "faced": 158, "fours": 10, "runs": 264, "sixes": 2}, "otherBatsman": {"athlete": {"id": "56029", "name": "Mushfiqur Rahim", "shortName": "Mushfiqur", "fullName": "Mohammad Mushfiqur Rahim", "displayName": "Mushfiqur Rahim"}, "team": {"id": "25", "name": "Bangladesh", "abbreviation": "BDESH", "displayName": "Bangladesh"}, "totalRuns": 26, "faced": 9, "fours": 2, "runs": 0, "sixes": 2}, "innings": {"id": "206970", "runRate": 5.36, "remainingBalls": 5, "byes": 0, "number": 1, "balls": 295, "noBalls": 0, "wickets": 3, "legByes": 0, "ballLimit": 300, "target": 0, "session": 1, "day": 1, "fallOfWickets": 0, "remainingOvers": 0.0, "totalRuns": 6, "wides": 0, "runs": 264}, "over": {"ball": 1, "balls": 6, "complete": false, "limit": 50.0, "maiden": 0, "noBall": 0, "wide": 0, "byes": 0, "legByes": 0, "number": 50, "runs": 21, "wickets": 1, "overs": 49.1, "actual": 49.1, "unique": 49.01}, "dismissal": {"dismissal": false, "bowled": false, "type": "", "bowler": {"athlete": {"id": "276298", "name": "Andre Russell", "shortName": "Russell", "fullName": "Andre Dwayne Russell", "displayName": "Andre Russell"}}, "batsman": {"athlete": {"id": "56194", "name": "Tamim Iqbal", "shortName": "Tamim", "fullName": "Tamim Iqbal Khan", "displayName": "Tamim Iqbal"}}, "fielder": {"athlete": {}}, "minutes": 0, "retiredText": ""}}, {"id": "149020", "clock": "00:00", "date": "2018-07-22T09:30", "playType": {"id": "4", "description": "six"}, "team": {"id": "25", "name": "Bangladesh", "abbreviation": "BDESH", "displayName": "Bangladesh"}, "mediaId": 0, "period": 1, "periodText": "1st innings", "preText": "", "text": "this one's over long-on. Russell wants the yorker and instead sends down an overpitched delivery on middle and leg that's swatted over authoritatively", "postText": "", "shortText": "Russell to Tamim Iqbal, SIX runs", "homeScore": "270/3", "awayScore": "0", "scoreValue": 6, "sequence": 104902, "athletesInvolved": [{"id": "56194", "name": "Tamim Iqbal", "shortName": "Tamim", "displayName": "Tamim Iqbal"}, {"id": "276298", "name": "Andre Russell", "shortName": "Russell", "displayName": "Andre Russell"}], "speedKPH": "", "speedMPH": "", "bowler": {"athlete": {"id": "276298", "name": "Andre Russell", "shortName": "Russell", "fullName": "Andre Dwayne Russell", "displayName": "Andre Russell"}, "team": {"id": "4", "name": "West Indies", "abbreviation": "WI", "displayName": "West Indies"}, "maidens": 0, "balls": 50, "wickets": 0, "overs": 8.2, "conceded": 53}, "otherBowler": {"athlete": {"id": "391485", "name": "Jason Holder", "shortName": "Holder", "fullName": "Jason Omar Holder", "displayName": "Jason Holder"}, "team": {"id": "4", "name": "West Indies", "abbreviation": "WI", "displayName": "West Indies"}, "maidens": 0, "balls": 54, "wickets": 1, "overs": 9.0, "conceded": 47}, "batsman": {"athlete": {"id": "56194", "name": "Tamim Iqbal", "shortName": "Tamim", "fullName": "Tamim Iqbal Khan", "displayName": "Tamim Iqbal"}, "team": {"id": "25", "name": "Bangladesh", "abbreviation": "BDESH", "displayName": "Bangladesh"}, "totalRuns": 129, "faced": 159, "fours": 10, "runs": 270, "sixes": 3}, "otherBatsman": {"athlete": {"id": "56029", "name": "Mushfiqur Rahim", "shortName": "Mushfiqur", "fullName": "Mohammad Mushfiqur Rahim", "displayName": "Mushfiqur Rahim"}, "team": {"id": "25", "name": "Bangladesh", "abbreviation": "BDESH", "displayName": "Bangladesh"}, "totalRuns": 26, "faced": 9, "fours": 2, "runs": 0, "sixes": 2}, "innings": {"id": "206970", "runRate": 5.47, "remainingBalls": 4, "byes": 0, "number": 1, "balls": 296, "noBalls": 0, "wickets": 3, "legByes": 0, "ballLimit": 300, "target": 0, "session": 1, "day": 1, "fallOfWickets": 0, "remainingOvers": 0.0, "totalRuns": 6, "wides": 0, "runs": 270}, "over": {"ball": 2, "balls": 6, "complete": false, "limit": 50.0, "maiden": 0, "noBall": 0, "wide": 0, "byes": 0, "legByes": 0, "number": 50, "runs": 21, "wickets": 1, "overs": 49.2, "actual": 49.2, "unique": 49.02}, "dismissal": {"dismissal": false, "bowled": false, "type": "", "bowler": {"athlete": {"id": "276298", "name": "Andre Russell", "shortName": "Russell", "fullName": "Andre Dwayne Russell", "displayName": "Andre Russell"}}, "batsman": {"athlete": {"id": "56194", "name": "Tamim Iqbal", "shortName": "Tamim", "fullName": "Tamim Iqbal Khan", "displayName": "Tamim Iqbal"}}, "fielder": {"athlete": {}}, "minutes": 0, "retiredText": ""}}, {"id": "149030", "clock": "00:00", "date": "2018-07-22T09:30", "playType": {"id": "1", "description": "run"}, "team": {"id": "25", "name": "Bangladesh", "abbreviation": "BDESH", "displayName": "Bangladesh"}, "mediaId": 0, "period": 1, "periodText": "1st innings", "preText": "", "text": "full on middle, hammered one-bounce to long-on", "postText": "", "shortText": "Russell to Tamim Iqbal, 1 run", "homeScore": "271/3", "awayScore": "0", "scoreValue": 1, "sequence": 104903, "athletesInvolved": [{"id": "56194", "name": "Tamim Iqbal", "shortName": "Tamim", "displayName": "Tamim Iqbal"}, {"id": "276298", "name": "Andre Russell", "shortName": "Russell", "displayName": "Andre Russell"}], "speedKPH": "", "speedMPH": "", "bowler": {"athlete": {"id": "276298", "name": "Andre Russell", "shortName": "Russell", "fullName": "Andre Dwayne Russell", "displayName": "Andre Russell"}, "team": {"id": "4", "name": "West Indies", "abbreviation": "WI", "displayName": "West Indies"}, "maidens": 0, "balls": 51, "wickets": 0, "overs": 8.3, "conceded": 54}, "otherBowler": {"athlete": {"id": "391485", "name": "Jason Holder", "shortName": "Holder", "fullName": "Jason Omar Holder", "displayName": "Jason Holder"}, "team": {"id": "4", "name": "West Indies", "abbreviation": "WI", "displayName": "West Indies"}, "maidens": 0, "balls": 54, "wickets": 1, "overs": 9.0, "conceded": 47}, "batsman": {"athlete": {"id": "56194", "name": "Tamim Iqbal", "shortName": "Tamim", "fullName": "Tamim Iqbal Khan", "displayName": "Tamim Iqbal"}, "team": {"id": "25", "name": "Bangladesh", "abbreviation": "BDESH", "displayName": "Bangladesh"}, "totalRuns": 130, "faced": 160, "fours": 10, "runs": 271, "sixes": 3}, "otherBatsman": {"athlete": {"id": "56029", "name": "Mushfiqur Rahim", "shortName": "Mushfiqur", "fullName": "Mohammad Mushfiqur Rahim", "displayName": "Mushfiqur Rahim"}, "team": {"id": "25", "name": "Bangladesh", "abbreviation": "BDESH", "displayName": "Bangladesh"}, "totalRuns": 26, "faced": 9, "fours": 2, "runs": 0, "sixes": 2}, "innings": {"id": "206970", "runRate": 5.47, "remainingBalls": 3, "byes": 0, "number": 1, "balls": 297, "noBalls": 0, "wickets": 3, "legByes": 0, "ballLimit": 300, "target": 0, "session": 1, "day": 1, "fallOfWickets": 0, "remainingOvers": 0.0, "totalRuns": 1, "wides": 0, "runs": 271}, "over": {"ball": 3, "balls": 6, "complete": false, "limit": 50.0, "maiden": 0, "noBall": 0, "wide": 0, "byes": 0, "legByes": 0, "number": 50, "runs": 21, "wickets": 1, "overs": 49.3, "actual": 49.3, "unique": 49.03}, "dismissal": {"dismissal": false, "bowled": false, "type": "", "bowler": {"athlete": {"id": "276298", "name": "Andre Russell", "shortName": "Russell", "fullName": "Andre Dwayne Russell", "displayName": "Andre Russell"}}, "batsman": {"athlete": {"id": "56194", "name": "Tamim Iqbal", "shortName": "Tamim", "fullName": "Tamim Iqbal Khan", "displayName": "Tamim Iqbal"}}, "fielder": {"athlete": {}}, "minutes": 0, "retiredText": ""}}, {"id": "149040", "clock": "00:00", "date": "2018-07-22T09:30", "playType": {"id": "3", "description": "four"}, "team": {"id": "25", "name": "Bangladesh", "abbreviation": "BDESH", "displayName": "Bangladesh"}, "mediaId": 0, "period": 1, "periodText": "1st innings", "preText": "Fifty of the stand in 19 balls!", "text": "full, wide, crunched past the right of point.. what a knock this is turning out to be", "postText": "", "shortText": "Russell to Mushfiqur Rahim, FOUR runs", "homeScore": "275/3", "awayScore": "0", "scoreValue": 4, "sequence": 104904, "athletesInvolved": [{"id": "56029", "name": "Mushfiqur Rahim", "shortName": "Mushfiqur", "displayName": "Mushfiqur Rahim"}, {"id": "276298", "name": "Andre Russell", "shortName": "Russell", "displayName": "Andre Russell"}], "speedKPH": "", "speedMPH": "", "bowler": {"athlete": {"id": "276298", "name": "Andre Russell", "shortName": "Russell", "fullName": "Andre Dwayne Russell", "displayName": "Andre Russell"}, "team": {"id": "4", "name": "West Indies", "abbreviation": "WI", "displayName": "West Indies"}, "maidens": 0, "balls": 52, "wickets": 0, "overs": 8.4, "conceded": 58}, "otherBowler": {"athlete": {"id": "391485", "name": "Jason Holder", "shortName": "Holder", "fullName": "Jason Omar Holder", "displayName": "Jason Holder"}, "team": {"id": "4", "name": "West Indies", "abbreviation": "WI", "displayName": "West Indies"}, "maidens": 0, "balls": 54, "wickets": 1, "overs": 9.0, "conceded": 47}, "batsman": {"athlete": {"id": "56029", "name": "Mushfiqur Rahim", "shortName": "Mushfiqur", "fullName": "Mohammad Mushfiqur Rahim", "displayName": "Mushfiqur Rahim"}, "team": {"id": "25", "name": "Bangladesh", "abbreviation": "BDESH", "displayName": "Bangladesh"}, "totalRuns": 30, "faced": 10, "fours": 3, "runs": 275, "sixes": 2}, "otherBatsman": {"athlete": {"id": "56194", "name": "Tamim Iqbal", "shortName": "Tamim", "fullName": "Tamim Iqbal Khan", "displayName": "Tamim Iqbal"}, "team": {"id": "25", "name": "Bangladesh", "abbreviation": "BDESH", "displayName": "Bangladesh"}, "totalRuns": 130, "faced": 160, "fours": 10, "runs": 0, "sixes": 3}, "innings": {"id": "206970", "runRate": 5.53, "remainingBalls": 2, "byes": 0, "number": 1, "balls": 298, "noBalls": 0, "wickets": 3, "legByes": 0, "ballLimit": 300, "target": 0, "session": 1, "day": 1, "fallOfWickets": 0, "remainingOvers": 0.0, "totalRuns": 4, "wides": 0, "runs": 275}, "over": {"ball": 4, "balls": 6, "complete": false, "limit": 50.0, "maiden": 0, "noBall": 0, "wide": 0, "byes": 0, "legByes": 0, "number": 50, "runs": 21, "wickets": 1, "overs": 49.4, "actual": 49.4, "unique": 49.04}, "dismissal": {"dismissal": false, "bowled": false, "type": "", "bowler": {"athlete": {"id": "276298", "name": "Andre Russell", "shortName": "Russell", "fullName": "Andre Dwayne Russell", "displayName": "Andre Russell"}}, "batsman": {"athlete": {"id": "56029", "name": "Mushfiqur Rahim", "shortName": "Mushfiqur", "fullName": "Mohammad Mushfiqur Rahim", "displayName": "Mushfiqur Rahim"}}, "fielder": {"athlete": {}}, "minutes": 0, "retiredText": ""}}, {"id": "149050", "clock": "00:00", "date": "2018-07-22T09:30", "playType": {"id": "9", "description": "out"}, "team": {"id": "25", "name": "Bangladesh", "abbreviation": "BDESH", "displayName": "Bangladesh"}, "mediaId": 0, "period": 1, "periodText": "1st innings", "preText": "", "text": "gets down and across for a paddle and can't get it past Bishoo who puts in the dive at short fine leg to hold on. But he's done his job here. This surge in momentum is that Bangladesh needed", "postText": "", "shortText": "Russell to Mushfiqur Rahim, OUT", "homeScore": "275/4", "awayScore": "0", "scoreValue": 0, "sequence": 104905, "athletesInvolved": [{"id": "341593", "name": "Devendra Bishoo", "shortName": "Bishoo", "displayName": "Devendra Bishoo"}, {"id": "56029", "name": "Mushfiqur Rahim", "shortName": "Mushfiqur", "displayName": "Mushfiqur Rahim"}, {"id": "276298", "name": "Andre Russell", "shortName": "Russell", "displayName": "Andre Russell"}], "speedKPH": "", "speedMPH": "", "bowler": {"athlete": {"id": "276298", "name": "Andre Russell", "shortName": "Russell", "fullName": "Andre Dwayne Russell", "displayName": "Andre Russell"}, "team": {"id": "4", "name": "West Indies", "abbreviation": "WI", "displayName": "West Indies"}, "maidens": 0, "balls": 53, "wickets": 1, "overs": 8.5, "conceded": 58}, "otherBowler": {"athlete": {"id": "391485", "name": "Jason Holder", "shortName": "Holder", "fullName": "Jason Omar Holder", "displayName": "Jason Holder"}, "team": {"id": "4", "name": "West Indies", "abbreviation": "WI", "displayName": "West Indies"}, "maidens": 0, "balls": 54, "wickets": 1, "overs": 9.0, "conceded": 47}, "batsman": {"athlete": {"id": "56029", "name": "Mushfiqur Rahim", "shortName": "Mushfiqur", "fullName": "Mohammad Mushfiqur Rahim", "displayName": "Mushfiqur Rahim"}, "team": {"id": "25", "name": "Bangladesh", "abbreviation": "BDESH", "displayName": "Bangladesh"}, "totalRuns": 30, "faced": 11, "fours": 3, "runs": 275, "sixes": 2}, "otherBatsman": {"athlete": {"id": "56194", "name": "Tamim Iqbal", "shortName": "Tamim", "fullName": "Tamim Iqbal Khan", "displayName": "Tamim Iqbal"}, "team": {"id": "25", "name": "Bangladesh", "abbreviation": "BDESH", "displayName": "Bangladesh"}, "totalRuns": 130, "faced": 160, "fours": 10, "runs": 0, "sixes": 3}, "innings": {"id": "206970", "runRate": 5.51, "remainingBalls": 1, "byes": 0, "number": 1, "balls": 299, "noBalls": 0, "wickets": 4, "legByes": 0, "ballLimit": 300, "target": 0, "session": 1, "day": 1, "fallOfWickets": 4, "remainingOvers": 0.0, "totalRuns": 0, "wides": 0, "runs": 275}, "over": {"ball": 5, "balls": 6, "complete": false, "limit": 50.0, "maiden": 0, "noBall": 0, "wide": 0, "byes": 0, "legByes": 0, "number": 50, "runs": 21, "wickets": 1, "overs": 49.5, "actual": 49.5, "unique": 49.05}, "dismissal": {"dismissal": true, "bowled": true, "type": "caught", "bowler": {"athlete": {"id": "276298", "name": "Andre Russell", "shortName": "Russell", "fullName": "Andre Dwayne Russell", "displayName": "Andre Russell"}}, "batsman": {"athlete": {"id": "56029", "name": "Mushfiqur Rahim", "shortName": "Mushfiqur", "fullName": "Mohammad Mushfiqur Rahim", "displayName": "Mushfiqur Rahim"}}, "fielder": {"athlete": {}}, "minutes": 0, "retiredText": "", "text": "Mushfiqur Rahim c Bishoo b Russell 30 (11b 3x4 2x6) SR: 272.72"}}, {"id": "149060", "clock": "00:00", "date": "2018-07-22T09:30", "playType": {"id": "3", "description": "four"}, "team": {"id": "25", "name": "Bangladesh", "abbreviation": "BDESH", "displayName": "Bangladesh"}, "mediaId": 0, "period": 1, "periodText": "1st innings", "preText": "", "text": "short, helps it along with the angle to deep fine leg with a pull", "postText": "<b>1.25pm</b> That's the highest total for Bangladesh in an ODI against West Indies in West Indies. Mushfiqur Rahim gives them the surge they needed in the end. But has that come a little too late? Tamim and Shakib took way too long to switch gears. They played vital hands, mind you, after Bangladesh had lost an early wicket, but they needed to accelerate a lot earlier, and you just got the sense that they slowed down as they approached their hundreds. When that intent finally came, from Shakib first, he perished short of his hundred.. Tamim went on to get one.. the <b>slowest hundred by a Bangladesh batsman in ODIs</b>. A decent acceleration in the last two overs.. this is a competitive total but could they have aimed for 20-30 more?", "shortText": "Russell to Mahmudullah, FOUR runs", "homeScore": "279/4", "awayScore": "0", "scoreValue": 4, "sequence": 104906, "athletesInvolved": [{"id": "56025", "name": "Mahmudullah", "shortName": "Mahmudullah", "displayName": "Mahmudullah"}, {"id": "276298", "name": "Andre Russell", "shortName": "Russell", "displayName": "Andre Russell"}], "speedKPH": "", "speedMPH": "", "bowler": {"athlete": {"id": "276298", "name": "Andre Russell", "shortName": "Russell", "fullName": "Andre Dwayne Russell", "displayName": "Andre Russell"}, "team": {"id": "4", "name": "West Indies", "abbreviation": "WI", "displayName": "West Indies"}, "maidens": 0, "balls": 54, "wickets": 1, "overs": 9.0, "conceded": 62}, "otherBowler": {"athlete": {"id": "391485", "name": "Jason Holder", "shortName": "Holder", "fullName": "Jason Omar Holder", "displayName": "Jason Holder"}, "team": {"id": "4", "name": "West Indies", "abbreviation": "WI", "displayName": "West Indies"}, "maidens": 0, "balls": 54, "wickets": 1, "overs": 9.0, "conceded": 47}, "batsman": {"athlete": {"id": "56025", "name": "Mahmudullah", "shortName": "Mahmudullah", "fullName": "Mohammad Mahmudullah", "displayName": "Mahmudullah"}, "team": {"id": "25", "name": "Bangladesh", "abbreviation": "BDESH", "displayName": "Bangladesh"}, "totalRuns": 4, "faced": 1, "fours": 1, "runs": 279, "sixes": 0}, "otherBatsman": {"athlete": {"id": "56194", "name": "Tamim Iqbal", "shortName": "Tamim", "fullName": "Tamim Iqbal Khan", "displayName": "Tamim Iqbal"}, "team": {"id": "25", "name": "Bangladesh", "abbreviation": "BDESH", "displayName": "Bangladesh"}, "totalRuns": 130, "faced": 160, "fours": 10, "runs": 0, "sixes": 3}, "innings": {"id": "206970", "runRate": 5.58, "remainingBalls": 0, "byes": 0, "number": 1, "balls": 300, "noBalls": 0, "wickets": 4, "legByes": 0, "ballLimit": 300, "target": 0, "session": 1, "day": 1, "fallOfWickets": 0, "remainingOvers": 0.0, "totalRuns": 4, "wides": 0, "runs": 279}, "over": {"ball": 6, "balls": 6, "complete": true, "limit": 50.0, "maiden": 0, "noBall": 0, "wide": 0, "byes": 0, "legByes": 0, "number": 50, "runs": 21, "wickets": 1, "overs": 49.6, "actual": 49.6, "unique": 49.06}, "dismissal": {"dismissal": false, "bowled": false, "type": "", "bowler": {"athlete": {"id": "276298", "name": "Andre Russell", "shortName": "Russell", "fullName": "Andre Dwayne Russell", "displayName": "Andre Russell"}}, "batsman": {"athlete": {"id": "56025", "name": "Mahmudullah", "shortName": "Mahmudullah", "fullName": "Mohammad Mahmudullah", "displayName": "Mahmudullah"}}, "fielder": {"athlete": {}}, "minutes": 0, "retiredText": ""}}]}}