{"commentary": {"count": 306, "pageIndex": 13, "pageSize": 25, "pageCount": 13, "items": [{"id": "148020", "clock": "00:00", "date": "2019-02-13T14:00", "playType": {"id": "2", "description": "no run"}, "team": {"id": "25", "name": "Bangladesh", "abbreviation": "BDESH", "displayName": "Bangladesh"}, "mediaId": 0, "period": 1, "periodText": "1st innings", "preText": "", "text": "full outside off this time, Mashrafe simply jams his bat down towards mid-off", "postText": "", "shortText": "Boult to Mashrafe Mortaza, no run", "homeScore": "229/9", "awayScore": "0", "scoreValue": 0, "sequence": 104802, "athletesInvolved": [{"id": "56007", "name": "Mashrafe Mortaza", "shortName": "Mortaza", "displayName": "Mashrafe Mortaza"}, {"id": "277912", "name": "Trent Boult", "shortName": "Boult", "displayName": "Trent Boult"}], "speedKPH": "", "speedMPH": "", "bowler": {"athlete": {"id": "277912", "name": "Trent Boult", "shortName": "Boult", "fullName": "Trent Alexander Boult", "displayName": "Trent Boult"}, "team": {"id": "5", "name": "New Zealand", "abbreviation": "NZ", "displayName": "New Zealand"}, "maidens": 0, "balls": 56, "wickets": 2, "overs": 9.2, "conceded": 37}, "otherBowler": {"athlete": {"id": "493773", "name": "Lockie Ferguson", "shortName": "Ferguson", "fullName": "Lachlan Hammond Ferguson", "displayName": "Lockie Ferguson"}, "team": {"id": "5", "name": "New Zealand", "abbreviation": "NZ", "displayName": "New Zealand"}, "maidens": 1, "balls": 60, "wickets": 2, "overs": 10.0, "conceded": 44}, "batsman": {"athlete": {"id": "56007", "name": "Mashrafe Mortaza", "shortName": "Mortaza", "fullName": "Mashrafe Bin Mortaza", "displayName": "Mashrafe Mortaza"}, "team": {"id": "25", "name": "Bangladesh", "abbreviation": "BDESH", "displayName": "Bangladesh"}, "totalRuns": 8, "faced": 11, "fours": 1, "runs": 229, "sixes": 0}, "otherBatsman": {"athlete": {"id": "330902", "name": "Mustafizur Rahman", "shortName": "Mustafizur", "fullName": "Mustafizur Rahman", "displayName": "Mustafizur Rahman"}, "team": {"id": "25", "name": "Bangladesh", "abbreviation": "BDESH", "displayName": "Bangladesh"}, "totalRuns": 0, "faced": 5, "fours": 0, "runs": 0, "sixes": 0}, "innings": {"id": "212876", "runRate": 4.73, "remainingBalls": 10, "byes": 0, "number": 1, "balls": 290, "noBalls": 0, "wickets": 9, "legByes": 0, "ballLimit": 300, "target": 0, "session": 1, "day": 1, "fallOfWickets": 0, "remainingOvers": 1.4, "totalRuns": 0, "wides": 0, "runs": 229}, "over": {"ball": 2, "balls": 5, "complete": false, "limit": 50.0, "maiden": 0, "noBall": 0, "wide": 0, "byes": 0, "legByes": 0, "number": 49, "runs": 3, "wickets": 1, "overs": 48.2, "actual": 48.2, "unique": 48.02}, "dismissal": {"dismissal": false, "bowled": false, "type": "", "bowler": {"athlete": {"id": "277912", "name": "Trent Boult", "shortName": "Boult", "fullName": "Trent Alexander Boult", "displayName": "Trent Boult"}}, "batsman": {"athlete": {"id": "56007", "name": "Mashrafe Mortaza", "shortName": "Mortaza", "fullName": "Mashrafe Bin Mortaza", "displayName": "Mashrafe Mortaza"}}, "fielder": {"athlete": {}}, "minutes": 0, "retiredText": ""}}, {"id": "148030", "clock": "00:00", "date": "2019-02-13T14:00", "playType": {"id": "5", "description": "no ball"}, "team": {"id": "25", "name": "Bangladesh", "abbreviation": "BDESH", "displayName": "Bangladesh"}, "mediaId": 0, "period": 1, "periodText": "1st innings", "preText": "", "text": "backs away and then moves across to the off side, Boult ends up sending down a high full toss on the off side for a no ball", "postText": "", "shortText": "Boult to Mashrafe Mortaza, 1 no ball", "homeScore": "230/9", "awayScore": "0", "scoreValue": 1, "sequence": 104803, "athletesInvolved": [{"id": "56007", "name": "Mashrafe Mortaza", "shortName": "Mortaza", "displayName": "Mashrafe Mortaza"}, {"id": "277912", "name": "Trent Boult", "shortName": "Boult", "displayName": "Trent Boult"}], "speedKPH": "", "speedMPH": "", "bowler": {"athlete": {"id": "277912", "name": "Trent Boult", "shortName": "Boult", "fullName": "Trent Alexander Boult", "displayName": "Trent Boult"}, "team": {"id": "5", "name": "New Zealand", "abbreviation": "NZ", "displayName": "New Zealand"}, "maidens": 0, "balls": 56, "wickets": 2, "overs": 9.2, "conceded": 38}, "otherBowler": {"athlete": {"id": "493773", "name": "Lockie Ferguson", "shortName": "Ferguson", "fullName": "Lachlan Hammond Ferguson", "displayName": "Lockie Ferguson"}, "team": {"id": "5", "name": "New Zealand", "abbreviation": "NZ", "displayName": "New Zealand"}, "maidens": 1, "balls": 60, "wickets": 2, "overs": 10.0, "conceded": 44}, "batsman": {"athlete": {"id": "56007", "name": "Mashrafe Mortaza", "shortName": "Mortaza", "fullName": "Mashrafe Bin Mortaza", "displayName": "Mashrafe Mortaza"}, "team": {"id": "25", "name": "Bangladesh", "abbreviation": "BDESH", "displayName": "Bangladesh"}, "totalRuns": 8, "faced": 12, "fours": 1, "runs": 230, "sixes": 0}, "otherBatsman": {"athlete": {"id": "330902", "name": "Mustafizur Rahman", "shortName": "Mustafizur", "fullName": "Mustafizur Rahman", "displayName": "Mustafizur Rahman"}, "team": {"id": "25", "name": "Bangladesh", "abbreviation": "BDESH", "displayName": "Bangladesh"}, "totalRuns": 0, "faced": 5, "fours": 0, "runs": 0, "sixes": 0}, "innings": {"id": "212876", "runRate": 4.75, "remainingBalls": 10, "byes": 0, "number": 1, "balls": 290, "noBalls": 1, "wickets": 9, "legByes": 0, "ballLimit": 300, "target": 0, "session": 1, "day": 1, "fallOfWickets": 0, "remainingOvers": 1.4, "totalRuns": 1, "wides": 0, "runs": 230}, "over": {"ball": 3, "balls": 5, "complete": false, "limit": 50.0, "maiden": 0, "noBall": 1, "wide": 0, "byes": 0, "legByes": 0, "number": 49, "runs": 3, "wickets": 1, "overs": 48.2, "actual": 48.3, "unique": 48.03}, "dismissal": {"dismissal": false, "bowled": false, "type": "", "bowler": {"athlete": {"id": "277912", "name": "Trent Boult", "shortName": "Boult", "fullName": "Trent Alexander Boult", "displayName": "Trent Boult"}}, "batsman": {"athlete": {"id": "56007", "name": "Mashrafe Mortaza", "shortName": "Mortaza", "fullName": "Mashrafe Bin Mortaza", "displayName": "Mashrafe Mortaza"}}, "fielder": {"athlete": {}}, "minutes": 0, "retiredText": ""}}, {"id": "148040", "clock": "00:00", "date": "2019-02-13T14:00", "playType": {"id": "2", "description": "no run"}, "team": {"id": "25", "name": "Bangladesh", "abbreviation": "BDESH", "displayName": "Bangladesh"}, "mediaId": 0, "period": 1, "periodText": "1st innings", "preText": "Free Hit coming up", "text": "low full toss outside off, Mashrafe only steers it to short third man. Opportunity lost!", "postText": "", "shortText": "Boult to Mashrafe Mortaza, no run", "homeScore": "230/9", "awayScore": "0", "scoreValue": 0, "sequence": 104804, "athletesInvolved": [{"id": "56007", "name": "Mashrafe Mortaza", "shortName": "Mortaza", "displayName": "Mashrafe Mortaza"}, {"id": "277912", "name": "Trent Boult", "shortName": "Boult", "displayName": "Trent Boult"}], "speedKPH": "", "speedMPH": "", "bowler": {"athlete": {"id": "277912", "name": "Trent Boult", "shortName": "Boult", "fullName": "Trent Alexander Boult", "displayName": "Trent Boult"}, "team": {"id": "5", "name": "New Zealand", "abbreviation": "NZ", "displayName": "New Zealand"}, "maidens": 0, "balls": 57, "wickets": 2, "overs": 9.3, "conceded": 38}, "otherBowler": {"athlete": {"id": "493773", "name": "Lockie Ferguson", "shortName": "Ferguson", "fullName": "Lachlan Hammond Ferguson", "displayName": "Lockie Ferguson"}, "team": {"id": "5", "name": "New Zealand", "abbreviation": "NZ", "displayName": "New Zealand"}, "maidens": 1, "balls": 60, "wickets": 2, "overs": 10.0, "conceded": 44}, "batsman": {"athlete": {"id": "56007", "name": "Mashrafe Mortaza", "shortName": "Mortaza", "fullName": "Mashrafe Bin Mortaza", "displayName": "Mashrafe Mortaza"}, "team": {"id": "25", "name": "Bangladesh", "abbreviation": "BDESH", "displayName": "Bangladesh"}, "totalRuns": 8, "faced": 13, "fours": 1, "runs": 230, "sixes": 0}, "otherBatsman": {"athlete": {"id": "330902", "name": "Mustafizur Rahman", "shortName": "Mustafizur", "fullName": "Mustafizur Rahman", "displayName": "Mustafizur Rahman"}, "team": {"id": "25", "name": "Bangladesh", "abbreviation": "BDESH", "displayName": "Bangladesh"}, "totalRuns": 0, "faced": 5, "fours": 0, "runs": 0, "sixes": 0}, "innings": {"id": "212876", "runRate": 4.74, "remainingBalls": 9, "byes": 0, "number": 1, "balls": 291, "noBalls": 0, "wickets": 9, "legByes": 0, "ballLimit": 300, "target": 0, "session": 1, "day": 1, "fallOfWickets": 0, "remainingOvers": 1.3, "totalRuns": 0, "wides": 0, "runs": 230}, "over": {"ball": 4, "balls": 5, "complete": false, "limit": 50.0, "maiden": 0, "noBall": 0, "wide": 0, "byes": 0, "legByes": 0, "number": 49, "runs": 3, "wickets": 1, "overs": 48.3, "actual": 48.3, "unique": 48.04}, "dismissal": {"dismissal": false, "bowled": false, "type": "", "bowler": {"athlete": {"id": "277912", "name": "Trent Boult", "shortName": "Boult", "fullName": "Trent Alexander Boult", "displayName": "Trent Boult"}}, "batsman": {"athlete": {"id": "56007", "name": "Mashrafe Mortaza", "shortName": "Mortaza", "fullName": "Mashrafe Bin Mortaza", "displayName": "Mashrafe Mortaza"}}, "fielder": {"athlete": {}}, "minutes": 0, "retiredText": ""}}, {"id": "148050", "clock": "00:00", "date": "2019-02-13T14:00", "playType": {"id": "6", "description": "wide"}, "team": {"id": "25", "name": "Bangladesh", "abbreviation": "BDESH", "displayName": "Bangladesh"}, "mediaId": 0, "period": 1, "periodText": "1st innings", "preText": "", "text": "goes across to off to scoop this time and this one is well down leg for a wide", "postText": "", "shortText": "Boult to Mashrafe Mortaza, 1 wide", "homeScore": "231/9", "awayScore": "0", "scoreValue": 1, "sequence": 104805, "athletesInvolved": [{"id": "56007", "name": "Mashrafe Mortaza", "shortName": "Mortaza", "displayName": "Mashrafe Mortaza"}, {"id": "277912", "name": "Trent Boult", "shortName": "Boult", "displayName": "Trent Boult"}], "speedKPH": "", "speedMPH": "", "bowler": {"athlete": {"id": "277912", "name": "Trent Boult", "shortName": "Boult", "fullName": "Trent Alexander Boult", "displayName": "Trent Boult"}, "team": {"id": "5", "name": "New Zealand", "abbreviation": "NZ", "displayName": "New Zealand"}, "maidens": 0, "balls": 57, "wickets": 2, "overs": 9.3, "conceded": 39}, "otherBowler": {"athlete": {"id": "493773", "name": "Lockie Ferguson", "shortName": "Ferguson", "fullName": "Lachlan Hammond Ferguson", "displayName": "Lockie Ferguson"}, "team": {"id": "5", "name": "New Zealand", "abbreviation": "NZ", "displayName": "New Zealand"}, "maidens": 1, "balls": 60, "wickets": 2, "overs": 10.0, "conceded": 44}, "batsman": {"athlete": {"id": "56007", "name": "Mashrafe Mortaza", "shortName": "Mortaza", "fullName": "Mashrafe Bin Mortaza", "displayName": "Mashrafe Mortaza"}, "team": {"id": "25", "name": "Bangladesh", "abbreviation": "BDESH", "displayName": "Bangladesh"}, "totalRuns": 8, "faced": 13, "fours": 1, "runs": 231, "sixes": 0}, "otherBatsman": {"athlete": {"id": "330902", "name": "Mustafizur Rahman", "shortName": "Mustafizur", "fullName": "Mustafizur Rahman", "displayName": "Mustafizur Rahman"}, "team": {"id": "25", "name": "Bangladesh", "abbreviation": "BDESH", "displayName": "Bangladesh"}, "totalRuns": 0, "faced": 5, "fours": 0, "runs": 0, "sixes": 0}, "innings": {"id": "212876", "runRate": 4.76, "remainingBalls": 9, "byes": 0, "number": 1, "balls": 291, "noBalls": 0, "wickets": 9, "legByes": 0, "ballLimit": 300, "target": 0, "session": 1, "day": 1, "fallOfWickets": 0, "remainingOvers": 1.3, "totalRuns": 1, "wides": 1, "runs": 231}, "over": {"ball": 5, "balls": 5, "complete": false, "limit": 50.0, "maiden": 0, "noBall": 0, "wide": 1, "byes": 0, "legByes": 0, "number": 49, "runs": 3, "wickets": 1, "overs": 48.3, "actual": 48.4, "unique": 48.05}, "dismissal": {"dismissal": false, "bowled": false, "type": "", "bowler": {"athlete": {"id": "277912", "name": "Trent Boult", "shortName": "Boult", "fullName": "Trent Alexander Boult", "displayName": "Trent Boult"}}, "batsman": {"athlete": {"id": "56007", "name": "Mashrafe Mortaza", "shortName": "Mortaza", "fullName": "Mashrafe Bin Mortaza", "displayName": "Mashrafe Mortaza"}}, "fielder": {"athlete": {}}, "minutes": 0, "retiredText": ""}}, {"id": "148060", "clock": "00:00", "date": "2019-02-13T14:00", "playType": {"id": "1", "description": "run"}, "team": {"id": "25", "name": "Bangladesh", "abbreviation": "BDESH", "displayName": "Bangladesh"}, "mediaId": 0, "period": 1, "periodText": "1st innings", "preText": "", "text": "straighter delivery for a change and it's lofted down the ground. They settle for one by the time long-off cuts it off", "postText": "", "shortText": "Boult to Mashrafe Mortaza, 1 run", "homeScore": "232/9", "awayScore": "0", "scoreValue": 1, "sequence": 104806, "athletesInvolved": [{"id": "56007", "name": "Mashrafe Mortaza", "shortName": "Mortaza", "displayName": "Mashrafe Mortaza"}, {"id": "277912", "name": "Trent Boult", "shortName": "Boult", "displayName": "Trent Boult"}], "speedKPH": "", "speedMPH": "", "bowler": {"athlete": {"id": "277912", "name": "Trent Boult", "shortName": "Boult", "fullName": "Trent Alexander Boult", "displayName": "Trent Boult"}, "team": {"id": "5", "name": "New Zealand", "abbreviation": "NZ", "displayName": "New Zealand"}, "maidens": 0, "balls": 58, "wickets": 2, "overs": 9.4, "conceded": 40}, "otherBowler": {"athlete": {"id": "493773", "name": "Lockie Ferguson", "shortName": "Ferguson", "fullName": "Lachlan Hammond Ferguson", "displayName": "Lockie Ferguson"}, "team": {"id": "5", "name": "New Zealand", "abbreviation": "NZ", "displayName": "New Zealand"}, "maidens": 1, "balls": 60, "wickets": 2, "overs": 10.0, "conceded": 44}, "batsman": {"athlete": {"id": "56007", "name": "Mashrafe Mortaza", "shortName": "Mortaza", "fullName": "Mashrafe Bin Mortaza", "displayName": "Mashrafe Mortaza"}, "team": {"id": "25", "name": "Bangladesh", "abbreviation": "BDESH", "displayName": "Bangladesh"}, "totalRuns": 9, "faced": 14, "fours": 1, "runs": 232, "sixes": 0}, "otherBatsman": {"athlete": {"id": "330902", "name": "Mustafizur Rahman", "shortName": "Mustafizur", "fullName": "Mustafizur Rahman", "displayName": "Mustafizur Rahman"}, "team": {"id": "25", "name": "Bangladesh", "abbreviation": "BDESH", "displayName": "Bangladesh"}, "totalRuns": 0, "faced": 5, "fours": 0, "runs": 0, "sixes": 0}, "innings": {"id": "212876", "runRate": 4.76, "remainingBalls": 8, "byes": 0, "number": 1, "balls": 292, "noBalls": 0, "wickets": 9, "legByes": 0, "ballLimit": 300, "target": 0, "session": 1, "day": 1, "fallOfWickets": 0, "remainingOvers": 1.2, "totalRuns": 1, "wides": 0, "runs": 232}, "over": {"ball": 6, "balls": 5, "complete": false, "limit": 50.0, "maiden": 0, "noBall": 0, "wide": 0, "byes": 0, "legByes": 0, "number": 49, "runs": 3, "wickets": 1, "overs": 48.4, "actual": 48.4, "unique": 48.06}, "dismissal": {"dismissal": false, "bowled": false, "type": "", "bowler": {"athlete": {"id": "277912", "name": "Trent Boult", "shortName": "Boult", "fullName": "Trent Alexander Boult", "displayName": "Trent Boult"}}, "batsman": {"athlete": {"id": "56007", "name": "Mashrafe Mortaza", "shortName": "Mortaza", "fullName": "Mashrafe Bin Mortaza", "displayName": "Mashrafe Mortaza"}}, "fielder": {"athlete": {}}, "minutes": 0, "retiredText": ""}}, {"id": "148070", "clock": "00:00", "date": "2019-02-13T14:00", "playType": {"id": "9", "description": "out"}, "team": {"id": "25", "name": "Bangladesh", "abbreviation": "BDESH", "displayName": "Bangladesh"}, "mediaId": 0, "period": 1, "periodText": "1st innings", "preText": "", "text": "the yorker does it! Mustafizur had to face two balls for Mashrafe to face the last over but Boult's accurate yorker on middle and off finds the gap between bat and pad. It's all over", "postText": "<b>5.45pm</b> So Bangladesh have managed a relatively respectable 232 after being reduced to 42 for 4 and losing six before reaching 100. There was early swing from Boult, raw pace from Ferguson later on, some rash shots from the Bangladesh batsmen, and they ended up being bowled out on what looks like a decent pitch for batting, as Soumya and Mithun showed. Soumya was timing the ball very sweetly early on, and later on Mithun revived the ship along with Saifuddin with a century stand from 131 for 7 to take them past 200. Bangladesh's quick will think they fancy a chance, but it's not easy to curb these New Zealand batsman at home, as we saw against Sri Lanka. Bangladesh will also have to field very well, as the hosts showed today. Can they do it? We'll be back soon with the chase\n\nTanvir Rivnat: \"20/30 more from top order would have been nicer. Still some hope to see a fight from bd bowlers. \"\n\natik: \"very bad\" Anything in particular? \n\nDK: \"Why aren't NZ celebrating any wickets? Did someone close to the team pass away or something?\"", "shortText": "Boult to Mustafizur Rahman, OUT", "homeScore": "232/10", "awayScore": "0", "scoreValue": 0, "sequence": 104807, "athletesInvolved": [{"id": "330902", "name": "Mustafizur Rahman", "shortName": "Mustafizur", "displayName": "Mustafizur Rahman"}, {"id": "277912", "name": "Trent Boult", "shortName": "Boult", "displayName": "Trent Boult"}], "speedKPH": "", "speedMPH": "", "bowler": {"athlete": {"id": "277912", "name": "Trent Boult", "shortName": "Boult", "fullName": "Trent Alexander Boult", "displayName": "Trent Boult"}, "team": {"id": "5", "name": "New Zealand", "abbreviation": "NZ", "displayName": "New Zealand"}, "maidens": 0, "balls": 59, "wickets": 3, "overs": 9.5, "conceded": 40}, "otherBowler": {"athlete": {"id": "493773", "name": "Lockie Ferguson", "shortName": "Ferguson", "fullName": "Lachlan Hammond Ferguson", "displayName": "Lockie Ferguson"}, "team": {"id": "5", "name": "New Zealand", "abbreviation": "NZ", "displayName": "New Zealand"}, "maidens": 1, "balls": 60, "wickets": 2, "overs": 10.0, "conceded": 44}, "batsman": {"athlete": {"id": "330902", "name": "Mustafizur Rahman", "shortName": "Mustafizur", "fullName": "Mustafizur Rahman", "displayName": "Mustafizur Rahman"}, "team": {"id": "25", "name": "Bangladesh", "abbreviation": "BDESH", "displayName": "Bangladesh"}, "totalRuns": 0, "faced": 6, "fours": 0, "runs": 232, "sixes": 0}, "otherBatsman": {"athlete": {"id": "56007", "name": "Mashrafe Mortaza", "shortName": "Mortaza", "fullName": "Mashrafe Bin Mortaza", "displayName": "Mashrafe Mortaza"}, "team": {"id": "25", "name": "Bangladesh", "abbreviation": "BDESH", "displayName": "Bangladesh"}, "totalRuns": 9, "faced": 14, "fours": 1, "runs": 0, "sixes": 0}, "innings": {"id": "212876", "runRate": 4.75, "remainingBalls": 7, "byes": 0, "number": 1, "balls": 293, "noBalls": 0, "wickets": 10, "legByes": 0, "ballLimit": 300, "target": 0, "session": 1, "day": 1, "fallOfWickets": 10, "remainingOvers": 1.1, "totalRuns": 0, "wides": 0, "runs": 232}, "over": {"ball": 7, "balls": 5, "complete": false, "limit": 50.0, "maiden": 0, "noBall": 0, "wide": 0, "byes": 0, "legByes": 0, "number": 49, "runs": 3, "wickets": 1, "overs": 48.5, "actual": 48.5, "unique": 48.07}, "dismissal": {"dismissal": true, "bowled": true, "type": "bowled", "bowler": {"athlete": {"id": "277912", "name": "Trent Boult", "shortName": "Boult", "fullName": "Trent Alexander Boult", "displayName": "Trent Boult"}}, "batsman": {"athlete": {"id": "330902", "name": "Mustafizur Rahman", "shortName": "Mustafizur", "fullName": "Mustafizur Rahman", "displayName": "Mustafizur Rahman"}}, "fielder": {"athlete": {}}, "minutes": 9, "retiredText": "", "text": "Mustafizur Rahman  b Boult 0 (9m 6b 0x4 0x6) SR: 0.00"}}]}}