{"commentary": {"count": 256, "pageIndex": 11, "pageSize": 25, "pageCount": 11, "items": [{"id": "241020", "clock": "00:00", "date": "2018-09-20T15:30", "playType": {"id": "2", "description": "no run"}, "team": {"id": "25", "name": "Bangladesh", "abbreviation": "BDESH", "displayName": "Bangladesh"}, "mediaId": 0, "period": 2, "periodText": "2nd innings", "preText": "", "text": "Shahzad appeals as Mosaddek goes back to cut the legbrak and misses", "postText": "", "shortText": "Rashid Khan to Mosaddek Hossain, no run", "homeScore": "0", "awayScore": "119/8", "scoreValue": 0, "sequence": 204102, "athletesInvolved": [{"id": "793463", "name": "Rashid Khan", "shortName": "Rashid Khan", "displayName": "Rashid Khan"}, {"id": "550133", "name": "Mosaddek Hossain", "shortName": "Mosaddek", "displayName": "Mosaddek Hossain"}], "speedKPH": "", "speedMPH": "", "bowler": {"athlete": {"id": "793463", "name": "Rashid Khan", "shortName": "Rashid Khan", "fullName": "Rashid Khan Arman", "displayName": "Rashid Khan"}, "team": {"id": "40", "name": "Afghanistan", "abbreviation": "AFG", "displayName": "Afghanistan"}, "maidens": 2, "balls": 50, "wickets": 2, "overs": 8.2, "conceded": 13}, "otherBowler": {"athlete": {"id": "25913", "name": "Mohammad Nabi", "shortName": "M Nabi", "fullName": "Mohammad Nabi", "displayName": "Mohammad Nabi"}, "team": {"id": "40", "name": "Afghanistan", "abbreviation": "AFG", "displayName": "Afghanistan"}, "maidens": 1, "balls": 60, "wickets": 1, "overs": 10.0, "conceded": 24}, "batsman": {"athlete": {"id": "550133", "name": "Mosaddek Hossain", "shortName": "Mosaddek", "fullName": "Mosaddek Hossain Saikat", "displayName": "Mosaddek Hossain"}, "team": {"id": "25", "name": "Bangladesh", "abbreviation": "BDESH", "displayName": "Bangladesh"}, "totalRuns": 26, "faced": 56, "fours": 3, "runs": 119, "sixes": 0}, "otherBatsman": {"athlete": {"id": "550137", "name": "Abu Hider", "shortName": "Abu Hider", "fullName": "Abu Hider Rony", "displayName": "Abu Hider"}, "team": {"id": "25", "name": "Bangladesh", "abbreviation": "BDESH", "displayName": "Bangladesh"}, "totalRuns": 1, "faced": 11, "fours": 0, "runs": 0, "sixes": 0}, "innings": {"id": "208612", "runRate": 2.87, "remainingBalls": 52, "byes": 0, "number": 2, "balls": 248, "noBalls": 0, "requiredRunRate": "15.80", "wickets": 8, "legByes": 0, "ballLimit": 300, "target": 256, "session": 1, "day": 1, "fallOfWickets": 0, "remainingRuns": "137", "remainingOvers": 7.5, "totalRuns": 0, "wides": 0, "runs": 119}, "over": {"ball": 2, "balls": 6, "complete": false, "limit": 50.0, "maiden": 1, "noBall": 0, "wide": 0, "byes": 0, "legByes": 0, "number": 42, "runs": 0, "wickets": 1, "overs": 41.2, "actual": 41.2, "unique": 41.02}, "dismissal": {"dismissal": false, "bowled": false, "type": "", "bowler": {"athlete": {"id": "793463", "name": "Rashid Khan", "shortName": "Rashid Khan", "fullName": "Rashid Khan Arman", "displayName": "Rashid Khan"}}, "batsman": {"athlete": {"id": "550133", "name": "Mosaddek Hossain", "shortName": "Mosaddek", "fullName": "Mosaddek Hossain Saikat", "displayName": "Mosaddek Hossain"}}, "fielder": {"athlete": {}}, "minutes": 0, "retiredText": ""}}, {"id": "241030", "clock": "00:00", "date": "2018-09-20T15:30", "playType": {"id": "2", "description": "no run"}, "team": {"id": "25", "name": "Bangladesh", "abbreviation": "BDESH", "displayName": "Bangladesh"}, "mediaId": 0, "period": 2, "periodText": "2nd innings", "preText": "", "text": "he connects this time and finds backward point with the cut", "postText": "", "shortText": "Rashid Khan to Mosaddek Hossain, no run", "homeScore": "0", "awayScore": "119/8", "scoreValue": 0, "sequence": 204103, "athletesInvolved": [{"id": "793463", "name": "Rashid Khan", "shortName": "Rashid Khan", "displayName": "Rashid Khan"}, {"id": "550133", "name": "Mosaddek Hossain", "shortName": "Mosaddek", "displayName": "Mosaddek Hossain"}], "speedKPH": "", "speedMPH": "", "bowler": {"athlete": {"id": "793463", "name": "Rashid Khan", "shortName": "Rashid Khan", "fullName": "Rashid Khan Arman", "displayName": "Rashid Khan"}, "team": {"id": "40", "name": "Afghanistan", "abbreviation": "AFG", "displayName": "Afghanistan"}, "maidens": 2, "balls": 51, "wickets": 2, "overs": 8.3, "conceded": 13}, "otherBowler": {"athlete": {"id": "25913", "name": "Mohammad Nabi", "shortName": "M Nabi", "fullName": "Mohammad Nabi", "displayName": "Mohammad Nabi"}, "team": {"id": "40", "name": "Afghanistan", "abbreviation": "AFG", "displayName": "Afghanistan"}, "maidens": 1, "balls": 60, "wickets": 1, "overs": 10.0, "conceded": 24}, "batsman": {"athlete": {"id": "550133", "name": "Mosaddek Hossain", "shortName": "Mosaddek", "fullName": "Mosaddek Hossain Saikat", "displayName": "Mosaddek Hossain"}, "team": {"id": "25", "name": "Bangladesh", "abbreviation": "BDESH", "displayName": "Bangladesh"}, "totalRuns": 26, "faced": 57, "fours": 3, "runs": 119, "sixes": 0}, "otherBatsman": {"athlete": {"id": "550137", "name": "Abu Hider", "shortName": "Abu Hider", "fullName": "Abu Hider Rony", "displayName": "Abu Hider"}, "team": {"id": "25", "name": "Bangladesh", "abbreviation": "BDESH", "displayName": "Bangladesh"}, "totalRuns": 1, "faced": 11, "fours": 0, "runs": 0, "sixes": 0}, "innings": {"id": "208612", "runRate": 2.86, "remainingBalls": 51, "byes": 0, "number": 2, "balls": 249, "noBalls": 0, "requiredRunRate": "16.11", "wickets": 8, "legByes": 0, "ballLimit": 300, "target": 256, "session": 1, "day": 1, "fallOfWickets": 0, "remainingRuns": "137", "remainingOvers": 7.5, "totalRuns": 0, "wides": 0, "runs": 119}, "over": {"ball": 3, "balls": 6, "complete": false, "limit": 50.0, "maiden": 1, "noBall": 0, "wide": 0, "byes": 0, "legByes": 0, "number": 42, "runs": 0, "wickets": 1, "overs": 41.3, "actual": 41.3, "unique": 41.03}, "dismissal": {"dismissal": false, "bowled": false, "type": "", "bowler": {"athlete": {"id": "793463", "name": "Rashid Khan", "shortName": "Rashid Khan", "fullName": "Rashid Khan Arman", "displayName": "Rashid Khan"}}, "batsman": {"athlete": {"id": "550133", "name": "Mosaddek Hossain", "shortName": "Mosaddek", "fullName": "Mosaddek Hossain Saikat", "displayName": "Mosaddek Hossain"}}, "fielder": {"athlete": {}}, "minutes": 0, "retiredText": ""}}, {"id": "241040", "clock": "00:00", "date": "2018-09-20T15:30", "playType": {"id": "2", "description": "no run"}, "team": {"id": "25", "name": "Bangladesh", "abbreviation": "BDESH", "displayName": "Bangladesh"}, "mediaId": 0, "period": 2, "periodText": "2nd innings", "preText": "", "text": "he reads the googly and blocks it front of the stumps", "postText": "", "shortText": "Rashid Khan to Mosaddek Hossain, no run", "homeScore": "0", "awayScore": "119/8", "scoreValue": 0, "sequence": 204104, "athletesInvolved": [{"id": "793463", "name": "Rashid Khan", "shortName": "Rashid Khan", "displayName": "Rashid Khan"}, {"id": "550133", "name": "Mosaddek Hossain", "shortName": "Mosaddek", "displayName": "Mosaddek Hossain"}], "speedKPH": "", "speedMPH": "", "bowler": {"athlete": {"id": "793463", "name": "Rashid Khan", "shortName": "Rashid Khan", "fullName": "Rashid Khan Arman", "displayName": "Rashid Khan"}, "team": {"id": "40", "name": "Afghanistan", "abbreviation": "AFG", "displayName": "Afghanistan"}, "maidens": 2, "balls": 52, "wickets": 2, "overs": 8.4, "conceded": 13}, "otherBowler": {"athlete": {"id": "25913", "name": "Mohammad Nabi", "shortName": "M Nabi", "fullName": "Mohammad Nabi", "displayName": "Mohammad Nabi"}, "team": {"id": "40", "name": "Afghanistan", "abbreviation": "AFG", "displayName": "Afghanistan"}, "maidens": 1, "balls": 60, "wickets": 1, "overs": 10.0, "conceded": 24}, "batsman": {"athlete": {"id": "550133", "name": "Mosaddek Hossain", "shortName": "Mosaddek", "fullName": "Mosaddek Hossain Saikat", "displayName": "Mosaddek Hossain"}, "team": {"id": "25", "name": "Bangladesh", "abbreviation": "BDESH", "displayName": "Bangladesh"}, "totalRuns": 26, "faced": 58, "fours": 3, "runs": 119, "sixes": 0}, "otherBatsman": {"athlete": {"id": "550137", "name": "Abu Hider", "shortName": "Abu Hider", "fullName": "Abu Hider Rony", "displayName": "Abu Hider"}, "team": {"id": "25", "name": "Bangladesh", "abbreviation": "BDESH", "displayName": "Bangladesh"}, "totalRuns": 1, "faced": 11, "fours": 0, "runs": 0, "sixes": 0}, "innings": {"id": "208612", "runRate": 2.85, "remainingBalls": 50, "byes": 0, "number": 2, "balls": 250, "noBalls": 0, "requiredRunRate": "16.44", "wickets": 8, "legByes": 0, "ballLimit": 300, "target": 256, "session": 1, "day": 1, "fallOfWickets": 0, "remainingRuns": "137", "remainingOvers": 7.5, "totalRuns": 0, "wides": 0, "runs": 119}, "over": {"ball": 4, "balls": 6, "complete": false, "limit": 50.0, "maiden": 1, "noBall": 0, "wide": 0, "byes": 0, "legByes": 0, "number": 42, "runs": 0, "wickets": 1, "overs": 41.4, "actual": 41.4, "unique": 41.04}, "dismissal": {"dismissal": false, "bowled": false, "type": "", "bowler": {"athlete": {"id": "793463", "name": "Rashid Khan", "shortName": "Rashid Khan", "fullName": "Rashid Khan Arman", "displayName": "Rashid Khan"}}, "batsman": {"athlete": {"id": "550133", "name": "Mosaddek Hossain", "shortName": "Mosaddek", "fullName": "Mosaddek Hossain Saikat", "displayName": "Mosaddek Hossain"}}, "fielder": {"athlete": {}}, "minutes": 0, "retiredText": ""}}, {"id": "241050", "clock": "00:00", "date": "2018-09-20T15:30", "playType": {"id": "9", "description": "out"}, "team": {"id": "25", "name": "Bangladesh", "abbreviation": "BDESH", "displayName": "Bangladesh"}, "mediaId": 0, "period": 2, "periodText": "2nd innings", "preText": "", "text": "what can't Rashid do today? A direct hit this time and there's the aeroplane celebration. Mosaddek made plenty of room to drive inside out but didn't middle it and the ball deflected off Rashid towards mid off. It made Abu Hider go for the run but he was sent back and by then Rashid had sprinted towards mid-off, picked the ball and turned around in no time and even hit the stumps to send the bails flying", "postText": "", "shortText": "Rashid Khan to Mosaddek Hossain, OUT", "homeScore": "0", "awayScore": "119/9", "scoreValue": 0, "sequence": 204105, "athletesInvolved": [{"id": "793463", "name": "Rashid Khan", "shortName": "Rashid Khan", "displayName": "Rashid Khan"}, {"id": "550133", "name": "Mosaddek Hossain", "shortName": "Mosaddek", "displayName": "Mosaddek Hossain"}], "speedKPH": "", "speedMPH": "", "bowler": {"athlete": {"id": "793463", "name": "Rashid Khan", "shortName": "Rashid Khan", "fullName": "Rashid Khan Arman", "displayName": "Rashid Khan"}, "team": {"id": "40", "name": "Afghanistan", "abbreviation": "AFG", "displayName": "Afghanistan"}, "maidens": 2, "balls": 53, "wickets": 2, "overs": 8.5, "conceded": 13}, "otherBowler": {"athlete": {"id": "25913", "name": "Mohammad Nabi", "shortName": "M Nabi", "fullName": "Mohammad Nabi", "displayName": "Mohammad Nabi"}, "team": {"id": "40", "name": "Afghanistan", "abbreviation": "AFG", "displayName": "Afghanistan"}, "maidens": 1, "balls": 60, "wickets": 1, "overs": 10.0, "conceded": 24}, "batsman": {"athlete": {"id": "550133", "name": "Mosaddek Hossain", "shortName": "Mosaddek", "fullName": "Mosaddek Hossain Saikat", "displayName": "Mosaddek Hossain"}, "team": {"id": "25", "name": "Bangladesh", "abbreviation": "BDESH", "displayName": "Bangladesh"}, "totalRuns": 26, "faced": 59, "fours": 3, "runs": 119, "sixes": 0}, "otherBatsman": {"athlete": {"id": "550137", "name": "Abu Hider", "shortName": "Abu Hider", "fullName": "Abu Hider Rony", "displayName": "Abu Hider"}, "team": {"id": "25", "name": "Bangladesh", "abbreviation": "BDESH", "displayName": "Bangladesh"}, "totalRuns": 1, "faced": 11, "fours": 0, "runs": 0, "sixes": 0}, "innings": {"id": "208612", "runRate": 2.84, "remainingBalls": 49, "byes": 0, "number": 2, "balls": 251, "noBalls": 0, "requiredRunRate": "16.77", "wickets": 9, "legByes": 0, "ballLimit": 300, "target": 256, "session": 1, "day": 1, "fallOfWickets": 9, "remainingRuns": "137", "remainingOvers": 7.5, "totalRuns": 0, "wides": 0, "runs": 119}, "over": {"ball": 5, "balls": 6, "complete": false, "limit": 50.0, "maiden": 1, "noBall": 0, "wide": 0, "byes": 0, "legByes": 0, "number": 42, "runs": 0, "wickets": 1, "overs": 41.5, "actual": 41.5, "unique": 41.05}, "dismissal": {"dismissal": true, "bowled": false, "type": "run out", "bowler": {"athlete": {"id": "793463", "name": "Rashid Khan", "shortName": "Rashid Khan", "fullName": "Rashid Khan Arman", "displayName": "Rashid Khan"}}, "batsman": {"athlete": {"id": "550133", "name": "Mosaddek Hossain", "shortName": "Mosaddek", "fullName": "Mosaddek Hossain Saikat", "displayName": "Mosaddek Hossain"}}, "fielder": {"athlete": {}}, "minutes": 0, "retiredText": "", "text": "Abu Hider run out (Rashid Khan) 1 (11b 0x4 0x6) SR: 9.09"}}, {"id": "241060", "clock": "00:00", "date": "2018-09-20T15:30", "playType": {"id": "2", "description": "no run"}, "team": {"id": "25", "name": "Bangladesh", "abbreviation": "BDESH", "displayName": "Bangladesh"}, "mediaId": 0, "period": 2, "periodText": "2nd innings", "preText": "", "text": "pretty full on off, he digs it out on the leg side", "postText": "", "shortText": "Rashid Khan to Mosaddek Hossain, no run", "homeScore": "0", "awayScore": "119/9", "scoreValue": 0, "sequence": 204106, "athletesInvolved": [{"id": "793463", "name": "Rashid Khan", "shortName": "Rashid Khan", "displayName": "Rashid Khan"}, {"id": "550133", "name": "Mosaddek Hossain", "shortName": "Mosaddek", "displayName": "Mosaddek Hossain"}], "speedKPH": "", "speedMPH": "", "bowler": {"athlete": {"id": "793463", "name": "Rashid Khan", "shortName": "Rashid Khan", "fullName": "Rashid Khan Arman", "displayName": "Rashid Khan"}, "team": {"id": "40", "name": "Afghanistan", "abbreviation": "AFG", "displayName": "Afghanistan"}, "maidens": 3, "balls": 54, "wickets": 2, "overs": 9.0, "conceded": 13}, "otherBowler": {"athlete": {"id": "25913", "name": "Mohammad Nabi", "shortName": "M Nabi", "fullName": "Mohammad Nabi", "displayName": "Mohammad Nabi"}, "team": {"id": "40", "name": "Afghanistan", "abbreviation": "AFG", "displayName": "Afghanistan"}, "maidens": 1, "balls": 60, "wickets": 1, "overs": 10.0, "conceded": 24}, "batsman": {"athlete": {"id": "550133", "name": "Mosaddek Hossain", "shortName": "Mosaddek", "fullName": "Mosaddek Hossain Saikat", "displayName": "Mosaddek Hossain"}, "team": {"id": "25", "name": "Bangladesh", "abbreviation": "BDESH", "displayName": "Bangladesh"}, "totalRuns": 26, "faced": 60, "fours": 3, "runs": 119, "sixes": 0}, "otherBatsman": {"athlete": {"id": "300619", "name": "Rubel Hossain", "shortName": "Rubel", "fullName": "Mohammad Rubel Hossain", "displayName": "Rubel Hossain"}, "team": {"id": "25", "name": "Bangladesh", "abbreviation": "BDESH", "displayName": "Bangladesh"}, "totalRuns": 0, "faced": 0, "fours": 0, "runs": 0, "sixes": 0}, "innings": {"id": "208612", "runRate": 2.83, "remainingBalls": 48, "byes": 0, "number": 2, "balls": 252, "noBalls": 0, "requiredRunRate": "17.12", "wickets": 9, "legByes": 0, "ballLimit": 300, "target": 256, "session": 1, "day": 1, "fallOfWickets": 0, "remainingRuns": "137", "remainingOvers": 7.5, "totalRuns": 0, "wides": 0, "runs": 119}, "over": {"ball": 6, "balls": 6, "complete": true, "limit": 50.0, "maiden": 1, "noBall": 0, "wide": 0, "byes": 0, "legByes": 0, "number": 42, "runs": 0, "wickets": 1, "overs": 41.6, "actual": 41.6, "unique": 41.06}, "dismissal": {"dismissal": false, "bowled": false, "type": "", "bowler": {"athlete": {"id": "793463", "name": "Rashid Khan", "shortName": "Rashid Khan", "fullName": "Rashid Khan Arman", "displayName": "Rashid Khan"}}, "batsman": {"athlete": {"id": "550133", "name": "Mosaddek Hossain", "shortName": "Mosaddek", "fullName": "Mosaddek Hossain Saikat", "displayName": "Mosaddek Hossain"}}, "fielder": {"athlete": {}}, "minutes": 0, "retiredText": ""}}, {"id": "242010", "clock": "00:00", "date": "2018-09-20T15:30", "playType": {"id": "9", "description": "out"}, "team": {"id": "25", "name": "Bangladesh", "abbreviation": "BDESH", "displayName": "Bangladesh"}, "mediaId": 0, "period": 2, "periodText": "2nd innings", "preText": "Mujeeb comes back", "text": "and he strikes first ball with the googly, Bangladesh are wrapped up for 119. A loopy googly coming in, Rubel hardly moves his feet and is trapped plumb on the front pad in front of the stumps", "postText": "Presentation time:\n\n<b>Rashid Khan</b>: I'm really happy with my performance and the best thing was I performed with both bat and ball. My main focus was to bat till the end and I think our preparation was good to play till the end. Our fielding was amazing and the conditions were really hard and tough. We've been working hard on our fielding, we focus a lot on that. I've been coming on to bowl late because I want to build pressure by bowling more dot balls and the batsmen give their wickets. You can't rely on or two kind of players on these kind of pitches. I want to dedicate this award to our ex board chairman Atif Mashal who has done a wonderful job for us in the last few years.\n\n<b>Asghar</b>: It was a very important game for us and I'll give a lot of credit to Naib and Rashid for their effort. Our top and middle order didn't play very well but thanks to god Naib and Rashid did very well. Yes, it will be tough for other teams to chase 230 kind of totals against us because of our bowling and fielding. I do have a groin issue but I'll let the physio decide tomorrow on my status for the match (against Pakistan)\n\n<b>10.55pm</b> Chasing these totals of over 200 (barring Hong Kong's attempt against India) is proving to be real tough in this tournament. It could be the heat, it could be the slow pitches that don't have much for the batsmen or bowlers, or it could just be a rewind to the '90s when 250 used to be match-winning. That's all from us tonight, Akshay and I, Vishal, need some sleep too. You can join us tomorrow for the next stage, here are the matches....Until then, it's goodbye and good luck!\n\nSHRAVAN: \"Afghanistan play India in super four not Pakistan??\" India v Bangladesh and Afghanistan v Pakistan \n\nSurbhi Oberoi: \"These are some big victories for AFG, happy to see them grow. Rashid Khan is a superstar in making(if not already). Well played!\"\n\nVirag: \"As good as it is to see Rashid Khan play his weight in Gold , it is great to see other players like Naib and Shahidi come to the party. Cricket is a team game after all and you need team efforts to take you far.\"\n\nRohit: \"What a way to enter his 20s! - Happy Birthday Rashid Khan!!\"\n\n\n\n<b>10.36pm</b> What a comprehensive performance from Afghanistan, they are unbeaten in the Asia Cup after facing Sri Lanka and Bangladesh. At one point it looked like Shakib was taking the match away from them with his stifling lines and four wickets in the first innings. But Bangladesh put the foot off the pedal when Afghanistan were seven down, only to see birthday boy Rashid Khan snatch the game from them. A scintillating half-century in the company of Gulbadin Naib, two wickets after the opening bowlers did the damage and then a run-out too. He aptly leads his team off the field after this massive win.\n\n<b>Mashrafe Mortaza</b>: Afghanistan outplayed us from the 40th over. They played really well and we didn't bowl well in the last 10 overs and batting wasn't up to the mark. We have a big match tomorrow and boys need to be fresh. It's a bit difficult to recover from back to back matches in this heat. Mushfiqur and Mustafiz were rested today because of the niggles.\n\nJigar Aiya: \"Afghanistan is no more underdog. Now very much in race for trophy\"\n\nHarsha: \"Asia Cup is turning into a huge success with Afganistan and Hong Kong being 2 new forces to reckon with.\"", "shortText": "Mujeeb Ur Rahman to Rubel Hossain, OUT", "homeScore": "0", "awayScore": "119/10", "scoreValue": 0, "sequence": 204201, "athletesInvolved": [{"id": "974109", "name": "Mujeeb Ur Rahman", "shortName": "Mujeeb", "displayName": "Mujeeb Ur Rahman"}, {"id": "300619", "name": "Rubel Hossain", "shortName": "Rubel", "displayName": "Rubel Hossain"}], "speedKPH": "", "speedMPH": "", "bowler": {"athlete": {"id": "974109", "name": "Mujeeb Ur Rahman", "shortName": "Mujeeb", "fullName": "Mujeeb Ur Rahman", "displayName": "Mujeeb Ur Rahman"}, "team": {"id": "40", "name": "Afghanistan", "abbreviation": "AFG", "displayName": "Afghanistan"}, "maidens": 1, "balls": 49, "wickets": 2, "overs": 8.1, "conceded": 22}, "otherBowler": {"athlete": {"id": "793463", "name": "Rashid Khan", "shortName": "Rashid Khan", "fullName": "Rashid Khan Arman", "displayName": "Rashid Khan"}, "team": {"id": "40", "name": "Afghanistan", "abbreviation": "AFG", "displayName": "Afghanistan"}, "maidens": 3, "balls": 54, "wickets": 2, "overs": 9.0, "conceded": 13}, "batsman": {"athlete": {"id": "300619", "name": "Rubel Hossain", "shortName": "Rubel", "fullName": "Mohammad Rubel Hossain", "displayName": "Rubel Hossain"}, "team": {"id": "25", "name": "Bangladesh", "abbreviation": "BDESH", "displayName": "Bangladesh"}, "totalRuns": 0, "faced": 1, "fours": 0, "runs": 119, "sixes": 0}, "otherBatsman": {"athlete": {"id": "550133", "name": "Mosaddek Hossain", "shortName": "Mosaddek", "fullName": "Mosaddek Hossain Saikat", "displayName": "Mosaddek Hossain"}, "team": {"id": "25", "name": "Bangladesh", "abbreviation": "BDESH", "displayName": "Bangladesh"}, "totalRuns": 26, "faced": 60, "fours": 3, "runs": 0, "sixes": 0}, "innings": {"id": "208612", "runRate": 2.82, "remainingBalls": 47, "byes": 0, "number": 2, "balls": 253, "noBalls": 0, "requiredRunRate": "17.48", "wickets": 10, "legByes": 0, "ballLimit": 300, "target": 256, "session": 1, "day": 1, "fallOfWickets": 10, "remainingRuns": "137", "remainingOvers": 7.5, "totalRuns": 0, "wides": 0, "runs": 119}, "over": {"ball": 1, "balls": 1, "complete": false, "limit": 50.0, "maiden": 0, "noBall": 0, "wide": 0, "byes": 0, "legByes": 0, "number": 43, "runs": 0, "wickets": 1, "overs": 42.1, "actual": 42.1, "unique": 42.01}, "dismissal": {"dismissal": true, "bowled": true, "type": "leg before wicket", "bowler": {"athlete": {"id": "974109", "name": "Mujeeb Ur Rahman", "shortName": "Mujeeb", "fullName": "Mujeeb Ur Rahman", "displayName": "Mujeeb Ur Rahman"}}, "batsman": {"athlete": {"id": "300619", "name": "Rubel Hossain", "shortName": "Rubel", "fullName": "Mohammad Rubel Hossain", "displayName": "Rubel Hossain"}}, "fielder": {"athlete": {}}, "minutes": 0, "retiredText": "", "text": "Rubel Hossain lbw b Mujeeb Ur Rahman 0 (1b 0x4 0x6) SR: 0.00"}}]}}