{"commentary": {"count": 309, "pageIndex": 13, "pageSize": 25, "pageCount": 13, "items": [{"id": "148050", "clock": "00:00", "date": "2018-01-23T12:00", "playType": {"id": "3", "description": "four"}, "team": {"id": "25", "name": "Bangladesh", "abbreviation": "BDESH", "displayName": "Bangladesh"}, "mediaId": 0, "period": 1, "periodText": "1st innings", "preText": "", "text": "<b>inside edge</b> as he doesn't pick this slower ball. It beats Taylor to his right. It's a full toss that he's looking to heave", "postText": "That's his highest score in international cricket", "shortText": "Chatara to Mustafizur Rahman, FOUR runs", "homeScore": "201/9", "awayScore": "0", "scoreValue": 4, "sequence": 104805, "athletesInvolved": [{"id": "425639", "name": "Tendai Chatara", "shortName": "Chatara", "displayName": "Tendai Chatara"}, {"id": "330902", "name": "Mustafizur Rahman", "shortName": "Mustafizur", "displayName": "Mustafizur Rahman"}], "speedKPH": "", "speedMPH": "", "bowler": {"athlete": {"id": "425639", "name": "Tendai Chatara", "shortName": "Chatara", "fullName": "Tendai Larry Chatara", "displayName": "Tendai Chatara"}, "team": {"id": "9", "name": "Zimbabwe", "abbreviation": "ZIM", "displayName": "Zimbabwe"}, "maidens": 0, "balls": 40, "wickets": 1, "overs": 6.4, "conceded": 31}, "otherBowler": {"athlete": {"id": "332996", "name": "Kyle Jarvis", "shortName": "Jarvis", "fullName": "Kyle Malcolm Jarvis", "displayName": "Kyle Jarvis"}, "team": {"id": "9", "name": "Zimbabwe", "abbreviation": "ZIM", "displayName": "Zimbabwe"}, "maidens": 0, "balls": 48, "wickets": 3, "overs": 8.0, "conceded": 29}, "batsman": {"athlete": {"id": "330902", "name": "Mustafizur Rahman", "shortName": "Mustafizur", "fullName": "Mustafizur Rahman", "displayName": "Mustafizur Rahman"}, "team": {"id": "25", "name": "Bangladesh", "abbreviation": "BDESH", "displayName": "Bangladesh"}, "totalRuns": 11, "faced": 18, "fours": 1, "runs": 201, "sixes": 0}, "otherBatsman": {"athlete": {"id": "300619", "name": "Rubel Hossain", "shortName": "Rubel", "fullName": "Mohammad Rubel Hossain", "displayName": "Rubel Hossain"}, "team": {"id": "25", "name": "Bangladesh", "abbreviation": "BDESH", "displayName": "Bangladesh"}, "totalRuns": 0, "faced": 0, "fours": 0, "runs": 0, "sixes": 0}, "innings": {"id": "202190", "runRate": 4.13, "remainingBalls": 8, "byes": 0, "number": 1, "balls": 292, "noBalls": 0, "wickets": 9, "legByes": 0, "ballLimit": 300, "target": 0, "session": 1, "day": 1, "fallOfWickets": 0, "remainingOvers": 0.0, "totalRuns": 4, "wides": 0, "runs": 201}, "over": {"ball": 5, "balls": 6, "complete": false, "limit": 50.0, "maiden": 0, "noBall": 0, "wide": 0, "byes": 0, "legByes": 0, "number": 49, "runs": 7, "wickets": 1, "overs": 48.4, "actual": 48.4, "unique": 48.05}, "dismissal": {"dismissal": false, "bowled": false, "type": "", "bowler": {"athlete": {"id": "425639", "name": "Tendai Chatara", "shortName": "Chatara", "fullName": "Tendai Larry Chatara", "displayName": "Tendai Chatara"}}, "batsman": {"athlete": {"id": "330902", "name": "Mustafizur Rahman", "shortName": "Mustafizur", "fullName": "Mustafizur Rahman", "displayName": "Mustafizur Rahman"}}, "fielder": {"athlete": {}}, "minutes": 0, "retiredText": ""}}, {"id": "148060", "clock": "00:00", "date": "2018-01-23T12:00", "playType": {"id": "1", "description": "run"}, "team": {"id": "25", "name": "Bangladesh", "abbreviation": "BDESH", "displayName": "Bangladesh"}, "mediaId": 0, "period": 1, "periodText": "1st innings", "preText": "", "text": "short ball in at off stump, steps out and ends up slicing this over point after getting cramped", "postText": "", "shortText": "Chatara to Mustafizur Rahman, 2 runs", "homeScore": "203/9", "awayScore": "0", "scoreValue": 2, "sequence": 104806, "athletesInvolved": [{"id": "425639", "name": "Tendai Chatara", "shortName": "Chatara", "displayName": "Tendai Chatara"}, {"id": "330902", "name": "Mustafizur Rahman", "shortName": "Mustafizur", "displayName": "Mustafizur Rahman"}], "speedKPH": "", "speedMPH": "", "bowler": {"athlete": {"id": "425639", "name": "Tendai Chatara", "shortName": "Chatara", "fullName": "Tendai Larry Chatara", "displayName": "Tendai Chatara"}, "team": {"id": "9", "name": "Zimbabwe", "abbreviation": "ZIM", "displayName": "Zimbabwe"}, "maidens": 0, "balls": 41, "wickets": 1, "overs": 6.5, "conceded": 33}, "otherBowler": {"athlete": {"id": "332996", "name": "Kyle Jarvis", "shortName": "Jarvis", "fullName": "Kyle Malcolm Jarvis", "displayName": "Kyle Jarvis"}, "team": {"id": "9", "name": "Zimbabwe", "abbreviation": "ZIM", "displayName": "Zimbabwe"}, "maidens": 0, "balls": 48, "wickets": 3, "overs": 8.0, "conceded": 29}, "batsman": {"athlete": {"id": "330902", "name": "Mustafizur Rahman", "shortName": "Mustafizur", "fullName": "Mustafizur Rahman", "displayName": "Mustafizur Rahman"}, "team": {"id": "25", "name": "Bangladesh", "abbreviation": "BDESH", "displayName": "Bangladesh"}, "totalRuns": 13, "faced": 19, "fours": 1, "runs": 203, "sixes": 0}, "otherBatsman": {"athlete": {"id": "300619", "name": "Rubel Hossain", "shortName": "Rubel", "fullName": "Mohammad Rubel Hossain", "displayName": "Rubel Hossain"}, "team": {"id": "25", "name": "Bangladesh", "abbreviation": "BDESH", "displayName": "Bangladesh"}, "totalRuns": 0, "faced": 0, "fours": 0, "runs": 0, "sixes": 0}, "innings": {"id": "202190", "runRate": 4.15, "remainingBalls": 7, "byes": 0, "number": 1, "balls": 293, "noBalls": 0, "wickets": 9, "legByes": 0, "ballLimit": 300, "target": 0, "session": 1, "day": 1, "fallOfWickets": 0, "remainingOvers": 0.0, "totalRuns": 2, "wides": 0, "runs": 203}, "over": {"ball": 6, "balls": 6, "complete": false, "limit": 50.0, "maiden": 0, "noBall": 0, "wide": 0, "byes": 0, "legByes": 0, "number": 49, "runs": 7, "wickets": 1, "overs": 48.5, "actual": 48.5, "unique": 48.06}, "dismissal": {"dismissal": false, "bowled": false, "type": "", "bowler": {"athlete": {"id": "425639", "name": "Tendai Chatara", "shortName": "Chatara", "fullName": "Tendai Larry Chatara", "displayName": "Tendai Chatara"}}, "batsman": {"athlete": {"id": "330902", "name": "Mustafizur Rahman", "shortName": "Mustafizur", "fullName": "Mustafizur Rahman", "displayName": "Mustafizur Rahman"}}, "fielder": {"athlete": {}}, "minutes": 0, "retiredText": ""}}, {"id": "148070", "clock": "00:00", "date": "2018-01-23T12:00", "playType": {"id": "2", "description": "no run"}, "team": {"id": "25", "name": "Bangladesh", "abbreviation": "BDESH", "displayName": "Bangladesh"}, "mediaId": 0, "period": 1, "periodText": "1st innings", "preText": "", "text": "short and wide outside off, cut straight to point", "postText": "", "shortText": "Chatara to Mustafizur Rahman, no run", "homeScore": "203/9", "awayScore": "0", "scoreValue": 0, "sequence": 104807, "athletesInvolved": [{"id": "425639", "name": "Tendai Chatara", "shortName": "Chatara", "displayName": "Tendai Chatara"}, {"id": "330902", "name": "Mustafizur Rahman", "shortName": "Mustafizur", "displayName": "Mustafizur Rahman"}], "speedKPH": "", "speedMPH": "", "bowler": {"athlete": {"id": "425639", "name": "Tendai Chatara", "shortName": "Chatara", "fullName": "Tendai Larry Chatara", "displayName": "Tendai Chatara"}, "team": {"id": "9", "name": "Zimbabwe", "abbreviation": "ZIM", "displayName": "Zimbabwe"}, "maidens": 0, "balls": 42, "wickets": 1, "overs": 7.0, "conceded": 33}, "otherBowler": {"athlete": {"id": "332996", "name": "Kyle Jarvis", "shortName": "Jarvis", "fullName": "Kyle Malcolm Jarvis", "displayName": "Kyle Jarvis"}, "team": {"id": "9", "name": "Zimbabwe", "abbreviation": "ZIM", "displayName": "Zimbabwe"}, "maidens": 0, "balls": 48, "wickets": 3, "overs": 8.0, "conceded": 29}, "batsman": {"athlete": {"id": "330902", "name": "Mustafizur Rahman", "shortName": "Mustafizur", "fullName": "Mustafizur Rahman", "displayName": "Mustafizur Rahman"}, "team": {"id": "25", "name": "Bangladesh", "abbreviation": "BDESH", "displayName": "Bangladesh"}, "totalRuns": 13, "faced": 20, "fours": 1, "runs": 203, "sixes": 0}, "otherBatsman": {"athlete": {"id": "300619", "name": "Rubel Hossain", "shortName": "Rubel", "fullName": "Mohammad Rubel Hossain", "displayName": "Rubel Hossain"}, "team": {"id": "25", "name": "Bangladesh", "abbreviation": "BDESH", "displayName": "Bangladesh"}, "totalRuns": 0, "faced": 0, "fours": 0, "runs": 0, "sixes": 0}, "innings": {"id": "202190", "runRate": 4.14, "remainingBalls": 6, "byes": 0, "number": 1, "balls": 294, "noBalls": 0, "wickets": 9, "legByes": 0, "ballLimit": 300, "target": 0, "session": 1, "day": 1, "fallOfWickets": 0, "remainingOvers": 0.0, "totalRuns": 0, "wides": 0, "runs": 203}, "over": {"ball": 7, "balls": 6, "complete": true, "limit": 50.0, "maiden": 0, "noBall": 0, "wide": 0, "byes": 0, "legByes": 0, "number": 49, "runs": 7, "wickets": 1, "overs": 48.6, "actual": 48.6, "unique": 48.07}, "dismissal": {"dismissal": false, "bowled": false, "type": "", "bowler": {"athlete": {"id": "425639", "name": "Tendai Chatara", "shortName": "Chatara", "fullName": "Tendai Larry Chatara", "displayName": "Tendai Chatara"}}, "batsman": {"athlete": {"id": "330902", "name": "Mustafizur Rahman", "shortName": "Mustafizur", "fullName": "Mustafizur Rahman", "displayName": "Mustafizur Rahman"}}, "fielder": {"athlete": {}}, "minutes": 0, "retiredText": ""}}, {"id": "149010", "clock": "00:00", "date": "2018-01-23T12:00", "playType": {"id": "2", "description": "no run"}, "team": {"id": "25", "name": "Bangladesh", "abbreviation": "BDESH", "displayName": "Bangladesh"}, "mediaId": 0, "period": 1, "periodText": "1st innings", "preText": "", "text": "offcutter skids under the slog, and rolls out to the keeper from wide outside off", "postText": "", "shortText": "Jarvis to Rubel Hossain, no run", "homeScore": "203/9", "awayScore": "0", "scoreValue": 0, "sequence": 104901, "athletesInvolved": [{"id": "332996", "name": "Kyle Jarvis", "shortName": "Jarvis", "displayName": "Kyle Jarvis"}, {"id": "300619", "name": "Rubel Hossain", "shortName": "Rubel", "displayName": "Rubel Hossain"}], "speedKPH": "", "speedMPH": "", "bowler": {"athlete": {"id": "332996", "name": "Kyle Jarvis", "shortName": "Jarvis", "fullName": "Kyle Malcolm Jarvis", "displayName": "Kyle Jarvis"}, "team": {"id": "9", "name": "Zimbabwe", "abbreviation": "ZIM", "displayName": "Zimbabwe"}, "maidens": 0, "balls": 49, "wickets": 3, "overs": 8.1, "conceded": 29}, "otherBowler": {"athlete": {"id": "425639", "name": "Tendai Chatara", "shortName": "Chatara", "fullName": "Tendai Larry Chatara", "displayName": "Tendai Chatara"}, "team": {"id": "9", "name": "Zimbabwe", "abbreviation": "ZIM", "displayName": "Zimbabwe"}, "maidens": 0, "balls": 42, "wickets": 1, "overs": 7.0, "conceded": 33}, "batsman": {"athlete": {"id": "300619", "name": "Rubel Hossain", "shortName": "Rubel", "fullName": "Mohammad Rubel Hossain", "displayName": "Rubel Hossain"}, "team": {"id": "25", "name": "Bangladesh", "abbreviation": "BDESH", "displayName": "Bangladesh"}, "totalRuns": 0, "faced": 1, "fours": 0, "runs": 203, "sixes": 0}, "otherBatsman": {"athlete": {"id": "330902", "name": "Mustafizur Rahman", "shortName": "Mustafizur", "fullName": "Mustafizur Rahman", "displayName": "Mustafizur Rahman"}, "team": {"id": "25", "name": "Bangladesh", "abbreviation": "BDESH", "displayName": "Bangladesh"}, "totalRuns": 13, "faced": 20, "fours": 1, "runs": 0, "sixes": 0}, "innings": {"id": "202190", "runRate": 4.12, "remainingBalls": 5, "byes": 0, "number": 1, "balls": 295, "noBalls": 0, "wickets": 9, "legByes": 0, "ballLimit": 300, "target": 0, "session": 1, "day": 1, "fallOfWickets": 0, "remainingOvers": 0.0, "totalRuns": 0, "wides": 0, "runs": 203}, "over": {"ball": 1, "balls": 6, "complete": false, "limit": 50.0, "maiden": 0, "noBall": 0, "wide": 0, "byes": 0, "legByes": 0, "number": 50, "runs": 13, "wickets": 0, "overs": 49.1, "actual": 49.1, "unique": 49.01}, "dismissal": {"dismissal": false, "bowled": false, "type": "", "bowler": {"athlete": {"id": "332996", "name": "Kyle Jarvis", "shortName": "Jarvis", "fullName": "Kyle Malcolm Jarvis", "displayName": "Kyle Jarvis"}}, "batsman": {"athlete": {"id": "300619", "name": "Rubel Hossain", "shortName": "Rubel", "fullName": "Mohammad Rubel Hossain", "displayName": "Rubel Hossain"}}, "fielder": {"athlete": {}}, "minutes": 0, "retiredText": ""}}, {"id": "149020", "clock": "00:00", "date": "2018-01-23T12:00", "playType": {"id": "4", "description": "six"}, "team": {"id": "25", "name": "Bangladesh", "abbreviation": "BDESH", "displayName": "Bangladesh"}, "mediaId": 0, "period": 1, "periodText": "1st innings", "preText": "", "text": "<b>shot!</b> He has drilled this straight over the bowler. His front foot is stretched out and facing midwicket, in true No. 11 fashion, but the bat has come from under this overpitched ball on middle and he clears the boundary with a flat hit", "postText": "", "shortText": "Jarvis to Rubel Hossain, SIX runs", "homeScore": "209/9", "awayScore": "0", "scoreValue": 6, "sequence": 104902, "athletesInvolved": [{"id": "332996", "name": "Kyle Jarvis", "shortName": "Jarvis", "displayName": "Kyle Jarvis"}, {"id": "300619", "name": "Rubel Hossain", "shortName": "Rubel", "displayName": "Rubel Hossain"}], "speedKPH": "", "speedMPH": "", "bowler": {"athlete": {"id": "332996", "name": "Kyle Jarvis", "shortName": "Jarvis", "fullName": "Kyle Malcolm Jarvis", "displayName": "Kyle Jarvis"}, "team": {"id": "9", "name": "Zimbabwe", "abbreviation": "ZIM", "displayName": "Zimbabwe"}, "maidens": 0, "balls": 50, "wickets": 3, "overs": 8.2, "conceded": 35}, "otherBowler": {"athlete": {"id": "425639", "name": "Tendai Chatara", "shortName": "Chatara", "fullName": "Tendai Larry Chatara", "displayName": "Tendai Chatara"}, "team": {"id": "9", "name": "Zimbabwe", "abbreviation": "ZIM", "displayName": "Zimbabwe"}, "maidens": 0, "balls": 42, "wickets": 1, "overs": 7.0, "conceded": 33}, "batsman": {"athlete": {"id": "300619", "name": "Rubel Hossain", "shortName": "Rubel", "fullName": "Mohammad Rubel Hossain", "displayName": "Rubel Hossain"}, "team": {"id": "25", "name": "Bangladesh", "abbreviation": "BDESH", "displayName": "Bangladesh"}, "totalRuns": 6, "faced": 2, "fours": 0, "runs": 209, "sixes": 1}, "otherBatsman": {"athlete": {"id": "330902", "name": "Mustafizur Rahman", "shortName": "Mustafizur", "fullName": "Mustafizur Rahman", "displayName": "Mustafizur Rahman"}, "team": {"id": "25", "name": "Bangladesh", "abbreviation": "BDESH", "displayName": "Bangladesh"}, "totalRuns": 13, "faced": 20, "fours": 1, "runs": 0, "sixes": 0}, "innings": {"id": "202190", "runRate": 4.23, "remainingBalls": 4, "byes": 0, "number": 1, "balls": 296, "noBalls": 0, "wickets": 9, "legByes": 0, "ballLimit": 300, "target": 0, "session": 1, "day": 1, "fallOfWickets": 0, "remainingOvers": 0.0, "totalRuns": 6, "wides": 0, "runs": 209}, "over": {"ball": 2, "balls": 6, "complete": false, "limit": 50.0, "maiden": 0, "noBall": 0, "wide": 0, "byes": 0, "legByes": 0, "number": 50, "runs": 13, "wickets": 0, "overs": 49.2, "actual": 49.2, "unique": 49.02}, "dismissal": {"dismissal": false, "bowled": false, "type": "", "bowler": {"athlete": {"id": "332996", "name": "Kyle Jarvis", "shortName": "Jarvis", "fullName": "Kyle Malcolm Jarvis", "displayName": "Kyle Jarvis"}}, "batsman": {"athlete": {"id": "300619", "name": "Rubel Hossain", "shortName": "Rubel", "fullName": "Mohammad Rubel Hossain", "displayName": "Rubel Hossain"}}, "fielder": {"athlete": {}}, "minutes": 0, "retiredText": ""}}, {"id": "149030", "clock": "00:00", "date": "2018-01-23T12:00", "playType": {"id": "1", "description": "run"}, "team": {"id": "25", "name": "Bangladesh", "abbreviation": "BDESH", "displayName": "Bangladesh"}, "mediaId": 0, "period": 1, "periodText": "1st innings", "preText": "", "text": "short of a length outside off, inside edge and into the leg side as he looks to pull", "postText": "", "shortText": "Jarvis to Rubel Hossain, 1 run", "homeScore": "210/9", "awayScore": "0", "scoreValue": 1, "sequence": 104903, "athletesInvolved": [{"id": "332996", "name": "Kyle Jarvis", "shortName": "Jarvis", "displayName": "Kyle Jarvis"}, {"id": "300619", "name": "Rubel Hossain", "shortName": "Rubel", "displayName": "Rubel Hossain"}], "speedKPH": "", "speedMPH": "", "bowler": {"athlete": {"id": "332996", "name": "Kyle Jarvis", "shortName": "Jarvis", "fullName": "Kyle Malcolm Jarvis", "displayName": "Kyle Jarvis"}, "team": {"id": "9", "name": "Zimbabwe", "abbreviation": "ZIM", "displayName": "Zimbabwe"}, "maidens": 0, "balls": 51, "wickets": 3, "overs": 8.3, "conceded": 36}, "otherBowler": {"athlete": {"id": "425639", "name": "Tendai Chatara", "shortName": "Chatara", "fullName": "Tendai Larry Chatara", "displayName": "Tendai Chatara"}, "team": {"id": "9", "name": "Zimbabwe", "abbreviation": "ZIM", "displayName": "Zimbabwe"}, "maidens": 0, "balls": 42, "wickets": 1, "overs": 7.0, "conceded": 33}, "batsman": {"athlete": {"id": "300619", "name": "Rubel Hossain", "shortName": "Rubel", "fullName": "Mohammad Rubel Hossain", "displayName": "Rubel Hossain"}, "team": {"id": "25", "name": "Bangladesh", "abbreviation": "BDESH", "displayName": "Bangladesh"}, "totalRuns": 7, "faced": 3, "fours": 0, "runs": 210, "sixes": 1}, "otherBatsman": {"athlete": {"id": "330902", "name": "Mustafizur Rahman", "shortName": "Mustafizur", "fullName": "Mustafizur Rahman", "displayName": "Mustafizur Rahman"}, "team": {"id": "25", "name": "Bangladesh", "abbreviation": "BDESH", "displayName": "Bangladesh"}, "totalRuns": 13, "faced": 20, "fours": 1, "runs": 0, "sixes": 0}, "innings": {"id": "202190", "runRate": 4.24, "remainingBalls": 3, "byes": 0, "number": 1, "balls": 297, "noBalls": 0, "wickets": 9, "legByes": 0, "ballLimit": 300, "target": 0, "session": 1, "day": 1, "fallOfWickets": 0, "remainingOvers": 0.0, "totalRuns": 1, "wides": 0, "runs": 210}, "over": {"ball": 3, "balls": 6, "complete": false, "limit": 50.0, "maiden": 0, "noBall": 0, "wide": 0, "byes": 0, "legByes": 0, "number": 50, "runs": 13, "wickets": 0, "overs": 49.3, "actual": 49.3, "unique": 49.03}, "dismissal": {"dismissal": false, "bowled": false, "type": "", "bowler": {"athlete": {"id": "332996", "name": "Kyle Jarvis", "shortName": "Jarvis", "fullName": "Kyle Malcolm Jarvis", "displayName": "Kyle Jarvis"}}, "batsman": {"athlete": {"id": "300619", "name": "Rubel Hossain", "shortName": "Rubel", "fullName": "Mohammad Rubel Hossain", "displayName": "Rubel Hossain"}}, "fielder": {"athlete": {}}, "minutes": 0, "retiredText": ""}}, {"id": "149040", "clock": "00:00", "date": "2018-01-23T12:00", "playType": {"id": "1", "description": "run"}, "team": {"id": "25", "name": "Bangladesh", "abbreviation": "BDESH", "displayName": "Bangladesh"}, "mediaId": 0, "period": 1, "periodText": "1st innings", "preText": "", "text": "offcutter on a length at off stump, backs away and chips this straight towards mid-off...who shies at the stumps as Rubel looks to make his way back. Hits the stumps and it deflects into the slips region for an overthrow", "postText": "", "shortText": "Jarvis to Mustafizur Rahman, 1 run", "homeScore": "211/9", "awayScore": "0", "scoreValue": 1, "sequence": 104904, "athletesInvolved": [{"id": "332996", "name": "Kyle Jarvis", "shortName": "Jarvis", "displayName": "Kyle Jarvis"}, {"id": "330902", "name": "Mustafizur Rahman", "shortName": "Mustafizur", "displayName": "Mustafizur Rahman"}], "speedKPH": "", "speedMPH": "", "bowler": {"athlete": {"id": "332996", "name": "Kyle Jarvis", "shortName": "Jarvis", "fullName": "Kyle Malcolm Jarvis", "displayName": "Kyle Jarvis"}, "team": {"id": "9", "name": "Zimbabwe", "abbreviation": "ZIM", "displayName": "Zimbabwe"}, "maidens": 0, "balls": 52, "wickets": 3, "overs": 8.4, "conceded": 37}, "otherBowler": {"athlete": {"id": "425639", "name": "Tendai Chatara", "shortName": "Chatara", "fullName": "Tendai Larry Chatara", "displayName": "Tendai Chatara"}, "team": {"id": "9", "name": "Zimbabwe", "abbreviation": "ZIM", "displayName": "Zimbabwe"}, "maidens": 0, "balls": 42, "wickets": 1, "overs": 7.0, "conceded": 33}, "batsman": {"athlete": {"id": "330902", "name": "Mustafizur Rahman", "shortName": "Mustafizur", "fullName": "Mustafizur Rahman", "displayName": "Mustafizur Rahman"}, "team": {"id": "25", "name": "Bangladesh", "abbreviation": "BDESH", "displayName": "Bangladesh"}, "totalRuns": 14, "faced": 21, "fours": 1, "runs": 211, "sixes": 0}, "otherBatsman": {"athlete": {"id": "300619", "name": "Rubel Hossain", "shortName": "Rubel", "fullName": "Mohammad Rubel Hossain", "displayName": "Rubel Hossain"}, "team": {"id": "25", "name": "Bangladesh", "abbreviation": "BDESH", "displayName": "Bangladesh"}, "totalRuns": 7, "faced": 3, "fours": 0, "runs": 0, "sixes": 1}, "innings": {"id": "202190", "runRate": 4.24, "remainingBalls": 2, "byes": 0, "number": 1, "balls": 298, "noBalls": 0, "wickets": 9, "legByes": 0, "ballLimit": 300, "target": 0, "session": 1, "day": 1, "fallOfWickets": 0, "remainingOvers": 0.0, "totalRuns": 1, "wides": 0, "runs": 211}, "over": {"ball": 4, "balls": 6, "complete": false, "limit": 50.0, "maiden": 0, "noBall": 0, "wide": 0, "byes": 0, "legByes": 0, "number": 50, "runs": 13, "wickets": 0, "overs": 49.4, "actual": 49.4, "unique": 49.04}, "dismissal": {"dismissal": false, "bowled": false, "type": "", "bowler": {"athlete": {"id": "332996", "name": "Kyle Jarvis", "shortName": "Jarvis", "fullName": "Kyle Malcolm Jarvis", "displayName": "Kyle Jarvis"}}, "batsman": {"athlete": {"id": "330902", "name": "Mustafizur Rahman", "shortName": "Mustafizur", "fullName": "Mustafizur Rahman", "displayName": "Mustafizur Rahman"}}, "fielder": {"athlete": {}}, "minutes": 0, "retiredText": ""}}, {"id": "149050", "clock": "00:00", "date": "2018-01-23T12:00", "playType": {"id": "1", "description": "run"}, "team": {"id": "25", "name": "Bangladesh", "abbreviation": "BDESH", "displayName": "Bangladesh"}, "mediaId": 0, "period": 1, "periodText": "1st innings", "preText": "", "text": "offcutter on a length outside off, hangs deep in the crease and slogs across the line to get this down to long-on", "postText": "", "shortText": "Jarvis to Rubel Hossain, 1 run", "homeScore": "212/9", "awayScore": "0", "scoreValue": 1, "sequence": 104905, "athletesInvolved": [{"id": "332996", "name": "Kyle Jarvis", "shortName": "Jarvis", "displayName": "Kyle Jarvis"}, {"id": "300619", "name": "Rubel Hossain", "shortName": "Rubel", "displayName": "Rubel Hossain"}], "speedKPH": "", "speedMPH": "", "bowler": {"athlete": {"id": "332996", "name": "Kyle Jarvis", "shortName": "Jarvis", "fullName": "Kyle Malcolm Jarvis", "displayName": "Kyle Jarvis"}, "team": {"id": "9", "name": "Zimbabwe", "abbreviation": "ZIM", "displayName": "Zimbabwe"}, "maidens": 0, "balls": 53, "wickets": 3, "overs": 8.5, "conceded": 38}, "otherBowler": {"athlete": {"id": "425639", "name": "Tendai Chatara", "shortName": "Chatara", "fullName": "Tendai Larry Chatara", "displayName": "Tendai Chatara"}, "team": {"id": "9", "name": "Zimbabwe", "abbreviation": "ZIM", "displayName": "Zimbabwe"}, "maidens": 0, "balls": 42, "wickets": 1, "overs": 7.0, "conceded": 33}, "batsman": {"athlete": {"id": "300619", "name": "Rubel Hossain", "shortName": "Rubel", "fullName": "Mohammad Rubel Hossain", "displayName": "Rubel Hossain"}, "team": {"id": "25", "name": "Bangladesh", "abbreviation": "BDESH", "displayName": "Bangladesh"}, "totalRuns": 8, "faced": 4, "fours": 0, "runs": 212, "sixes": 1}, "otherBatsman": {"athlete": {"id": "330902", "name": "Mustafizur Rahman", "shortName": "Mustafizur", "fullName": "Mustafizur Rahman", "displayName": "Mustafizur Rahman"}, "team": {"id": "25", "name": "Bangladesh", "abbreviation": "BDESH", "displayName": "Bangladesh"}, "totalRuns": 14, "faced": 21, "fours": 1, "runs": 0, "sixes": 0}, "innings": {"id": "202190", "runRate": 4.25, "remainingBalls": 1, "byes": 0, "number": 1, "balls": 299, "noBalls": 0, "wickets": 9, "legByes": 0, "ballLimit": 300, "target": 0, "session": 1, "day": 1, "fallOfWickets": 0, "remainingOvers": 0.0, "totalRuns": 1, "wides": 0, "runs": 212}, "over": {"ball": 5, "balls": 6, "complete": false, "limit": 50.0, "maiden": 0, "noBall": 0, "wide": 0, "byes": 0, "legByes": 0, "number": 50, "runs": 13, "wickets": 0, "overs": 49.5, "actual": 49.5, "unique": 49.05}, "dismissal": {"dismissal": false, "bowled": false, "type": "", "bowler": {"athlete": {"id": "332996", "name": "Kyle Jarvis", "shortName": "Jarvis", "fullName": "Kyle Malcolm Jarvis", "displayName": "Kyle Jarvis"}}, "batsman": {"athlete": {"id": "300619", "name": "Rubel Hossain", "shortName": "Rubel", "fullName": "Mohammad Rubel Hossain", "displayName": "Rubel Hossain"}}, "fielder": {"athlete": {}}, "minutes": 0, "retiredText": ""}}, {"id": "149060", "clock": "00:00", "date": "2018-01-23T12:00", "playType": {"id": "3", "description": "four"}, "team": {"id": "25", "name": "Bangladesh", "abbreviation": "BDESH", "displayName": "Bangladesh"}, "mediaId": 0, "period": 1, "periodText": "1st innings", "preText": "", "text": "swipes it to the square leg boundary. Length ball in at the pads, an offcutter, and he gets behind it and swings to beat deep square to his left. That's his <B>highest score in senior cricket</b>, across formats", "postText": "<b>3:31pm</b> Bangladesh will feel they are <i>at least</i> 40 runs short, if not 50-60 away from what they wanted to get. It's hard to think of a time when the batsmen looked comfortable today, but there was a time they were making runs despite that. Shakib and Tamim doing superbly in their century stand after that early wicket. But both of them got out to wild swings, and the then Zimbabwe were all over them. Four wickets to the captain, Graeme Cremer. If anything, his bowling was a sign of how difficult it is to play slow bowling on this pitch. And we know Bangladesh can be dangerous in such conditions. A lot of Zimbabwe's hopes will rest on the top order and their run-making against the new ball. We'll be back soon to see their response.", "shortText": "Jarvis to Mustafizur Rahman, FOUR runs", "homeScore": "216/9", "awayScore": "0", "scoreValue": 4, "sequence": 104906, "athletesInvolved": [{"id": "332996", "name": "Kyle Jarvis", "shortName": "Jarvis", "displayName": "Kyle Jarvis"}, {"id": "330902", "name": "Mustafizur Rahman", "shortName": "Mustafizur", "displayName": "Mustafizur Rahman"}], "speedKPH": "", "speedMPH": "", "bowler": {"athlete": {"id": "332996", "name": "Kyle Jarvis", "shortName": "Jarvis", "fullName": "Kyle Malcolm Jarvis", "displayName": "Kyle Jarvis"}, "team": {"id": "9", "name": "Zimbabwe", "abbreviation": "ZIM", "displayName": "Zimbabwe"}, "maidens": 0, "balls": 54, "wickets": 3, "overs": 9.0, "conceded": 42}, "otherBowler": {"athlete": {"id": "425639", "name": "Tendai Chatara", "shortName": "Chatara", "fullName": "Tendai Larry Chatara", "displayName": "Tendai Chatara"}, "team": {"id": "9", "name": "Zimbabwe", "abbreviation": "ZIM", "displayName": "Zimbabwe"}, "maidens": 0, "balls": 42, "wickets": 1, "overs": 7.0, "conceded": 33}, "batsman": {"athlete": {"id": "330902", "name": "Mustafizur Rahman", "shortName": "Mustafizur", "fullName": "Mustafizur Rahman", "displayName": "Mustafizur Rahman"}, "team": {"id": "25", "name": "Bangladesh", "abbreviation": "BDESH", "displayName": "Bangladesh"}, "totalRuns": 18, "faced": 22, "fours": 2, "runs": 216, "sixes": 0}, "otherBatsman": {"athlete": {"id": "300619", "name": "Rubel Hossain", "shortName": "Rubel", "fullName": "Mohammad Rubel Hossain", "displayName": "Rubel Hossain"}, "team": {"id": "25", "name": "Bangladesh", "abbreviation": "BDESH", "displayName": "Bangladesh"}, "totalRuns": 8, "faced": 4, "fours": 0, "runs": 0, "sixes": 1}, "innings": {"id": "202190", "runRate": 4.32, "remainingBalls": 0, "byes": 0, "number": 1, "balls": 300, "noBalls": 0, "wickets": 9, "legByes": 0, "ballLimit": 300, "target": 0, "session": 1, "day": 1, "fallOfWickets": 0, "remainingOvers": 0.0, "totalRuns": 4, "wides": 0, "runs": 216}, "over": {"ball": 6, "balls": 6, "complete": true, "limit": 50.0, "maiden": 0, "noBall": 0, "wide": 0, "byes": 0, "legByes": 0, "number": 50, "runs": 13, "wickets": 0, "overs": 49.6, "actual": 49.6, "unique": 49.06}, "dismissal": {"dismissal": false, "bowled": false, "type": "", "bowler": {"athlete": {"id": "332996", "name": "Kyle Jarvis", "shortName": "Jarvis", "fullName": "Kyle Malcolm Jarvis", "displayName": "Kyle Jarvis"}}, "batsman": {"athlete": {"id": "330902", "name": "Mustafizur Rahman", "shortName": "Mustafizur", "fullName": "Mustafizur Rahman", "displayName": "Mustafizur Rahman"}}, "fielder": {"athlete": {}}, "minutes": 0, "retiredText": ""}}]}}