{"commentary": {"count": 302, "pageIndex": 13, "pageSize": 25, "pageCount": 13, "items": [{"id": "149050", "clock": "00:00", "date": "2018-12-09T13:00", "playType": {"id": "2", "description": "no run"}, "team": {"id": "4", "name": "West Indies", "abbreviation": "WI", "displayName": "West Indies"}, "mediaId": 0, "period": 1, "periodText": "1st innings", "preText": "Oshane Thomas, can he take West Indies to 200", "text": "length outside off, aims for the trees and misses", "postText": "", "shortText": "Mustafizur Rahman to Thomas, no run", "homeScore": "195/9", "awayScore": "0", "scoreValue": 0, "sequence": 104905, "athletesInvolved": [{"id": "330902", "name": "Mustafizur Rahman", "shortName": "Mustafizur", "displayName": "Mustafizur Rahman"}, {"id": "914567", "name": "Oshane Thomas", "shortName": "Thomas", "displayName": "Oshane Thomas"}], "speedKPH": "124.451", "speedMPH": "77.330", "bowler": {"athlete": {"id": "330902", "name": "Mustafizur Rahman", "shortName": "Mustafizur", "fullName": "Mustafizur Rahman", "displayName": "Mustafizur Rahman"}, "team": {"id": "25", "name": "Bangladesh", "abbreviation": "BDESH", "displayName": "Bangladesh"}, "maidens": 0, "balls": 59, "wickets": 3, "overs": 9.5, "conceded": 35}, "otherBowler": {"athlete": {"id": "300619", "name": "Rubel Hossain", "shortName": "Rubel", "fullName": "Mohammad Rubel Hossain", "displayName": "Rubel Hossain"}, "team": {"id": "25", "name": "Bangladesh", "abbreviation": "BDESH", "displayName": "Bangladesh"}, "maidens": 0, "balls": 60, "wickets": 1, "overs": 10.0, "conceded": 61}, "batsman": {"athlete": {"id": "914567", "name": "Oshane Thomas", "shortName": "Thomas", "fullName": "Oshane Romaine Thomas", "displayName": "Oshane Thomas"}, "team": {"id": "4", "name": "West Indies", "abbreviation": "WI", "displayName": "West Indies"}, "totalRuns": 0, "faced": 1, "fours": 0, "runs": 195, "sixes": 0}, "otherBatsman": {"athlete": {"id": "230553", "name": "Kemar Roach", "shortName": "Roach", "fullName": "Kemar Andre Jamal Roach", "displayName": "Kemar Roach"}, "team": {"id": "4", "name": "West Indies", "abbreviation": "WI", "displayName": "West Indies"}, "totalRuns": 5, "faced": 8, "fours": 0, "runs": 0, "sixes": 0}, "innings": {"id": "211060", "runRate": 3.91, "remainingBalls": 1, "byes": 0, "number": 1, "balls": 299, "noBalls": 0, "wickets": 9, "legByes": 0, "ballLimit": 300, "target": 0, "session": 1, "day": 1, "fallOfWickets": 0, "remainingOvers": 0.0, "totalRuns": 0, "wides": 0, "runs": 195}, "over": {"ball": 5, "balls": 6, "complete": false, "limit": 50.0, "maiden": 0, "noBall": 0, "wide": 0, "byes": 0, "legByes": 0, "number": 50, "runs": 2, "wickets": 2, "overs": 49.5, "actual": 49.5, "unique": 49.05}, "dismissal": {"dismissal": false, "bowled": false, "type": "", "bowler": {"athlete": {"id": "330902", "name": "Mustafizur Rahman", "shortName": "Mustafizur", "fullName": "Mustafizur Rahman", "displayName": "Mustafizur Rahman"}}, "batsman": {"athlete": {"id": "914567", "name": "Oshane Thomas", "shortName": "Thomas", "fullName": "Oshane Romaine Thomas", "displayName": "Oshane Thomas"}}, "fielder": {"athlete": {}}, "minutes": 0, "retiredText": ""}}, {"id": "149060", "clock": "00:00", "date": "2018-12-09T13:00", "playType": {"id": "2", "description": "no run"}, "team": {"id": "4", "name": "West Indies", "abbreviation": "WI", "displayName": "West Indies"}, "mediaId": 0, "period": 1, "periodText": "1st innings", "preText": "", "text": "length, another cutter, a wild swing from Thomas, no contact once again", "postText": "<b>4:30pm</b> Yes, it's a sluggish wicket with variable bounce, but West Indies would be quite disappointed with their effort - 195 for 9 at the end of 50 overs, that too thanks to some late hitting by Chase and Paul. Mashrafe picked 3 for 30, Mustafizur ended with 3 for 35.\n\n\"Variations helped a lot,\" says Mashrafe. \"Our bowlers bowled in right areas, they were quite disciplined. Last five overs, we leaked some runs. If we spend some time in the middle, we should be alright.\"\n\nDon't go far away, we will back with the chase soon.", "shortText": "Mustafizur Rahman to Thomas, no run", "homeScore": "195/9", "awayScore": "0", "scoreValue": 0, "sequence": 104906, "athletesInvolved": [{"id": "330902", "name": "Mustafizur Rahman", "shortName": "Mustafizur", "displayName": "Mustafizur Rahman"}, {"id": "914567", "name": "Oshane Thomas", "shortName": "Thomas", "displayName": "Oshane Thomas"}], "speedKPH": "120.475", "speedMPH": "74.860", "bowler": {"athlete": {"id": "330902", "name": "Mustafizur Rahman", "shortName": "Mustafizur", "fullName": "Mustafizur Rahman", "displayName": "Mustafizur Rahman"}, "team": {"id": "25", "name": "Bangladesh", "abbreviation": "BDESH", "displayName": "Bangladesh"}, "maidens": 0, "balls": 60, "wickets": 3, "overs": 10.0, "conceded": 35}, "otherBowler": {"athlete": {"id": "300619", "name": "Rubel Hossain", "shortName": "Rubel", "fullName": "Mohammad Rubel Hossain", "displayName": "Rubel Hossain"}, "team": {"id": "25", "name": "Bangladesh", "abbreviation": "BDESH", "displayName": "Bangladesh"}, "maidens": 0, "balls": 60, "wickets": 1, "overs": 10.0, "conceded": 61}, "batsman": {"athlete": {"id": "914567", "name": "Oshane Thomas", "shortName": "Thomas", "fullName": "Oshane Romaine Thomas", "displayName": "Oshane Thomas"}, "team": {"id": "4", "name": "West Indies", "abbreviation": "WI", "displayName": "West Indies"}, "totalRuns": 0, "faced": 2, "fours": 0, "runs": 195, "sixes": 0}, "otherBatsman": {"athlete": {"id": "230553", "name": "Kemar Roach", "shortName": "Roach", "fullName": "Kemar Andre Jamal Roach", "displayName": "Kemar Roach"}, "team": {"id": "4", "name": "West Indies", "abbreviation": "WI", "displayName": "West Indies"}, "totalRuns": 5, "faced": 8, "fours": 0, "runs": 0, "sixes": 0}, "innings": {"id": "211060", "runRate": 3.9, "remainingBalls": 0, "byes": 0, "number": 1, "balls": 300, "noBalls": 0, "wickets": 9, "legByes": 0, "ballLimit": 300, "target": 0, "session": 1, "day": 1, "fallOfWickets": 0, "remainingOvers": 0.0, "totalRuns": 0, "wides": 0, "runs": 195}, "over": {"ball": 6, "balls": 6, "complete": true, "limit": 50.0, "maiden": 0, "noBall": 0, "wide": 0, "byes": 0, "legByes": 0, "number": 50, "runs": 2, "wickets": 2, "overs": 49.6, "actual": 49.6, "unique": 49.06}, "dismissal": {"dismissal": false, "bowled": false, "type": "", "bowler": {"athlete": {"id": "330902", "name": "Mustafizur Rahman", "shortName": "Mustafizur", "fullName": "Mustafizur Rahman", "displayName": "Mustafizur Rahman"}}, "batsman": {"athlete": {"id": "914567", "name": "Oshane Thomas", "shortName": "Thomas", "fullName": "Oshane Romaine Thomas", "displayName": "Oshane Thomas"}}, "fielder": {"athlete": {}}, "minutes": 0, "retiredText": ""}}]}}