{"commentary": {"count": 305, "pageIndex": 13, "pageSize": 25, "pageCount": 13, "items": [{"id": "149030", "clock": "00:00", "date": "2018-09-23T15:30", "playType": {"id": "1", "description": "run"}, "team": {"id": "25", "name": "Bangladesh", "abbreviation": "BDESH", "displayName": "Bangladesh"}, "mediaId": 0, "period": 1, "periodText": "1st innings", "preText": "Tasmeem: \"If you compare the average, you will find that Imrul has a decent average as an opener. His only problem is he can't convert his starts, which has been hampering him throughout his career. But the problem is that others don't even get the starts.\"", "text": "down the track, but he can't get hold of it. Toe ends it to long-on", "postText": "", "shortText": "Gulbadin Naib to Mehidy Hasan Miraz, 1 run", "homeScore": "242/7", "awayScore": "0", "scoreValue": 1, "sequence": 104903, "athletesInvolved": [{"id": "352048", "name": "Gulbadin Naib", "shortName": "Gulbadin", "displayName": "Gulbadin Naib"}, {"id": "629063", "name": "Mehidy Hasan", "shortName": "Mehidy", "displayName": "Mehidy Hasan"}], "speedKPH": "104.443", "speedMPH": "64.898", "bowler": {"athlete": {"id": "352048", "name": "Gulbadin Naib", "shortName": "Gulbadin", "fullName": "Gulbadin Naib", "displayName": "Gulbadin Naib"}, "team": {"id": "40", "name": "Afghanistan", "abbreviation": "AFG", "displayName": "Afghanistan"}, "maidens": 0, "balls": 51, "wickets": 0, "overs": 8.3, "conceded": 52}, "otherBowler": {"athlete": {"id": "440963", "name": "Aftab Alam", "shortName": "Aftab Alam", "fullName": "Aftab Alam", "displayName": "Aftab Alam"}, "team": {"id": "40", "name": "Afghanistan", "abbreviation": "AFG", "displayName": "Afghanistan"}, "maidens": 0, "balls": 60, "wickets": 3, "overs": 10.0, "conceded": 54}, "batsman": {"athlete": {"id": "629063", "name": "Mehidy Hasan", "shortName": "Mehidy", "fullName": "Mehidy Hasan Miraz", "displayName": "Mehidy Hasan"}, "team": {"id": "25", "name": "Bangladesh", "abbreviation": "BDESH", "displayName": "Bangladesh"}, "totalRuns": 5, "faced": 3, "fours": 0, "runs": 242, "sixes": 0}, "otherBatsman": {"athlete": {"id": "280734", "name": "Imrul Kayes", "shortName": "Imrul", "fullName": "Imrul Kayes", "displayName": "Imrul Kayes"}, "team": {"id": "25", "name": "Bangladesh", "abbreviation": "BDESH", "displayName": "Bangladesh"}, "totalRuns": 67, "faced": 87, "fours": 5, "runs": 0, "sixes": 0}, "innings": {"id": "208729", "runRate": 4.88, "remainingBalls": 3, "byes": 0, "number": 1, "balls": 297, "noBalls": 0, "wickets": 7, "legByes": 0, "ballLimit": 300, "target": 0, "session": 1, "day": 1, "fallOfWickets": 0, "remainingOvers": 0.0, "totalRuns": 1, "wides": 0, "runs": 242}, "over": {"ball": 3, "balls": 6, "complete": false, "limit": 50.0, "maiden": 0, "noBall": 0, "wide": 0, "byes": 0, "legByes": 0, "number": 50, "runs": 11, "wickets": 0, "overs": 49.3, "actual": 49.3, "unique": 49.03}, "dismissal": {"dismissal": false, "bowled": false, "type": "", "bowler": {"athlete": {"id": "352048", "name": "Gulbadin Naib", "shortName": "Gulbadin", "fullName": "Gulbadin Naib", "displayName": "Gulbadin Naib"}}, "batsman": {"athlete": {"id": "629063", "name": "Mehidy Hasan", "shortName": "Mehidy", "fullName": "Mehidy Hasan Miraz", "displayName": "Mehidy Hasan"}}, "fielder": {"athlete": {}}, "minutes": 0, "retiredText": ""}}, {"id": "149040", "clock": "00:00", "date": "2018-09-23T15:30", "playType": {"id": "1", "description": "run"}, "team": {"id": "25", "name": "Bangladesh", "abbreviation": "BDESH", "displayName": "Bangladesh"}, "mediaId": 0, "period": 1, "periodText": "1st innings", "preText": "", "text": "yorker on off stump and bunted back past the bowler to long-off", "postText": "", "shortText": "Gulbadin Naib to Imrul Kayes, 1 run", "homeScore": "243/7", "awayScore": "0", "scoreValue": 1, "sequence": 104904, "athletesInvolved": [{"id": "352048", "name": "Gulbadin Naib", "shortName": "Gulbadin", "displayName": "Gulbadin Naib"}, {"id": "280734", "name": "Imrul Kayes", "shortName": "Imrul", "displayName": "Imrul Kayes"}], "speedKPH": "131.662", "speedMPH": "81.811", "bowler": {"athlete": {"id": "352048", "name": "Gulbadin Naib", "shortName": "Gulbadin", "fullName": "Gulbadin Naib", "displayName": "Gulbadin Naib"}, "team": {"id": "40", "name": "Afghanistan", "abbreviation": "AFG", "displayName": "Afghanistan"}, "maidens": 0, "balls": 52, "wickets": 0, "overs": 8.4, "conceded": 53}, "otherBowler": {"athlete": {"id": "440963", "name": "Aftab Alam", "shortName": "Aftab Alam", "fullName": "Aftab Alam", "displayName": "Aftab Alam"}, "team": {"id": "40", "name": "Afghanistan", "abbreviation": "AFG", "displayName": "Afghanistan"}, "maidens": 0, "balls": 60, "wickets": 3, "overs": 10.0, "conceded": 54}, "batsman": {"athlete": {"id": "280734", "name": "Imrul Kayes", "shortName": "Imrul", "fullName": "Imrul Kayes", "displayName": "Imrul Kayes"}, "team": {"id": "25", "name": "Bangladesh", "abbreviation": "BDESH", "displayName": "Bangladesh"}, "totalRuns": 68, "faced": 88, "fours": 5, "runs": 243, "sixes": 0}, "otherBatsman": {"athlete": {"id": "629063", "name": "Mehidy Hasan", "shortName": "Mehidy", "fullName": "Mehidy Hasan Miraz", "displayName": "Mehidy Hasan"}, "team": {"id": "25", "name": "Bangladesh", "abbreviation": "BDESH", "displayName": "Bangladesh"}, "totalRuns": 5, "faced": 3, "fours": 0, "runs": 0, "sixes": 0}, "innings": {"id": "208729", "runRate": 4.89, "remainingBalls": 2, "byes": 0, "number": 1, "balls": 298, "noBalls": 0, "wickets": 7, "legByes": 0, "ballLimit": 300, "target": 0, "session": 1, "day": 1, "fallOfWickets": 0, "remainingOvers": 0.0, "totalRuns": 1, "wides": 0, "runs": 243}, "over": {"ball": 4, "balls": 6, "complete": false, "limit": 50.0, "maiden": 0, "noBall": 0, "wide": 0, "byes": 0, "legByes": 0, "number": 50, "runs": 11, "wickets": 0, "overs": 49.4, "actual": 49.4, "unique": 49.04}, "dismissal": {"dismissal": false, "bowled": false, "type": "", "bowler": {"athlete": {"id": "352048", "name": "Gulbadin Naib", "shortName": "Gulbadin", "fullName": "Gulbadin Naib", "displayName": "Gulbadin Naib"}}, "batsman": {"athlete": {"id": "280734", "name": "Imrul Kayes", "shortName": "Imrul", "fullName": "Imrul Kayes", "displayName": "Imrul Kayes"}}, "fielder": {"athlete": {}}, "minutes": 0, "retiredText": ""}}, {"id": "149050", "clock": "00:00", "date": "2018-09-23T15:30", "playType": {"id": "6", "description": "wide"}, "team": {"id": "25", "name": "Bangladesh", "abbreviation": "BDESH", "displayName": "Bangladesh"}, "mediaId": 0, "period": 1, "periodText": "1st innings", "preText": "", "text": "spotted him coming down the track and tried to shorten his length and go wide, but went too wide.", "postText": "", "shortText": "Gulbadin Naib to Mehidy Hasan Miraz, 1 wide", "homeScore": "244/7", "awayScore": "0", "scoreValue": 1, "sequence": 104905, "athletesInvolved": [{"id": "352048", "name": "Gulbadin Naib", "shortName": "Gulbadin", "displayName": "Gulbadin Naib"}, {"id": "629063", "name": "Mehidy Hasan", "shortName": "Mehidy", "displayName": "Mehidy Hasan"}], "speedKPH": "105.248", "speedMPH": "65.398", "bowler": {"athlete": {"id": "352048", "name": "Gulbadin Naib", "shortName": "Gulbadin", "fullName": "Gulbadin Naib", "displayName": "Gulbadin Naib"}, "team": {"id": "40", "name": "Afghanistan", "abbreviation": "AFG", "displayName": "Afghanistan"}, "maidens": 0, "balls": 52, "wickets": 0, "overs": 8.4, "conceded": 54}, "otherBowler": {"athlete": {"id": "440963", "name": "Aftab Alam", "shortName": "Aftab Alam", "fullName": "Aftab Alam", "displayName": "Aftab Alam"}, "team": {"id": "40", "name": "Afghanistan", "abbreviation": "AFG", "displayName": "Afghanistan"}, "maidens": 0, "balls": 60, "wickets": 3, "overs": 10.0, "conceded": 54}, "batsman": {"athlete": {"id": "629063", "name": "Mehidy Hasan", "shortName": "Mehidy", "fullName": "Mehidy Hasan Miraz", "displayName": "Mehidy Hasan"}, "team": {"id": "25", "name": "Bangladesh", "abbreviation": "BDESH", "displayName": "Bangladesh"}, "totalRuns": 5, "faced": 3, "fours": 0, "runs": 244, "sixes": 0}, "otherBatsman": {"athlete": {"id": "280734", "name": "Imrul Kayes", "shortName": "Imrul", "fullName": "Imrul Kayes", "displayName": "Imrul Kayes"}, "team": {"id": "25", "name": "Bangladesh", "abbreviation": "BDESH", "displayName": "Bangladesh"}, "totalRuns": 68, "faced": 88, "fours": 5, "runs": 0, "sixes": 0}, "innings": {"id": "208729", "runRate": 4.91, "remainingBalls": 2, "byes": 0, "number": 1, "balls": 298, "noBalls": 0, "wickets": 7, "legByes": 0, "ballLimit": 300, "target": 0, "session": 1, "day": 1, "fallOfWickets": 0, "remainingOvers": 0.0, "totalRuns": 1, "wides": 1, "runs": 244}, "over": {"ball": 5, "balls": 6, "complete": false, "limit": 50.0, "maiden": 0, "noBall": 0, "wide": 1, "byes": 0, "legByes": 0, "number": 50, "runs": 11, "wickets": 0, "overs": 49.4, "actual": 49.5, "unique": 49.05}, "dismissal": {"dismissal": false, "bowled": false, "type": "", "bowler": {"athlete": {"id": "352048", "name": "Gulbadin Naib", "shortName": "Gulbadin", "fullName": "Gulbadin Naib", "displayName": "Gulbadin Naib"}}, "batsman": {"athlete": {"id": "629063", "name": "Mehidy Hasan", "shortName": "Mehidy", "fullName": "Mehidy Hasan Miraz", "displayName": "Mehidy Hasan"}}, "fielder": {"athlete": {}}, "minutes": 0, "retiredText": ""}}, {"id": "149060", "clock": "00:00", "date": "2018-09-23T15:30", "playType": {"id": "7", "description": "bye"}, "team": {"id": "25", "name": "Bangladesh", "abbreviation": "BDESH", "displayName": "Bangladesh"}, "mediaId": 0, "period": 1, "periodText": "1st innings", "preText": "", "text": "back of the hand slower ball, defeats the batsman's attempted paddle and past leg stump, but Shahzad can't collect", "postText": "", "shortText": "Gulbadin Naib to Mehidy Hasan Miraz, 1 bye", "homeScore": "245/7", "awayScore": "0", "scoreValue": 1, "sequence": 104906, "athletesInvolved": [{"id": "352048", "name": "Gulbadin Naib", "shortName": "Gulbadin", "displayName": "Gulbadin Naib"}, {"id": "629063", "name": "Mehidy Hasan", "shortName": "Mehidy", "displayName": "Mehidy Hasan"}], "speedKPH": "99.720", "speedMPH": "61.963", "bowler": {"athlete": {"id": "352048", "name": "Gulbadin Naib", "shortName": "Gulbadin", "fullName": "Gulbadin Naib", "displayName": "Gulbadin Naib"}, "team": {"id": "40", "name": "Afghanistan", "abbreviation": "AFG", "displayName": "Afghanistan"}, "maidens": 0, "balls": 53, "wickets": 0, "overs": 8.5, "conceded": 54}, "otherBowler": {"athlete": {"id": "440963", "name": "Aftab Alam", "shortName": "Aftab Alam", "fullName": "Aftab Alam", "displayName": "Aftab Alam"}, "team": {"id": "40", "name": "Afghanistan", "abbreviation": "AFG", "displayName": "Afghanistan"}, "maidens": 0, "balls": 60, "wickets": 3, "overs": 10.0, "conceded": 54}, "batsman": {"athlete": {"id": "629063", "name": "Mehidy Hasan", "shortName": "Mehidy", "fullName": "Mehidy Hasan Miraz", "displayName": "Mehidy Hasan"}, "team": {"id": "25", "name": "Bangladesh", "abbreviation": "BDESH", "displayName": "Bangladesh"}, "totalRuns": 5, "faced": 4, "fours": 0, "runs": 245, "sixes": 0}, "otherBatsman": {"athlete": {"id": "280734", "name": "Imrul Kayes", "shortName": "Imrul", "fullName": "Imrul Kayes", "displayName": "Imrul Kayes"}, "team": {"id": "25", "name": "Bangladesh", "abbreviation": "BDESH", "displayName": "Bangladesh"}, "totalRuns": 68, "faced": 88, "fours": 5, "runs": 0, "sixes": 0}, "innings": {"id": "208729", "runRate": 4.91, "remainingBalls": 1, "byes": 1, "number": 1, "balls": 299, "noBalls": 0, "wickets": 7, "legByes": 0, "ballLimit": 300, "target": 0, "session": 1, "day": 1, "fallOfWickets": 0, "remainingOvers": 0.0, "totalRuns": 1, "wides": 0, "runs": 245}, "over": {"ball": 6, "balls": 6, "complete": false, "limit": 50.0, "maiden": 0, "noBall": 0, "wide": 0, "byes": 1, "legByes": 0, "number": 50, "runs": 11, "wickets": 0, "overs": 49.5, "actual": 49.5, "unique": 49.06}, "dismissal": {"dismissal": false, "bowled": false, "type": "", "bowler": {"athlete": {"id": "352048", "name": "Gulbadin Naib", "shortName": "Gulbadin", "fullName": "Gulbadin Naib", "displayName": "Gulbadin Naib"}}, "batsman": {"athlete": {"id": "629063", "name": "Mehidy Hasan", "shortName": "Mehidy", "fullName": "Mehidy Hasan Miraz", "displayName": "Mehidy Hasan"}}, "fielder": {"athlete": {}}, "minutes": 0, "retiredText": ""}}, {"id": "149070", "clock": "00:00", "date": "2018-09-23T15:30", "playType": {"id": "3", "description": "four"}, "team": {"id": "25", "name": "Bangladesh", "abbreviation": "BDESH", "displayName": "Bangladesh"}, "mediaId": 0, "period": 1, "periodText": "1st innings", "preText": "", "text": "nice way to finish, full toss on off stump and driven through the covers and into the gap", "postText": "<b>7.20pm</b> Mahmudullah has this to say: \"At this point of time we are quite happy with our score but we need to come out hard and bowl well, and pick up early wickets because it's still a good wicket to bat on. Me and Imrul just played it ball by ball, we didn't rush much. As the partnership went on, we said we need to finish well. Imrul is a top-order batsman but he came in the middle order to lend some experience because we wanted to keep the middle order strong.\"\n\n<b>7.15pm</b> Bangladesh have a very defendable score on board, especially considering Afghanistan haven't chased yet. Mahmudullah and Kayes were magnificent after some hara-kiri had reduced Bangladesh to 87 for 5.\n\nThe Afghanistan bowlers were adequate, but not very incisive. And the fielding wasn't very hot, though Shenwari's direct hit to run out Shakib was superb.", "shortText": "Gulbadin Naib to Imrul Kayes, FOUR runs", "homeScore": "249/7", "awayScore": "0", "scoreValue": 4, "sequence": 104907, "athletesInvolved": [{"id": "352048", "name": "Gulbadin Naib", "shortName": "Gulbadin", "displayName": "Gulbadin Naib"}, {"id": "280734", "name": "Imrul Kayes", "shortName": "Imrul", "displayName": "Imrul Kayes"}], "speedKPH": "124.227", "speedMPH": "77.191", "bowler": {"athlete": {"id": "352048", "name": "Gulbadin Naib", "shortName": "Gulbadin", "fullName": "Gulbadin Naib", "displayName": "Gulbadin Naib"}, "team": {"id": "40", "name": "Afghanistan", "abbreviation": "AFG", "displayName": "Afghanistan"}, "maidens": 0, "balls": 54, "wickets": 0, "overs": 9.0, "conceded": 58}, "otherBowler": {"athlete": {"id": "440963", "name": "Aftab Alam", "shortName": "Aftab Alam", "fullName": "Aftab Alam", "displayName": "Aftab Alam"}, "team": {"id": "40", "name": "Afghanistan", "abbreviation": "AFG", "displayName": "Afghanistan"}, "maidens": 0, "balls": 60, "wickets": 3, "overs": 10.0, "conceded": 54}, "batsman": {"athlete": {"id": "280734", "name": "Imrul Kayes", "shortName": "Imrul", "fullName": "Imrul Kayes", "displayName": "Imrul Kayes"}, "team": {"id": "25", "name": "Bangladesh", "abbreviation": "BDESH", "displayName": "Bangladesh"}, "totalRuns": 72, "faced": 89, "fours": 6, "runs": 249, "sixes": 0}, "otherBatsman": {"athlete": {"id": "629063", "name": "Mehidy Hasan", "shortName": "Mehidy", "fullName": "Mehidy Hasan Miraz", "displayName": "Mehidy Hasan"}, "team": {"id": "25", "name": "Bangladesh", "abbreviation": "BDESH", "displayName": "Bangladesh"}, "totalRuns": 5, "faced": 4, "fours": 0, "runs": 0, "sixes": 0}, "innings": {"id": "208729", "runRate": 4.98, "remainingBalls": 0, "byes": 0, "number": 1, "balls": 300, "noBalls": 0, "wickets": 7, "legByes": 0, "ballLimit": 300, "target": 0, "session": 1, "day": 1, "fallOfWickets": 0, "remainingOvers": 0.0, "totalRuns": 4, "wides": 0, "runs": 249}, "over": {"ball": 7, "balls": 6, "complete": true, "limit": 50.0, "maiden": 0, "noBall": 0, "wide": 0, "byes": 0, "legByes": 0, "number": 50, "runs": 11, "wickets": 0, "overs": 49.6, "actual": 49.6, "unique": 49.07}, "dismissal": {"dismissal": false, "bowled": false, "type": "", "bowler": {"athlete": {"id": "352048", "name": "Gulbadin Naib", "shortName": "Gulbadin", "fullName": "Gulbadin Naib", "displayName": "Gulbadin Naib"}}, "batsman": {"athlete": {"id": "280734", "name": "Imrul Kayes", "shortName": "Imrul", "fullName": "Imrul Kayes", "displayName": "Imrul Kayes"}}, "fielder": {"athlete": {}}, "minutes": 0, "retiredText": ""}}]}}