{"commentary": {"count": 282, "pageIndex": 12, "pageSize": 25, "pageCount": 12, "items": [{"id": "244020", "clock": "00:00", "date": "2019-05-07T10:45", "playType": {"id": "2", "description": "no run"}, "team": {"id": "25", "name": "Bangladesh", "abbreviation": "BDESH", "displayName": "Bangladesh"}, "mediaId": 0, "period": 2, "periodText": "2nd innings", "preText": "", "text": "inswinger on leg stump, misses flick", "postText": "", "shortText": "Cottrell to Mushfiqur Rahim, no run", "homeScore": "0", "awayScore": "246/2", "scoreValue": 0, "sequence": 204402, "athletesInvolved": [{"id": "495551", "name": "Sheldon Cottrell", "shortName": "Cottrell", "displayName": "Sheldon Cottrell"}, {"id": "56029", "name": "Mushfiqur Rahim", "shortName": "Mushfiqur", "displayName": "Mushfiqur Rahim"}], "speedKPH": "", "speedMPH": "", "bowler": {"athlete": {"id": "495551", "name": "Sheldon Cottrell", "shortName": "Cottrell", "fullName": "Sheldon Shane Cottrell", "displayName": "Sheldon Cottrell"}, "team": {"id": "4", "name": "West Indies", "abbreviation": "WI", "displayName": "West Indies"}, "maidens": 0, "balls": 37, "wickets": 0, "overs": 6.1, "conceded": 29}, "otherBowler": {"athlete": {"id": "391832", "name": "Roston Chase", "shortName": "Chase", "fullName": "Roston Lamar Chase", "displayName": "Roston Chase"}, "team": {"id": "4", "name": "West Indies", "abbreviation": "WI", "displayName": "West Indies"}, "maidens": 0, "balls": 60, "wickets": 1, "overs": 10.0, "conceded": 51}, "batsman": {"athlete": {"id": "56029", "name": "Mushfiqur Rahim", "shortName": "Mushfiqur", "fullName": "Mohammad Mushfiqur Rahim", "displayName": "Mushfiqur Rahim"}, "team": {"id": "25", "name": "Bangladesh", "abbreviation": "BDESH", "displayName": "Bangladesh"}, "totalRuns": 19, "faced": 21, "fours": 2, "runs": 246, "sixes": 0}, "otherBatsman": {"athlete": {"id": "56143", "name": "Shakib Al Hasan", "shortName": "Shakib", "fullName": "Shakib Al Hasan", "displayName": "Shakib Al Hasan"}, "team": {"id": "25", "name": "Bangladesh", "abbreviation": "BDESH", "displayName": "Bangladesh"}, "totalRuns": 57, "faced": 60, "fours": 2, "runs": 0, "sixes": 2}, "innings": {"id": "215434", "runRate": 5.56, "remainingBalls": 35, "byes": 0, "number": 2, "balls": 265, "noBalls": 0, "requiredRunRate": "2.74", "wickets": 2, "legByes": 0, "ballLimit": 300, "target": 262, "session": 1, "day": 1, "fallOfWickets": 0, "remainingRuns": "16", "remainingOvers": 5.0, "totalRuns": 0, "wides": 0, "runs": 246}, "over": {"ball": 2, "balls": 6, "complete": false, "limit": 50.0, "maiden": 0, "noBall": 0, "wide": 0, "byes": 0, "legByes": 0, "number": 45, "runs": 19, "wickets": 0, "overs": 44.1, "actual": 44.1, "unique": 44.02}, "dismissal": {"dismissal": false, "bowled": false, "type": "", "bowler": {"athlete": {"id": "495551", "name": "Sheldon Cottrell", "shortName": "Cottrell", "fullName": "Sheldon Shane Cottrell", "displayName": "Sheldon Cottrell"}}, "batsman": {"athlete": {"id": "56029", "name": "Mushfiqur Rahim", "shortName": "Mushfiqur", "fullName": "Mohammad Mushfiqur Rahim", "displayName": "Mushfiqur Rahim"}}, "fielder": {"athlete": {}}, "minutes": 0, "retiredText": ""}}, {"id": "244030", "clock": "00:00", "date": "2019-05-07T10:45", "playType": {"id": "4", "description": "six"}, "team": {"id": "25", "name": "Bangladesh", "abbreviation": "BDESH", "displayName": "Bangladesh"}, "mediaId": 0, "period": 2, "periodText": "2nd innings", "preText": "", "text": "length ball outside off, cover drive for maximum", "postText": "", "shortText": "Cottrell to Mushfiqur Rahim, SIX runs", "homeScore": "0", "awayScore": "252/2", "scoreValue": 6, "sequence": 204403, "athletesInvolved": [{"id": "495551", "name": "Sheldon Cottrell", "shortName": "Cottrell", "displayName": "Sheldon Cottrell"}, {"id": "56029", "name": "Mushfiqur Rahim", "shortName": "Mushfiqur", "displayName": "Mushfiqur Rahim"}], "speedKPH": "", "speedMPH": "", "bowler": {"athlete": {"id": "495551", "name": "Sheldon Cottrell", "shortName": "Cottrell", "fullName": "Sheldon Shane Cottrell", "displayName": "Sheldon Cottrell"}, "team": {"id": "4", "name": "West Indies", "abbreviation": "WI", "displayName": "West Indies"}, "maidens": 0, "balls": 38, "wickets": 0, "overs": 6.2, "conceded": 35}, "otherBowler": {"athlete": {"id": "391832", "name": "Roston Chase", "shortName": "Chase", "fullName": "Roston Lamar Chase", "displayName": "Roston Chase"}, "team": {"id": "4", "name": "West Indies", "abbreviation": "WI", "displayName": "West Indies"}, "maidens": 0, "balls": 60, "wickets": 1, "overs": 10.0, "conceded": 51}, "batsman": {"athlete": {"id": "56029", "name": "Mushfiqur Rahim", "shortName": "Mushfiqur", "fullName": "Mohammad Mushfiqur Rahim", "displayName": "Mushfiqur Rahim"}, "team": {"id": "25", "name": "Bangladesh", "abbreviation": "BDESH", "displayName": "Bangladesh"}, "totalRuns": 25, "faced": 22, "fours": 2, "runs": 252, "sixes": 1}, "otherBatsman": {"athlete": {"id": "56143", "name": "Shakib Al Hasan", "shortName": "Shakib", "fullName": "Shakib Al Hasan", "displayName": "Shakib Al Hasan"}, "team": {"id": "25", "name": "Bangladesh", "abbreviation": "BDESH", "displayName": "Bangladesh"}, "totalRuns": 57, "faced": 60, "fours": 2, "runs": 0, "sixes": 2}, "innings": {"id": "215434", "runRate": 5.68, "remainingBalls": 34, "byes": 0, "number": 2, "balls": 266, "noBalls": 0, "requiredRunRate": "1.76", "wickets": 2, "legByes": 0, "ballLimit": 300, "target": 262, "session": 1, "day": 1, "fallOfWickets": 0, "remainingRuns": "10", "remainingOvers": 5.0, "totalRuns": 6, "wides": 0, "runs": 252}, "over": {"ball": 3, "balls": 6, "complete": false, "limit": 50.0, "maiden": 0, "noBall": 0, "wide": 0, "byes": 0, "legByes": 0, "number": 45, "runs": 19, "wickets": 0, "overs": 44.2, "actual": 44.2, "unique": 44.03}, "dismissal": {"dismissal": false, "bowled": false, "type": "", "bowler": {"athlete": {"id": "495551", "name": "Sheldon Cottrell", "shortName": "Cottrell", "fullName": "Sheldon Shane Cottrell", "displayName": "Sheldon Cottrell"}}, "batsman": {"athlete": {"id": "56029", "name": "Mushfiqur Rahim", "shortName": "Mushfiqur", "fullName": "Mohammad Mushfiqur Rahim", "displayName": "Mushfiqur Rahim"}}, "fielder": {"athlete": {}}, "minutes": 0, "retiredText": ""}}, {"id": "244040", "clock": "00:00", "date": "2019-05-07T10:45", "playType": {"id": "2", "description": "no run"}, "team": {"id": "25", "name": "Bangladesh", "abbreviation": "BDESH", "displayName": "Bangladesh"}, "mediaId": 0, "period": 2, "periodText": "2nd innings", "preText": "", "text": "flicked to midwicket", "postText": "", "shortText": "Cottrell to Mushfiqur Rahim, no run", "homeScore": "0", "awayScore": "252/2", "scoreValue": 0, "sequence": 204404, "athletesInvolved": [{"id": "495551", "name": "Sheldon Cottrell", "shortName": "Cottrell", "displayName": "Sheldon Cottrell"}, {"id": "56029", "name": "Mushfiqur Rahim", "shortName": "Mushfiqur", "displayName": "Mushfiqur Rahim"}], "speedKPH": "", "speedMPH": "", "bowler": {"athlete": {"id": "495551", "name": "Sheldon Cottrell", "shortName": "Cottrell", "fullName": "Sheldon Shane Cottrell", "displayName": "Sheldon Cottrell"}, "team": {"id": "4", "name": "West Indies", "abbreviation": "WI", "displayName": "West Indies"}, "maidens": 0, "balls": 39, "wickets": 0, "overs": 6.3, "conceded": 35}, "otherBowler": {"athlete": {"id": "391832", "name": "Roston Chase", "shortName": "Chase", "fullName": "Roston Lamar Chase", "displayName": "Roston Chase"}, "team": {"id": "4", "name": "West Indies", "abbreviation": "WI", "displayName": "West Indies"}, "maidens": 0, "balls": 60, "wickets": 1, "overs": 10.0, "conceded": 51}, "batsman": {"athlete": {"id": "56029", "name": "Mushfiqur Rahim", "shortName": "Mushfiqur", "fullName": "Mohammad Mushfiqur Rahim", "displayName": "Mushfiqur Rahim"}, "team": {"id": "25", "name": "Bangladesh", "abbreviation": "BDESH", "displayName": "Bangladesh"}, "totalRuns": 25, "faced": 23, "fours": 2, "runs": 252, "sixes": 1}, "otherBatsman": {"athlete": {"id": "56143", "name": "Shakib Al Hasan", "shortName": "Shakib", "fullName": "Shakib Al Hasan", "displayName": "Shakib Al Hasan"}, "team": {"id": "25", "name": "Bangladesh", "abbreviation": "BDESH", "displayName": "Bangladesh"}, "totalRuns": 57, "faced": 60, "fours": 2, "runs": 0, "sixes": 2}, "innings": {"id": "215434", "runRate": 5.66, "remainingBalls": 33, "byes": 0, "number": 2, "balls": 267, "noBalls": 0, "requiredRunRate": "1.81", "wickets": 2, "legByes": 0, "ballLimit": 300, "target": 262, "session": 1, "day": 1, "fallOfWickets": 0, "remainingRuns": "10", "remainingOvers": 5.0, "totalRuns": 0, "wides": 0, "runs": 252}, "over": {"ball": 4, "balls": 6, "complete": false, "limit": 50.0, "maiden": 0, "noBall": 0, "wide": 0, "byes": 0, "legByes": 0, "number": 45, "runs": 19, "wickets": 0, "overs": 44.3, "actual": 44.3, "unique": 44.04}, "dismissal": {"dismissal": false, "bowled": false, "type": "", "bowler": {"athlete": {"id": "495551", "name": "Sheldon Cottrell", "shortName": "Cottrell", "fullName": "Sheldon Shane Cottrell", "displayName": "Sheldon Cottrell"}}, "batsman": {"athlete": {"id": "56029", "name": "Mushfiqur Rahim", "shortName": "Mushfiqur", "fullName": "Mohammad Mushfiqur Rahim", "displayName": "Mushfiqur Rahim"}}, "fielder": {"athlete": {}}, "minutes": 0, "retiredText": ""}}, {"id": "244050", "clock": "00:00", "date": "2019-05-07T10:45", "playType": {"id": "4", "description": "six"}, "team": {"id": "25", "name": "Bangladesh", "abbreviation": "BDESH", "displayName": "Bangladesh"}, "mediaId": 0, "period": 2, "periodText": "2nd innings", "preText": "", "text": "short ball, pulled to deep midwicket", "postText": "", "shortText": "Cottrell to Mushfiqur Rahim, SIX runs", "homeScore": "0", "awayScore": "258/2", "scoreValue": 6, "sequence": 204405, "athletesInvolved": [{"id": "495551", "name": "Sheldon Cottrell", "shortName": "Cottrell", "displayName": "Sheldon Cottrell"}, {"id": "56029", "name": "Mushfiqur Rahim", "shortName": "Mushfiqur", "displayName": "Mushfiqur Rahim"}], "speedKPH": "", "speedMPH": "", "bowler": {"athlete": {"id": "495551", "name": "Sheldon Cottrell", "shortName": "Cottrell", "fullName": "Sheldon Shane Cottrell", "displayName": "Sheldon Cottrell"}, "team": {"id": "4", "name": "West Indies", "abbreviation": "WI", "displayName": "West Indies"}, "maidens": 0, "balls": 40, "wickets": 0, "overs": 6.4, "conceded": 41}, "otherBowler": {"athlete": {"id": "391832", "name": "Roston Chase", "shortName": "Chase", "fullName": "Roston Lamar Chase", "displayName": "Roston Chase"}, "team": {"id": "4", "name": "West Indies", "abbreviation": "WI", "displayName": "West Indies"}, "maidens": 0, "balls": 60, "wickets": 1, "overs": 10.0, "conceded": 51}, "batsman": {"athlete": {"id": "56029", "name": "Mushfiqur Rahim", "shortName": "Mushfiqur", "fullName": "Mohammad Mushfiqur Rahim", "displayName": "Mushfiqur Rahim"}, "team": {"id": "25", "name": "Bangladesh", "abbreviation": "BDESH", "displayName": "Bangladesh"}, "totalRuns": 31, "faced": 24, "fours": 2, "runs": 258, "sixes": 2}, "otherBatsman": {"athlete": {"id": "56143", "name": "Shakib Al Hasan", "shortName": "Shakib", "fullName": "Shakib Al Hasan", "displayName": "Shakib Al Hasan"}, "team": {"id": "25", "name": "Bangladesh", "abbreviation": "BDESH", "displayName": "Bangladesh"}, "totalRuns": 57, "faced": 60, "fours": 2, "runs": 0, "sixes": 2}, "innings": {"id": "215434", "runRate": 5.77, "remainingBalls": 32, "byes": 0, "number": 2, "balls": 268, "noBalls": 0, "requiredRunRate": "0.75", "wickets": 2, "legByes": 0, "ballLimit": 300, "target": 262, "session": 1, "day": 1, "fallOfWickets": 0, "remainingRuns": "4", "remainingOvers": 5.0, "totalRuns": 6, "wides": 0, "runs": 258}, "over": {"ball": 5, "balls": 6, "complete": false, "limit": 50.0, "maiden": 0, "noBall": 0, "wide": 0, "byes": 0, "legByes": 0, "number": 45, "runs": 19, "wickets": 0, "overs": 44.4, "actual": 44.4, "unique": 44.05}, "dismissal": {"dismissal": false, "bowled": false, "type": "", "bowler": {"athlete": {"id": "495551", "name": "Sheldon Cottrell", "shortName": "Cottrell", "fullName": "Sheldon Shane Cottrell", "displayName": "Sheldon Cottrell"}}, "batsman": {"athlete": {"id": "56029", "name": "Mushfiqur Rahim", "shortName": "Mushfiqur", "fullName": "Mohammad Mushfiqur Rahim", "displayName": "Mushfiqur Rahim"}}, "fielder": {"athlete": {}}, "minutes": 0, "retiredText": ""}}, {"id": "244060", "clock": "00:00", "date": "2019-05-07T10:45", "playType": {"id": "6", "description": "wide"}, "team": {"id": "25", "name": "Bangladesh", "abbreviation": "BDESH", "displayName": "Bangladesh"}, "mediaId": 0, "period": 2, "periodText": "2nd innings", "preText": "", "text": "wide down the leg side", "postText": "", "shortText": "Cottrell to Mushfiqur Rahim, 1 wide", "homeScore": "0", "awayScore": "259/2", "scoreValue": 1, "sequence": 204406, "athletesInvolved": [{"id": "495551", "name": "Sheldon Cottrell", "shortName": "Cottrell", "displayName": "Sheldon Cottrell"}, {"id": "56029", "name": "Mushfiqur Rahim", "shortName": "Mushfiqur", "displayName": "Mushfiqur Rahim"}], "speedKPH": "", "speedMPH": "", "bowler": {"athlete": {"id": "495551", "name": "Sheldon Cottrell", "shortName": "Cottrell", "fullName": "Sheldon Shane Cottrell", "displayName": "Sheldon Cottrell"}, "team": {"id": "4", "name": "West Indies", "abbreviation": "WI", "displayName": "West Indies"}, "maidens": 0, "balls": 40, "wickets": 0, "overs": 6.4, "conceded": 42}, "otherBowler": {"athlete": {"id": "391832", "name": "Roston Chase", "shortName": "Chase", "fullName": "Roston Lamar Chase", "displayName": "Roston Chase"}, "team": {"id": "4", "name": "West Indies", "abbreviation": "WI", "displayName": "West Indies"}, "maidens": 0, "balls": 60, "wickets": 1, "overs": 10.0, "conceded": 51}, "batsman": {"athlete": {"id": "56029", "name": "Mushfiqur Rahim", "shortName": "Mushfiqur", "fullName": "Mohammad Mushfiqur Rahim", "displayName": "Mushfiqur Rahim"}, "team": {"id": "25", "name": "Bangladesh", "abbreviation": "BDESH", "displayName": "Bangladesh"}, "totalRuns": 31, "faced": 24, "fours": 2, "runs": 259, "sixes": 2}, "otherBatsman": {"athlete": {"id": "56143", "name": "Shakib Al Hasan", "shortName": "Shakib", "fullName": "Shakib Al Hasan", "displayName": "Shakib Al Hasan"}, "team": {"id": "25", "name": "Bangladesh", "abbreviation": "BDESH", "displayName": "Bangladesh"}, "totalRuns": 57, "faced": 60, "fours": 2, "runs": 0, "sixes": 2}, "innings": {"id": "215434", "runRate": 5.79, "remainingBalls": 32, "byes": 0, "number": 2, "balls": 268, "noBalls": 0, "requiredRunRate": "0.56", "wickets": 2, "legByes": 0, "ballLimit": 300, "target": 262, "session": 1, "day": 1, "fallOfWickets": 0, "remainingRuns": "3", "remainingOvers": 5.0, "totalRuns": 1, "wides": 1, "runs": 259}, "over": {"ball": 6, "balls": 6, "complete": false, "limit": 50.0, "maiden": 0, "noBall": 0, "wide": 1, "byes": 0, "legByes": 0, "number": 45, "runs": 19, "wickets": 0, "overs": 44.4, "actual": 44.5, "unique": 44.06}, "dismissal": {"dismissal": false, "bowled": false, "type": "", "bowler": {"athlete": {"id": "495551", "name": "Sheldon Cottrell", "shortName": "Cottrell", "fullName": "Sheldon Shane Cottrell", "displayName": "Sheldon Cottrell"}}, "batsman": {"athlete": {"id": "56029", "name": "Mushfiqur Rahim", "shortName": "Mushfiqur", "fullName": "Mohammad Mushfiqur Rahim", "displayName": "Mushfiqur Rahim"}}, "fielder": {"athlete": {}}, "minutes": 0, "retiredText": ""}}, {"id": "244070", "clock": "00:00", "date": "2019-05-07T10:45", "playType": {"id": "1", "description": "run"}, "team": {"id": "25", "name": "Bangladesh", "abbreviation": "BDESH", "displayName": "Bangladesh"}, "mediaId": 0, "period": 2, "periodText": "2nd innings", "preText": "", "text": "length ball drives to covers for single", "postText": "", "shortText": "Cottrell to Mushfiqur Rahim, 1 run", "homeScore": "0", "awayScore": "260/2", "scoreValue": 1, "sequence": 204407, "athletesInvolved": [{"id": "495551", "name": "Sheldon Cottrell", "shortName": "Cottrell", "displayName": "Sheldon Cottrell"}, {"id": "56029", "name": "Mushfiqur Rahim", "shortName": "Mushfiqur", "displayName": "Mushfiqur Rahim"}], "speedKPH": "", "speedMPH": "", "bowler": {"athlete": {"id": "495551", "name": "Sheldon Cottrell", "shortName": "Cottrell", "fullName": "Sheldon Shane Cottrell", "displayName": "Sheldon Cottrell"}, "team": {"id": "4", "name": "West Indies", "abbreviation": "WI", "displayName": "West Indies"}, "maidens": 0, "balls": 41, "wickets": 0, "overs": 6.5, "conceded": 43}, "otherBowler": {"athlete": {"id": "391832", "name": "Roston Chase", "shortName": "Chase", "fullName": "Roston Lamar Chase", "displayName": "Roston Chase"}, "team": {"id": "4", "name": "West Indies", "abbreviation": "WI", "displayName": "West Indies"}, "maidens": 0, "balls": 60, "wickets": 1, "overs": 10.0, "conceded": 51}, "batsman": {"athlete": {"id": "56029", "name": "Mushfiqur Rahim", "shortName": "Mushfiqur", "fullName": "Mohammad Mushfiqur Rahim", "displayName": "Mushfiqur Rahim"}, "team": {"id": "25", "name": "Bangladesh", "abbreviation": "BDESH", "displayName": "Bangladesh"}, "totalRuns": 32, "faced": 25, "fours": 2, "runs": 260, "sixes": 2}, "otherBatsman": {"athlete": {"id": "56143", "name": "Shakib Al Hasan", "shortName": "Shakib", "fullName": "Shakib Al Hasan", "displayName": "Shakib Al Hasan"}, "team": {"id": "25", "name": "Bangladesh", "abbreviation": "BDESH", "displayName": "Bangladesh"}, "totalRuns": 57, "faced": 60, "fours": 2, "runs": 0, "sixes": 2}, "innings": {"id": "215434", "runRate": 5.79, "remainingBalls": 31, "byes": 0, "number": 2, "balls": 269, "noBalls": 0, "requiredRunRate": "0.38", "wickets": 2, "legByes": 0, "ballLimit": 300, "target": 262, "session": 1, "day": 1, "fallOfWickets": 0, "remainingRuns": "2", "remainingOvers": 5.0, "totalRuns": 1, "wides": 0, "runs": 260}, "over": {"ball": 7, "balls": 6, "complete": false, "limit": 50.0, "maiden": 0, "noBall": 0, "wide": 0, "byes": 0, "legByes": 0, "number": 45, "runs": 19, "wickets": 0, "overs": 44.5, "actual": 44.5, "unique": 44.07}, "dismissal": {"dismissal": false, "bowled": false, "type": "", "bowler": {"athlete": {"id": "495551", "name": "Sheldon Cottrell", "shortName": "Cottrell", "fullName": "Sheldon Shane Cottrell", "displayName": "Sheldon Cottrell"}}, "batsman": {"athlete": {"id": "56029", "name": "Mushfiqur Rahim", "shortName": "Mushfiqur", "fullName": "Mohammad Mushfiqur Rahim", "displayName": "Mushfiqur Rahim"}}, "fielder": {"athlete": {}}, "minutes": 0, "retiredText": ""}}, {"id": "244080", "clock": "00:00", "date": "2019-05-07T10:45", "playType": {"id": "3", "description": "four"}, "team": {"id": "25", "name": "Bangladesh", "abbreviation": "BDESH", "displayName": "Bangladesh"}, "mediaId": 0, "period": 2, "periodText": "2nd innings", "preText": "", "text": "full toss, straight drive for four and that's the match", "postText": "Due to a technical problem, we were unable to bring you a more detailed coverage of this match. Thanks for joining. That's all from us for tonight\n\nThree fifties, three fifty run stands, needless to say that was a romp. Set up by the openers, who added 144 without much trouble, before Shakib al Hasan joined in, with a run-a-ball 61 and finished the game off in Mushfiqur Rahim's company", "shortText": "Cottrell to Shakib Al Hasan, FOUR runs", "homeScore": "0", "awayScore": "264/2", "scoreValue": 4, "sequence": 204408, "athletesInvolved": [{"id": "495551", "name": "Sheldon Cottrell", "shortName": "Cottrell", "displayName": "Sheldon Cottrell"}, {"id": "56143", "name": "Shakib Al Hasan", "shortName": "Shakib", "displayName": "Shakib Al Hasan"}], "speedKPH": "", "speedMPH": "", "bowler": {"athlete": {"id": "495551", "name": "Sheldon Cottrell", "shortName": "Cottrell", "fullName": "Sheldon Shane Cottrell", "displayName": "Sheldon Cottrell"}, "team": {"id": "4", "name": "West Indies", "abbreviation": "WI", "displayName": "West Indies"}, "maidens": 0, "balls": 42, "wickets": 0, "overs": 7.0, "conceded": 47}, "otherBowler": {"athlete": {"id": "391832", "name": "Roston Chase", "shortName": "Chase", "fullName": "Roston Lamar Chase", "displayName": "Roston Chase"}, "team": {"id": "4", "name": "West Indies", "abbreviation": "WI", "displayName": "West Indies"}, "maidens": 0, "balls": 60, "wickets": 1, "overs": 10.0, "conceded": 51}, "batsman": {"athlete": {"id": "56143", "name": "Shakib Al Hasan", "shortName": "Shakib", "fullName": "Shakib Al Hasan", "displayName": "Shakib Al Hasan"}, "team": {"id": "25", "name": "Bangladesh", "abbreviation": "BDESH", "displayName": "Bangladesh"}, "totalRuns": 61, "faced": 61, "fours": 3, "runs": 264, "sixes": 2}, "otherBatsman": {"athlete": {"id": "56029", "name": "Mushfiqur Rahim", "shortName": "Mushfiqur", "fullName": "Mohammad Mushfiqur Rahim", "displayName": "Mushfiqur Rahim"}, "team": {"id": "25", "name": "Bangladesh", "abbreviation": "BDESH", "displayName": "Bangladesh"}, "totalRuns": 32, "faced": 25, "fours": 2, "runs": 0, "sixes": 2}, "innings": {"id": "215434", "runRate": 5.86, "remainingBalls": 30, "byes": 0, "number": 2, "balls": 270, "noBalls": 0, "wickets": 2, "legByes": 0, "ballLimit": 300, "target": 262, "session": 1, "day": 1, "fallOfWickets": 0, "remainingOvers": 5.0, "totalRuns": 4, "wides": 0, "runs": 264}, "over": {"ball": 8, "balls": 6, "complete": true, "limit": 50.0, "maiden": 0, "noBall": 0, "wide": 0, "byes": 0, "legByes": 0, "number": 45, "runs": 19, "wickets": 0, "overs": 44.6, "actual": 44.6, "unique": 44.08}, "dismissal": {"dismissal": false, "bowled": false, "type": "", "bowler": {"athlete": {"id": "495551", "name": "Sheldon Cottrell", "shortName": "Cottrell", "fullName": "Sheldon Shane Cottrell", "displayName": "Sheldon Cottrell"}}, "batsman": {"athlete": {"id": "56143", "name": "Shakib Al Hasan", "shortName": "Shakib", "fullName": "Shakib Al Hasan", "displayName": "Shakib Al Hasan"}}, "fielder": {"athlete": {}}, "minutes": 0, "retiredText": ""}}]}}