{"commentary": {"count": 305, "pageIndex": 13, "pageSize": 25, "pageCount": 13, "items": [{"id": "149030", "clock": "00:00", "date": "2019-05-07T10:45", "playType": {"id": "1", "description": "run"}, "team": {"id": "4", "name": "West Indies", "abbreviation": "WI", "displayName": "West Indies"}, "mediaId": 0, "period": 1, "periodText": "1st innings", "preText": "", "text": "", "postText": "", "shortText": "Mustafizur Rahman to Cottrell, 2 runs", "homeScore": "256/8", "awayScore": "0", "scoreValue": 2, "sequence": 104903, "athletesInvolved": [{"id": "330902", "name": "Mustafizur Rahman", "shortName": "Mustafizur", "displayName": "Mustafizur Rahman"}, {"id": "495551", "name": "Sheldon Cottrell", "shortName": "Cottrell", "displayName": "Sheldon Cottrell"}], "speedKPH": "", "speedMPH": "", "bowler": {"athlete": {"id": "330902", "name": "Mustafizur Rahman", "shortName": "Mustafizur", "fullName": "Mustafizur Rahman", "displayName": "Mustafizur Rahman"}, "team": {"id": "25", "name": "Bangladesh", "abbreviation": "BDESH", "displayName": "Bangladesh"}, "maidens": 0, "balls": 57, "wickets": 1, "overs": 9.3, "conceded": 80}, "otherBowler": {"athlete": {"id": "629070", "name": "Mohammad Saifuddin", "shortName": "Saifuddin", "fullName": "Mohammad Saifuddin", "displayName": "Mohammad Saifuddin"}, "team": {"id": "25", "name": "Bangladesh", "abbreviation": "BDESH", "displayName": "Bangladesh"}, "maidens": 1, "balls": 60, "wickets": 2, "overs": 10.0, "conceded": 47}, "batsman": {"athlete": {"id": "495551", "name": "Sheldon Cottrell", "shortName": "Cottrell", "fullName": "Sheldon Shane Cottrell", "displayName": "Sheldon Cottrell"}, "team": {"id": "4", "name": "West Indies", "abbreviation": "WI", "displayName": "West Indies"}, "totalRuns": 3, "faced": 5, "fours": 0, "runs": 256, "sixes": 0}, "otherBatsman": {"athlete": {"id": "315594", "name": "Ashley Nurse", "shortName": "Nurse", "fullName": "Ashley Renaldo Nurse", "displayName": "Ashley Nurse"}, "team": {"id": "4", "name": "West Indies", "abbreviation": "WI", "displayName": "West Indies"}, "totalRuns": 17, "faced": 15, "fours": 0, "runs": 0, "sixes": 1}, "innings": {"id": "215433", "runRate": 5.17, "remainingBalls": 3, "byes": 0, "number": 1, "balls": 297, "noBalls": 0, "wickets": 8, "legByes": 0, "ballLimit": 300, "target": 0, "session": 1, "day": 1, "fallOfWickets": 0, "remainingOvers": 0.0, "totalRuns": 2, "wides": 0, "runs": 256}, "over": {"ball": 3, "balls": 6, "complete": false, "limit": 50.0, "maiden": 0, "noBall": 0, "wide": 0, "byes": 0, "legByes": 0, "number": 50, "runs": 8, "wickets": 1, "overs": 49.3, "actual": 49.3, "unique": 49.03}, "dismissal": {"dismissal": false, "bowled": false, "type": "", "bowler": {"athlete": {"id": "330902", "name": "Mustafizur Rahman", "shortName": "Mustafizur", "fullName": "Mustafizur Rahman", "displayName": "Mustafizur Rahman"}}, "batsman": {"athlete": {"id": "495551", "name": "Sheldon Cottrell", "shortName": "Cottrell", "fullName": "Sheldon Shane Cottrell", "displayName": "Sheldon Cottrell"}}, "fielder": {"athlete": {}}, "minutes": 0, "retiredText": ""}}, {"id": "149040", "clock": "00:00", "date": "2019-05-07T10:45", "playType": {"id": "5", "description": "no ball"}, "team": {"id": "4", "name": "West Indies", "abbreviation": "WI", "displayName": "West Indies"}, "mediaId": 0, "period": 1, "periodText": "1st innings", "preText": "", "text": "high full toss, angled across, called a no-ball for height and that'll be a free hit", "postText": "", "shortText": "Mustafizur Rahman to Cottrell, 2 no ball", "homeScore": "258/8", "awayScore": "0", "scoreValue": 1, "sequence": 104904, "athletesInvolved": [{"id": "330902", "name": "Mustafizur Rahman", "shortName": "Mustafizur", "displayName": "Mustafizur Rahman"}, {"id": "495551", "name": "Sheldon Cottrell", "shortName": "Cottrell", "displayName": "Sheldon Cottrell"}], "speedKPH": "", "speedMPH": "", "bowler": {"athlete": {"id": "330902", "name": "Mustafizur Rahman", "shortName": "Mustafizur", "fullName": "Mustafizur Rahman", "displayName": "Mustafizur Rahman"}, "team": {"id": "25", "name": "Bangladesh", "abbreviation": "BDESH", "displayName": "Bangladesh"}, "maidens": 0, "balls": 57, "wickets": 1, "overs": 9.3, "conceded": 81}, "otherBowler": {"athlete": {"id": "629070", "name": "Mohammad Saifuddin", "shortName": "Saifuddin", "fullName": "Mohammad Saifuddin", "displayName": "Mohammad Saifuddin"}, "team": {"id": "25", "name": "Bangladesh", "abbreviation": "BDESH", "displayName": "Bangladesh"}, "maidens": 1, "balls": 60, "wickets": 2, "overs": 10.0, "conceded": 47}, "batsman": {"athlete": {"id": "495551", "name": "Sheldon Cottrell", "shortName": "Cottrell", "fullName": "Sheldon Shane Cottrell", "displayName": "Sheldon Cottrell"}, "team": {"id": "4", "name": "West Indies", "abbreviation": "WI", "displayName": "West Indies"}, "totalRuns": 3, "faced": 6, "fours": 0, "runs": 258, "sixes": 0}, "otherBatsman": {"athlete": {"id": "315594", "name": "Ashley Nurse", "shortName": "Nurse", "fullName": "Ashley Renaldo Nurse", "displayName": "Ashley Nurse"}, "team": {"id": "4", "name": "West Indies", "abbreviation": "WI", "displayName": "West Indies"}, "totalRuns": 17, "faced": 15, "fours": 0, "runs": 0, "sixes": 1}, "innings": {"id": "215433", "runRate": 5.21, "remainingBalls": 3, "byes": 1, "number": 1, "balls": 297, "noBalls": 1, "wickets": 8, "legByes": 0, "ballLimit": 300, "target": 0, "session": 1, "day": 1, "fallOfWickets": 0, "remainingOvers": 0.0, "totalRuns": 2, "wides": 0, "runs": 258}, "over": {"ball": 4, "balls": 6, "complete": false, "limit": 50.0, "maiden": 0, "noBall": 1, "wide": 0, "byes": 1, "legByes": 0, "number": 50, "runs": 8, "wickets": 1, "overs": 49.3, "actual": 49.4, "unique": 49.04}, "dismissal": {"dismissal": false, "bowled": false, "type": "", "bowler": {"athlete": {"id": "330902", "name": "Mustafizur Rahman", "shortName": "Mustafizur", "fullName": "Mustafizur Rahman", "displayName": "Mustafizur Rahman"}}, "batsman": {"athlete": {"id": "495551", "name": "Sheldon Cottrell", "shortName": "Cottrell", "fullName": "Sheldon Shane Cottrell", "displayName": "Sheldon Cottrell"}}, "fielder": {"athlete": {}}, "minutes": 0, "retiredText": ""}}, {"id": "149050", "clock": "00:00", "date": "2019-05-07T10:45", "playType": {"id": "1", "description": "run"}, "team": {"id": "4", "name": "West Indies", "abbreviation": "WI", "displayName": "West Indies"}, "mediaId": 0, "period": 1, "periodText": "1st innings", "preText": "", "text": "full on middle, picked up towards long-on for a couple", "postText": "", "shortText": "Mustafizur Rahman to Nurse, 2 runs", "homeScore": "260/8", "awayScore": "0", "scoreValue": 2, "sequence": 104905, "athletesInvolved": [{"id": "330902", "name": "Mustafizur Rahman", "shortName": "Mustafizur", "displayName": "Mustafizur Rahman"}, {"id": "315594", "name": "Ashley Nurse", "shortName": "Nurse", "displayName": "Ashley Nurse"}], "speedKPH": "", "speedMPH": "", "bowler": {"athlete": {"id": "330902", "name": "Mustafizur Rahman", "shortName": "Mustafizur", "fullName": "Mustafizur Rahman", "displayName": "Mustafizur Rahman"}, "team": {"id": "25", "name": "Bangladesh", "abbreviation": "BDESH", "displayName": "Bangladesh"}, "maidens": 0, "balls": 58, "wickets": 1, "overs": 9.4, "conceded": 83}, "otherBowler": {"athlete": {"id": "629070", "name": "Mohammad Saifuddin", "shortName": "Saifuddin", "fullName": "Mohammad Saifuddin", "displayName": "Mohammad Saifuddin"}, "team": {"id": "25", "name": "Bangladesh", "abbreviation": "BDESH", "displayName": "Bangladesh"}, "maidens": 1, "balls": 60, "wickets": 2, "overs": 10.0, "conceded": 47}, "batsman": {"athlete": {"id": "315594", "name": "Ashley Nurse", "shortName": "Nurse", "fullName": "Ashley Renaldo Nurse", "displayName": "Ashley Nurse"}, "team": {"id": "4", "name": "West Indies", "abbreviation": "WI", "displayName": "West Indies"}, "totalRuns": 19, "faced": 16, "fours": 0, "runs": 260, "sixes": 1}, "otherBatsman": {"athlete": {"id": "495551", "name": "Sheldon Cottrell", "shortName": "Cottrell", "fullName": "Sheldon Shane Cottrell", "displayName": "Sheldon Cottrell"}, "team": {"id": "4", "name": "West Indies", "abbreviation": "WI", "displayName": "West Indies"}, "totalRuns": 3, "faced": 6, "fours": 0, "runs": 0, "sixes": 0}, "innings": {"id": "215433", "runRate": 5.23, "remainingBalls": 2, "byes": 0, "number": 1, "balls": 298, "noBalls": 0, "wickets": 8, "legByes": 0, "ballLimit": 300, "target": 0, "session": 1, "day": 1, "fallOfWickets": 0, "remainingOvers": 0.0, "totalRuns": 2, "wides": 0, "runs": 260}, "over": {"ball": 5, "balls": 6, "complete": false, "limit": 50.0, "maiden": 0, "noBall": 0, "wide": 0, "byes": 0, "legByes": 0, "number": 50, "runs": 8, "wickets": 1, "overs": 49.4, "actual": 49.4, "unique": 49.05}, "dismissal": {"dismissal": false, "bowled": false, "type": "", "bowler": {"athlete": {"id": "330902", "name": "Mustafizur Rahman", "shortName": "Mustafizur", "fullName": "Mustafizur Rahman", "displayName": "Mustafizur Rahman"}}, "batsman": {"athlete": {"id": "315594", "name": "Ashley Nurse", "shortName": "Nurse", "fullName": "Ashley Renaldo Nurse", "displayName": "Ashley Nurse"}}, "fielder": {"athlete": {}}, "minutes": 0, "retiredText": ""}}, {"id": "149060", "clock": "00:00", "date": "2019-05-07T10:45", "playType": {"id": "9", "description": "out"}, "team": {"id": "4", "name": "West Indies", "abbreviation": "WI", "displayName": "West Indies"}, "mediaId": 0, "period": 1, "periodText": "1st innings", "preText": "", "text": "full toss on middle, hammered flat and hard towards long-on, the fielder comes running forward and holds on", "postText": "", "shortText": "Mustafizur Rahman to Nurse, OUT", "homeScore": "260/9", "awayScore": "0", "scoreValue": 0, "sequence": 104906, "athletesInvolved": [{"id": "330902", "name": "Mustafizur Rahman", "shortName": "Mustafizur", "displayName": "Mustafizur Rahman"}, {"id": "373538", "name": "Sabbir Rahman", "shortName": "Sabbir", "displayName": "Sabbir Rahman"}, {"id": "315594", "name": "Ashley Nurse", "shortName": "Nurse", "displayName": "Ashley Nurse"}], "speedKPH": "", "speedMPH": "", "bowler": {"athlete": {"id": "330902", "name": "Mustafizur Rahman", "shortName": "Mustafizur", "fullName": "Mustafizur Rahman", "displayName": "Mustafizur Rahman"}, "team": {"id": "25", "name": "Bangladesh", "abbreviation": "BDESH", "displayName": "Bangladesh"}, "maidens": 0, "balls": 59, "wickets": 2, "overs": 9.5, "conceded": 83}, "otherBowler": {"athlete": {"id": "629070", "name": "Mohammad Saifuddin", "shortName": "Saifuddin", "fullName": "Mohammad Saifuddin", "displayName": "Mohammad Saifuddin"}, "team": {"id": "25", "name": "Bangladesh", "abbreviation": "BDESH", "displayName": "Bangladesh"}, "maidens": 1, "balls": 60, "wickets": 2, "overs": 10.0, "conceded": 47}, "batsman": {"athlete": {"id": "315594", "name": "Ashley Nurse", "shortName": "Nurse", "fullName": "Ashley Renaldo Nurse", "displayName": "Ashley Nurse"}, "team": {"id": "4", "name": "West Indies", "abbreviation": "WI", "displayName": "West Indies"}, "totalRuns": 19, "faced": 17, "fours": 0, "runs": 260, "sixes": 1}, "otherBatsman": {"athlete": {"id": "495551", "name": "Sheldon Cottrell", "shortName": "Cottrell", "fullName": "Sheldon Shane Cottrell", "displayName": "Sheldon Cottrell"}, "team": {"id": "4", "name": "West Indies", "abbreviation": "WI", "displayName": "West Indies"}, "totalRuns": 3, "faced": 6, "fours": 0, "runs": 0, "sixes": 0}, "innings": {"id": "215433", "runRate": 5.21, "remainingBalls": 1, "byes": 0, "number": 1, "balls": 299, "noBalls": 0, "wickets": 9, "legByes": 0, "ballLimit": 300, "target": 0, "session": 1, "day": 1, "fallOfWickets": 9, "remainingOvers": 0.0, "totalRuns": 0, "wides": 0, "runs": 260}, "over": {"ball": 6, "balls": 6, "complete": false, "limit": 50.0, "maiden": 0, "noBall": 0, "wide": 0, "byes": 0, "legByes": 0, "number": 50, "runs": 8, "wickets": 1, "overs": 49.5, "actual": 49.5, "unique": 49.06}, "dismissal": {"dismissal": true, "bowled": true, "type": "caught", "bowler": {"athlete": {"id": "330902", "name": "Mustafizur Rahman", "shortName": "Mustafizur", "fullName": "Mustafizur Rahman", "displayName": "Mustafizur Rahman"}}, "batsman": {"athlete": {"id": "315594", "name": "Ashley Nurse", "shortName": "Nurse", "fullName": "Ashley Renaldo Nurse", "displayName": "Ashley Nurse"}}, "fielder": {"athlete": {}}, "minutes": 31, "retiredText": "", "text": "AR Nurse c Sabbir Rahman b Mustafizur Rahman 19 (31m 17b 0x4 1x6) SR: 111.76"}}, {"id": "149070", "clock": "00:00", "date": "2019-05-07T10:45", "playType": {"id": "1", "description": "run"}, "team": {"id": "4", "name": "West Indies", "abbreviation": "WI", "displayName": "West Indies"}, "mediaId": 0, "period": 1, "periodText": "1st innings", "preText": "", "text": "", "postText": "An emphatic come back from Bangladesh after a hundred from Shai Hope and a fifty from Roston chase had laid a solid foundation to launch from.  Mashrafe Mortaza dismissed both in the space of three balls, across two overs, and then got rid of Jason Holder as well. Only 64 came from the final ten, but you wouldn't exactly call this wicket a feather bed, so Bangladesh will have to work hard for these runs. Back with the chase soon", "shortText": "Mustafizur Rahman to Cottrell, 1 run", "homeScore": "261/9", "awayScore": "0", "scoreValue": 1, "sequence": 104907, "athletesInvolved": [{"id": "330902", "name": "Mustafizur Rahman", "shortName": "Mustafizur", "displayName": "Mustafizur Rahman"}, {"id": "495551", "name": "Sheldon Cottrell", "shortName": "Cottrell", "displayName": "Sheldon Cottrell"}], "speedKPH": "", "speedMPH": "", "bowler": {"athlete": {"id": "330902", "name": "Mustafizur Rahman", "shortName": "Mustafizur", "fullName": "Mustafizur Rahman", "displayName": "Mustafizur Rahman"}, "team": {"id": "25", "name": "Bangladesh", "abbreviation": "BDESH", "displayName": "Bangladesh"}, "maidens": 0, "balls": 60, "wickets": 2, "overs": 10.0, "conceded": 84}, "otherBowler": {"athlete": {"id": "629070", "name": "Mohammad Saifuddin", "shortName": "Saifuddin", "fullName": "Mohammad Saifuddin", "displayName": "Mohammad Saifuddin"}, "team": {"id": "25", "name": "Bangladesh", "abbreviation": "BDESH", "displayName": "Bangladesh"}, "maidens": 1, "balls": 60, "wickets": 2, "overs": 10.0, "conceded": 47}, "batsman": {"athlete": {"id": "495551", "name": "Sheldon Cottrell", "shortName": "Cottrell", "fullName": "Sheldon Shane Cottrell", "displayName": "Sheldon Cottrell"}, "team": {"id": "4", "name": "West Indies", "abbreviation": "WI", "displayName": "West Indies"}, "totalRuns": 4, "faced": 7, "fours": 0, "runs": 261, "sixes": 0}, "otherBatsman": {"athlete": {"id": "446101", "name": "Shannon Gabriel", "shortName": "Gabriel", "fullName": "Shannon Terry Gabriel", "displayName": "Shannon Gabriel"}, "team": {"id": "4", "name": "West Indies", "abbreviation": "WI", "displayName": "West Indies"}, "totalRuns": 0, "faced": 0, "fours": 0, "runs": 0, "sixes": 0}, "innings": {"id": "215433", "runRate": 5.22, "remainingBalls": 0, "byes": 0, "number": 1, "balls": 300, "noBalls": 0, "wickets": 9, "legByes": 0, "ballLimit": 300, "target": 0, "session": 1, "day": 1, "fallOfWickets": 0, "remainingOvers": 0.0, "totalRuns": 1, "wides": 0, "runs": 261}, "over": {"ball": 7, "balls": 6, "complete": true, "limit": 50.0, "maiden": 0, "noBall": 0, "wide": 0, "byes": 0, "legByes": 0, "number": 48, "runs": 10, "wickets": 1, "overs": 49.6, "actual": 49.6, "unique": 49.07}, "dismissal": {"dismissal": false, "bowled": false, "type": "", "bowler": {"athlete": {"id": "330902", "name": "Mustafizur Rahman", "shortName": "Mustafizur", "fullName": "Mustafizur Rahman", "displayName": "Mustafizur Rahman"}}, "batsman": {"athlete": {"id": "495551", "name": "Sheldon Cottrell", "shortName": "Cottrell", "fullName": "Sheldon Shane Cottrell", "displayName": "Sheldon Cottrell"}}, "fielder": {"athlete": {}}, "minutes": 0, "retiredText": ""}}]}}