{"commentary": {"count": 307, "pageIndex": 13, "pageSize": 25, "pageCount": 13, "items": [{"id": "148060", "clock": "00:00", "date": "2018-01-19T12:00", "playType": {"id": "1", "description": "run"}, "team": {"id": "25", "name": "Bangladesh", "abbreviation": "BDESH", "displayName": "Bangladesh"}, "mediaId": 0, "period": 1, "periodText": "1st innings", "preText": "", "text": "backs away to a yorker on middle, squeezed out to square third man. Top over from Perera", "postText": "", "shortText": "NLTC Perera to Mohammad Saifuddin, 1 run", "homeScore": "301/7", "awayScore": "0", "scoreValue": 1, "sequence": 104806, "athletesInvolved": [{"id": "629070", "name": "Mohammad Saifuddin", "shortName": "Saifuddin", "displayName": "Mohammad Saifuddin"}, {"id": "233514", "name": "Thisara Perera", "shortName": "Perera", "displayName": "Thisara Perera"}], "speedKPH": "", "speedMPH": "", "bowler": {"athlete": {"id": "233514", "name": "Thisara Perera", "shortName": "Perera", "fullName": "Narangoda Liyanaarachchilage Thisara Chirantha Perera", "displayName": "Thisara Perera"}, "team": {"id": "8", "name": "Sri Lanka", "abbreviation": "SL", "displayName": "Sri Lanka"}, "maidens": 0, "balls": 54, "wickets": 3, "overs": 9.0, "conceded": 60}, "otherBowler": {"athlete": {"id": "324358", "name": "Nuwan Pradeep", "shortName": "Pradeep", "fullName": "Aththachchi Nuwan Pradeep Roshan Fernando", "displayName": "Nuwan Pradeep"}, "team": {"id": "8", "name": "Sri Lanka", "abbreviation": "SL", "displayName": "Sri Lanka"}, "maidens": 0, "balls": 60, "wickets": 2, "overs": 10.0, "conceded": 66}, "batsman": {"athlete": {"id": "629070", "name": "Mohammad Saifuddin", "shortName": "Saifuddin", "fullName": "Mohammad Saifuddin", "displayName": "Mohammad Saifuddin"}, "team": {"id": "25", "name": "Bangladesh", "abbreviation": "BDESH", "displayName": "Bangladesh"}, "totalRuns": 2, "faced": 3, "fours": 0, "runs": 301, "sixes": 0}, "otherBatsman": {"athlete": {"id": "373538", "name": "Sabbir Rahman", "shortName": "Sabbir", "fullName": "Mohammad Sabbir Rahman", "displayName": "Sabbir Rahman"}, "team": {"id": "25", "name": "Bangladesh", "abbreviation": "BDESH", "displayName": "Bangladesh"}, "totalRuns": 10, "faced": 8, "fours": 1, "runs": 0, "sixes": 0}, "innings": {"id": "202064", "runRate": 6.14, "remainingBalls": 6, "byes": 0, "number": 1, "balls": 294, "noBalls": 0, "wickets": 7, "legByes": 0, "ballLimit": 300, "target": 0, "session": 1, "day": 1, "fallOfWickets": 0, "remainingOvers": 0.0, "totalRuns": 1, "wides": 0, "runs": 301}, "over": {"ball": 6, "balls": 6, "complete": true, "limit": 50.0, "maiden": 0, "noBall": 0, "wide": 0, "byes": 0, "legByes": 0, "number": 49, "runs": 4, "wickets": 1, "overs": 48.6, "actual": 48.6, "unique": 48.06}, "dismissal": {"dismissal": false, "bowled": false, "type": "", "bowler": {"athlete": {"id": "233514", "name": "Thisara Perera", "shortName": "Perera", "fullName": "Narangoda Liyanaarachchilage Thisara Chirantha Perera", "displayName": "Thisara Perera"}}, "batsman": {"athlete": {"id": "629070", "name": "Mohammad Saifuddin", "shortName": "Saifuddin", "fullName": "Mohammad Saifuddin", "displayName": "Mohammad Saifuddin"}}, "fielder": {"athlete": {}}, "minutes": 0, "retiredText": ""}}, {"id": "149010", "clock": "00:00", "date": "2018-01-19T12:00", "playType": {"id": "3", "description": "four"}, "team": {"id": "25", "name": "Bangladesh", "abbreviation": "BDESH", "displayName": "Bangladesh"}, "mediaId": 0, "period": 1, "periodText": "1st innings", "preText": "Lakmal to bowl the last over", "text": "goes for a yorker and fires a full toss on leg that Saifuddin backs away and punches down the ground", "postText": "", "shortText": "Lakmal to Mohammad Saifuddin, FOUR runs", "homeScore": "305/7", "awayScore": "0", "scoreValue": 4, "sequence": 104901, "athletesInvolved": [{"id": "49619", "name": "Suranga Lakmal", "shortName": "Lakmal", "displayName": "Suranga Lakmal"}, {"id": "629070", "name": "Mohammad Saifuddin", "shortName": "Saifuddin", "displayName": "Mohammad Saifuddin"}], "speedKPH": "", "speedMPH": "", "bowler": {"athlete": {"id": "49619", "name": "Suranga Lakmal", "shortName": "Lakmal", "fullName": "Ranasinghe Arachchige Suranga Lakmal", "displayName": "Suranga Lakmal"}, "team": {"id": "8", "name": "Sri Lanka", "abbreviation": "SL", "displayName": "Sri Lanka"}, "maidens": 0, "balls": 49, "wickets": 0, "overs": 8.1, "conceded": 46}, "otherBowler": {"athlete": {"id": "233514", "name": "Thisara Perera", "shortName": "Perera", "fullName": "Narangoda Liyanaarachchilage Thisara Chirantha Perera", "displayName": "Thisara Perera"}, "team": {"id": "8", "name": "Sri Lanka", "abbreviation": "SL", "displayName": "Sri Lanka"}, "maidens": 0, "balls": 54, "wickets": 3, "overs": 9.0, "conceded": 60}, "batsman": {"athlete": {"id": "629070", "name": "Mohammad Saifuddin", "shortName": "Saifuddin", "fullName": "Mohammad Saifuddin", "displayName": "Mohammad Saifuddin"}, "team": {"id": "25", "name": "Bangladesh", "abbreviation": "BDESH", "displayName": "Bangladesh"}, "totalRuns": 6, "faced": 4, "fours": 1, "runs": 305, "sixes": 0}, "otherBatsman": {"athlete": {"id": "373538", "name": "Sabbir Rahman", "shortName": "Sabbir", "fullName": "Mohammad Sabbir Rahman", "displayName": "Sabbir Rahman"}, "team": {"id": "25", "name": "Bangladesh", "abbreviation": "BDESH", "displayName": "Bangladesh"}, "totalRuns": 10, "faced": 8, "fours": 1, "runs": 0, "sixes": 0}, "innings": {"id": "202064", "runRate": 6.2, "remainingBalls": 5, "byes": 0, "number": 1, "balls": 295, "noBalls": 0, "wickets": 7, "legByes": 0, "ballLimit": 300, "target": 0, "session": 1, "day": 1, "fallOfWickets": 0, "remainingOvers": 0.0, "totalRuns": 4, "wides": 0, "runs": 305}, "over": {"ball": 1, "balls": 6, "complete": false, "limit": 50.0, "maiden": 0, "noBall": 0, "wide": 0, "byes": 0, "legByes": 0, "number": 50, "runs": 19, "wickets": 0, "overs": 49.1, "actual": 49.1, "unique": 49.01}, "dismissal": {"dismissal": false, "bowled": false, "type": "", "bowler": {"athlete": {"id": "49619", "name": "Suranga Lakmal", "shortName": "Lakmal", "fullName": "Ranasinghe Arachchige Suranga Lakmal", "displayName": "Suranga Lakmal"}}, "batsman": {"athlete": {"id": "629070", "name": "Mohammad Saifuddin", "shortName": "Saifuddin", "fullName": "Mohammad Saifuddin", "displayName": "Mohammad Saifuddin"}}, "fielder": {"athlete": {}}, "minutes": 0, "retiredText": ""}}, {"id": "149020", "clock": "00:00", "date": "2018-01-19T12:00", "playType": {"id": "8", "description": "leg bye"}, "team": {"id": "25", "name": "Bangladesh", "abbreviation": "BDESH", "displayName": "Bangladesh"}, "mediaId": 0, "period": 1, "periodText": "1st innings", "preText": "", "text": "fires it down the leg side and the batsman is backing away. Just brushes the pad on its way to the right of the keeper", "postText": "", "shortText": "Lakmal to Mohammad Saifuddin, 1 leg bye", "homeScore": "306/7", "awayScore": "0", "scoreValue": 1, "sequence": 104902, "athletesInvolved": [{"id": "49619", "name": "Suranga Lakmal", "shortName": "Lakmal", "displayName": "Suranga Lakmal"}, {"id": "629070", "name": "Mohammad Saifuddin", "shortName": "Saifuddin", "displayName": "Mohammad Saifuddin"}], "speedKPH": "", "speedMPH": "", "bowler": {"athlete": {"id": "49619", "name": "Suranga Lakmal", "shortName": "Lakmal", "fullName": "Ranasinghe Arachchige Suranga Lakmal", "displayName": "Suranga Lakmal"}, "team": {"id": "8", "name": "Sri Lanka", "abbreviation": "SL", "displayName": "Sri Lanka"}, "maidens": 0, "balls": 50, "wickets": 0, "overs": 8.2, "conceded": 46}, "otherBowler": {"athlete": {"id": "233514", "name": "Thisara Perera", "shortName": "Perera", "fullName": "Narangoda Liyanaarachchilage Thisara Chirantha Perera", "displayName": "Thisara Perera"}, "team": {"id": "8", "name": "Sri Lanka", "abbreviation": "SL", "displayName": "Sri Lanka"}, "maidens": 0, "balls": 54, "wickets": 3, "overs": 9.0, "conceded": 60}, "batsman": {"athlete": {"id": "629070", "name": "Mohammad Saifuddin", "shortName": "Saifuddin", "fullName": "Mohammad Saifuddin", "displayName": "Mohammad Saifuddin"}, "team": {"id": "25", "name": "Bangladesh", "abbreviation": "BDESH", "displayName": "Bangladesh"}, "totalRuns": 6, "faced": 5, "fours": 1, "runs": 306, "sixes": 0}, "otherBatsman": {"athlete": {"id": "373538", "name": "Sabbir Rahman", "shortName": "Sabbir", "fullName": "Mohammad Sabbir Rahman", "displayName": "Sabbir Rahman"}, "team": {"id": "25", "name": "Bangladesh", "abbreviation": "BDESH", "displayName": "Bangladesh"}, "totalRuns": 10, "faced": 8, "fours": 1, "runs": 0, "sixes": 0}, "innings": {"id": "202064", "runRate": 6.2, "remainingBalls": 4, "byes": 0, "number": 1, "balls": 296, "noBalls": 0, "wickets": 7, "legByes": 1, "ballLimit": 300, "target": 0, "session": 1, "day": 1, "fallOfWickets": 0, "remainingOvers": 0.0, "totalRuns": 1, "wides": 0, "runs": 306}, "over": {"ball": 2, "balls": 6, "complete": false, "limit": 50.0, "maiden": 0, "noBall": 0, "wide": 0, "byes": 0, "legByes": 1, "number": 50, "runs": 19, "wickets": 0, "overs": 49.2, "actual": 49.2, "unique": 49.02}, "dismissal": {"dismissal": false, "bowled": false, "type": "", "bowler": {"athlete": {"id": "49619", "name": "Suranga Lakmal", "shortName": "Lakmal", "fullName": "Ranasinghe Arachchige Suranga Lakmal", "displayName": "Suranga Lakmal"}}, "batsman": {"athlete": {"id": "629070", "name": "Mohammad Saifuddin", "shortName": "Saifuddin", "fullName": "Mohammad Saifuddin", "displayName": "Mohammad Saifuddin"}}, "fielder": {"athlete": {}}, "minutes": 0, "retiredText": ""}}, {"id": "149030", "clock": "00:00", "date": "2018-01-19T12:00", "playType": {"id": "2", "description": "no run"}, "team": {"id": "25", "name": "Bangladesh", "abbreviation": "BDESH", "displayName": "Bangladesh"}, "mediaId": 0, "period": 1, "periodText": "1st innings", "preText": "", "text": "full outside off, backs away and hammers a drive to covers", "postText": "", "shortText": "Lakmal to Sabbir Rahman, no run", "homeScore": "306/7", "awayScore": "0", "scoreValue": 0, "sequence": 104903, "athletesInvolved": [{"id": "49619", "name": "Suranga Lakmal", "shortName": "Lakmal", "displayName": "Suranga Lakmal"}, {"id": "373538", "name": "Sabbir Rahman", "shortName": "Sabbir", "displayName": "Sabbir Rahman"}], "speedKPH": "", "speedMPH": "", "bowler": {"athlete": {"id": "49619", "name": "Suranga Lakmal", "shortName": "Lakmal", "fullName": "Ranasinghe Arachchige Suranga Lakmal", "displayName": "Suranga Lakmal"}, "team": {"id": "8", "name": "Sri Lanka", "abbreviation": "SL", "displayName": "Sri Lanka"}, "maidens": 0, "balls": 51, "wickets": 0, "overs": 8.3, "conceded": 46}, "otherBowler": {"athlete": {"id": "233514", "name": "Thisara Perera", "shortName": "Perera", "fullName": "Narangoda Liyanaarachchilage Thisara Chirantha Perera", "displayName": "Thisara Perera"}, "team": {"id": "8", "name": "Sri Lanka", "abbreviation": "SL", "displayName": "Sri Lanka"}, "maidens": 0, "balls": 54, "wickets": 3, "overs": 9.0, "conceded": 60}, "batsman": {"athlete": {"id": "373538", "name": "Sabbir Rahman", "shortName": "Sabbir", "fullName": "Mohammad Sabbir Rahman", "displayName": "Sabbir Rahman"}, "team": {"id": "25", "name": "Bangladesh", "abbreviation": "BDESH", "displayName": "Bangladesh"}, "totalRuns": 10, "faced": 9, "fours": 1, "runs": 306, "sixes": 0}, "otherBatsman": {"athlete": {"id": "629070", "name": "Mohammad Saifuddin", "shortName": "Saifuddin", "fullName": "Mohammad Saifuddin", "displayName": "Mohammad Saifuddin"}, "team": {"id": "25", "name": "Bangladesh", "abbreviation": "BDESH", "displayName": "Bangladesh"}, "totalRuns": 6, "faced": 5, "fours": 1, "runs": 0, "sixes": 0}, "innings": {"id": "202064", "runRate": 6.18, "remainingBalls": 3, "byes": 0, "number": 1, "balls": 297, "noBalls": 0, "wickets": 7, "legByes": 0, "ballLimit": 300, "target": 0, "session": 1, "day": 1, "fallOfWickets": 0, "remainingOvers": 0.0, "totalRuns": 0, "wides": 0, "runs": 306}, "over": {"ball": 3, "balls": 6, "complete": false, "limit": 50.0, "maiden": 0, "noBall": 0, "wide": 0, "byes": 0, "legByes": 0, "number": 50, "runs": 19, "wickets": 0, "overs": 49.3, "actual": 49.3, "unique": 49.03}, "dismissal": {"dismissal": false, "bowled": false, "type": "", "bowler": {"athlete": {"id": "49619", "name": "Suranga Lakmal", "shortName": "Lakmal", "fullName": "Ranasinghe Arachchige Suranga Lakmal", "displayName": "Suranga Lakmal"}}, "batsman": {"athlete": {"id": "373538", "name": "Sabbir Rahman", "shortName": "Sabbir", "fullName": "Mohammad Sabbir Rahman", "displayName": "Sabbir Rahman"}}, "fielder": {"athlete": {}}, "minutes": 0, "retiredText": ""}}, {"id": "149040", "clock": "00:00", "date": "2018-01-19T12:00", "playType": {"id": "3", "description": "four"}, "team": {"id": "25", "name": "Bangladesh", "abbreviation": "BDESH", "displayName": "Bangladesh"}, "mediaId": 0, "period": 1, "periodText": "1st innings", "preText": "", "text": "full, wide, carved over the cover fielder who leaps in the air. Extra cover runs back and Chandimal has pulled it back from just in front of the boundary. Or has he? Ah, he's pulled it back fine but the ball's hit the foot on its way back as he's crossing the boundary", "postText": "", "shortText": "Lakmal to Sabbir Rahman, FOUR runs", "homeScore": "310/7", "awayScore": "0", "scoreValue": 4, "sequence": 104904, "athletesInvolved": [{"id": "49619", "name": "Suranga Lakmal", "shortName": "Lakmal", "displayName": "Suranga Lakmal"}, {"id": "373538", "name": "Sabbir Rahman", "shortName": "Sabbir", "displayName": "Sabbir Rahman"}], "speedKPH": "", "speedMPH": "", "bowler": {"athlete": {"id": "49619", "name": "Suranga Lakmal", "shortName": "Lakmal", "fullName": "Ranasinghe Arachchige Suranga Lakmal", "displayName": "Suranga Lakmal"}, "team": {"id": "8", "name": "Sri Lanka", "abbreviation": "SL", "displayName": "Sri Lanka"}, "maidens": 0, "balls": 52, "wickets": 0, "overs": 8.4, "conceded": 50}, "otherBowler": {"athlete": {"id": "233514", "name": "Thisara Perera", "shortName": "Perera", "fullName": "Narangoda Liyanaarachchilage Thisara Chirantha Perera", "displayName": "Thisara Perera"}, "team": {"id": "8", "name": "Sri Lanka", "abbreviation": "SL", "displayName": "Sri Lanka"}, "maidens": 0, "balls": 54, "wickets": 3, "overs": 9.0, "conceded": 60}, "batsman": {"athlete": {"id": "373538", "name": "Sabbir Rahman", "shortName": "Sabbir", "fullName": "Mohammad Sabbir Rahman", "displayName": "Sabbir Rahman"}, "team": {"id": "25", "name": "Bangladesh", "abbreviation": "BDESH", "displayName": "Bangladesh"}, "totalRuns": 14, "faced": 10, "fours": 2, "runs": 310, "sixes": 0}, "otherBatsman": {"athlete": {"id": "629070", "name": "Mohammad Saifuddin", "shortName": "Saifuddin", "fullName": "Mohammad Saifuddin", "displayName": "Mohammad Saifuddin"}, "team": {"id": "25", "name": "Bangladesh", "abbreviation": "BDESH", "displayName": "Bangladesh"}, "totalRuns": 6, "faced": 5, "fours": 1, "runs": 0, "sixes": 0}, "innings": {"id": "202064", "runRate": 6.24, "remainingBalls": 2, "byes": 0, "number": 1, "balls": 298, "noBalls": 0, "wickets": 7, "legByes": 0, "ballLimit": 300, "target": 0, "session": 1, "day": 1, "fallOfWickets": 0, "remainingOvers": 0.0, "totalRuns": 4, "wides": 0, "runs": 310}, "over": {"ball": 4, "balls": 6, "complete": false, "limit": 50.0, "maiden": 0, "noBall": 0, "wide": 0, "byes": 0, "legByes": 0, "number": 50, "runs": 19, "wickets": 0, "overs": 49.4, "actual": 49.4, "unique": 49.04}, "dismissal": {"dismissal": false, "bowled": false, "type": "", "bowler": {"athlete": {"id": "49619", "name": "Suranga Lakmal", "shortName": "Lakmal", "fullName": "Ranasinghe Arachchige Suranga Lakmal", "displayName": "Suranga Lakmal"}}, "batsman": {"athlete": {"id": "373538", "name": "Sabbir Rahman", "shortName": "Sabbir", "fullName": "Mohammad Sabbir Rahman", "displayName": "Sabbir Rahman"}}, "fielder": {"athlete": {}}, "minutes": 0, "retiredText": ""}}, {"id": "149050", "clock": "00:00", "date": "2018-01-19T12:00", "playType": {"id": "4", "description": "six"}, "team": {"id": "25", "name": "Bangladesh", "abbreviation": "BDESH", "displayName": "Bangladesh"}, "mediaId": 0, "period": 1, "periodText": "1st innings", "preText": "", "text": "wristy! Very powerful wrists from Sabbir. Wants a yorker but not quite up there. Sabbir mows it over long-on to bring up <b>1000 ODI runs</b>", "postText": "", "shortText": "Lakmal to Sabbir Rahman, SIX runs", "homeScore": "316/7", "awayScore": "0", "scoreValue": 6, "sequence": 104905, "athletesInvolved": [{"id": "49619", "name": "Suranga Lakmal", "shortName": "Lakmal", "displayName": "Suranga Lakmal"}, {"id": "373538", "name": "Sabbir Rahman", "shortName": "Sabbir", "displayName": "Sabbir Rahman"}], "speedKPH": "", "speedMPH": "", "bowler": {"athlete": {"id": "49619", "name": "Suranga Lakmal", "shortName": "Lakmal", "fullName": "Ranasinghe Arachchige Suranga Lakmal", "displayName": "Suranga Lakmal"}, "team": {"id": "8", "name": "Sri Lanka", "abbreviation": "SL", "displayName": "Sri Lanka"}, "maidens": 0, "balls": 53, "wickets": 0, "overs": 8.5, "conceded": 56}, "otherBowler": {"athlete": {"id": "233514", "name": "Thisara Perera", "shortName": "Perera", "fullName": "Narangoda Liyanaarachchilage Thisara Chirantha Perera", "displayName": "Thisara Perera"}, "team": {"id": "8", "name": "Sri Lanka", "abbreviation": "SL", "displayName": "Sri Lanka"}, "maidens": 0, "balls": 54, "wickets": 3, "overs": 9.0, "conceded": 60}, "batsman": {"athlete": {"id": "373538", "name": "Sabbir Rahman", "shortName": "Sabbir", "fullName": "Mohammad Sabbir Rahman", "displayName": "Sabbir Rahman"}, "team": {"id": "25", "name": "Bangladesh", "abbreviation": "BDESH", "displayName": "Bangladesh"}, "totalRuns": 20, "faced": 11, "fours": 2, "runs": 316, "sixes": 1}, "otherBatsman": {"athlete": {"id": "629070", "name": "Mohammad Saifuddin", "shortName": "Saifuddin", "fullName": "Mohammad Saifuddin", "displayName": "Mohammad Saifuddin"}, "team": {"id": "25", "name": "Bangladesh", "abbreviation": "BDESH", "displayName": "Bangladesh"}, "totalRuns": 6, "faced": 5, "fours": 1, "runs": 0, "sixes": 0}, "innings": {"id": "202064", "runRate": 6.34, "remainingBalls": 1, "byes": 0, "number": 1, "balls": 299, "noBalls": 0, "wickets": 7, "legByes": 0, "ballLimit": 300, "target": 0, "session": 1, "day": 1, "fallOfWickets": 0, "remainingOvers": 0.0, "totalRuns": 6, "wides": 0, "runs": 316}, "over": {"ball": 5, "balls": 6, "complete": false, "limit": 50.0, "maiden": 0, "noBall": 0, "wide": 0, "byes": 0, "legByes": 0, "number": 50, "runs": 19, "wickets": 0, "overs": 49.5, "actual": 49.5, "unique": 49.05}, "dismissal": {"dismissal": false, "bowled": false, "type": "", "bowler": {"athlete": {"id": "49619", "name": "Suranga Lakmal", "shortName": "Lakmal", "fullName": "Ranasinghe Arachchige Suranga Lakmal", "displayName": "Suranga Lakmal"}}, "batsman": {"athlete": {"id": "373538", "name": "Sabbir Rahman", "shortName": "Sabbir", "fullName": "Mohammad Sabbir Rahman", "displayName": "Sabbir Rahman"}}, "fielder": {"athlete": {}}, "minutes": 0, "retiredText": ""}}, {"id": "149060", "clock": "00:00", "date": "2018-01-19T12:00", "playType": {"id": "3", "description": "four"}, "team": {"id": "25", "name": "Bangladesh", "abbreviation": "BDESH", "displayName": "Bangladesh"}, "mediaId": 0, "period": 1, "periodText": "1st innings", "preText": "", "text": "and now he overcompensates with the length and line. Too short, too wide and too predictable. Slapped straight over and it goes one-bounce over the boundary", "postText": "<b>3.45pm</b> A poor final over from Lakmal undoes some of the good work in the last ten overs by Sri Lanka. Thisara was especially magnificent in the penultimate over, never missed the blockhole. It's been a clinic from the Bangladesh batting order. Contributions all the way from the top to the lower middle order. They have optimised good batting conditions but still need to bowl well. And remember they will have dew to contend with.", "shortText": "Lakmal to Sabbir Rahman, FOUR runs", "homeScore": "320/7", "awayScore": "0", "scoreValue": 4, "sequence": 104906, "athletesInvolved": [{"id": "49619", "name": "Suranga Lakmal", "shortName": "Lakmal", "displayName": "Suranga Lakmal"}, {"id": "373538", "name": "Sabbir Rahman", "shortName": "Sabbir", "displayName": "Sabbir Rahman"}], "speedKPH": "", "speedMPH": "", "bowler": {"athlete": {"id": "49619", "name": "Suranga Lakmal", "shortName": "Lakmal", "fullName": "Ranasinghe Arachchige Suranga Lakmal", "displayName": "Suranga Lakmal"}, "team": {"id": "8", "name": "Sri Lanka", "abbreviation": "SL", "displayName": "Sri Lanka"}, "maidens": 0, "balls": 54, "wickets": 0, "overs": 9.0, "conceded": 60}, "otherBowler": {"athlete": {"id": "233514", "name": "Thisara Perera", "shortName": "Perera", "fullName": "Narangoda Liyanaarachchilage Thisara Chirantha Perera", "displayName": "Thisara Perera"}, "team": {"id": "8", "name": "Sri Lanka", "abbreviation": "SL", "displayName": "Sri Lanka"}, "maidens": 0, "balls": 54, "wickets": 3, "overs": 9.0, "conceded": 60}, "batsman": {"athlete": {"id": "373538", "name": "Sabbir Rahman", "shortName": "Sabbir", "fullName": "Mohammad Sabbir Rahman", "displayName": "Sabbir Rahman"}, "team": {"id": "25", "name": "Bangladesh", "abbreviation": "BDESH", "displayName": "Bangladesh"}, "totalRuns": 24, "faced": 12, "fours": 3, "runs": 320, "sixes": 1}, "otherBatsman": {"athlete": {"id": "629070", "name": "Mohammad Saifuddin", "shortName": "Saifuddin", "fullName": "Mohammad Saifuddin", "displayName": "Mohammad Saifuddin"}, "team": {"id": "25", "name": "Bangladesh", "abbreviation": "BDESH", "displayName": "Bangladesh"}, "totalRuns": 6, "faced": 5, "fours": 1, "runs": 0, "sixes": 0}, "innings": {"id": "202064", "runRate": 6.4, "remainingBalls": 0, "byes": 0, "number": 1, "balls": 300, "noBalls": 0, "wickets": 7, "legByes": 0, "ballLimit": 300, "target": 0, "session": 1, "day": 1, "fallOfWickets": 0, "remainingOvers": 0.0, "totalRuns": 4, "wides": 0, "runs": 320}, "over": {"ball": 6, "balls": 6, "complete": true, "limit": 50.0, "maiden": 0, "noBall": 0, "wide": 0, "byes": 0, "legByes": 0, "number": 50, "runs": 19, "wickets": 0, "overs": 49.6, "actual": 49.6, "unique": 49.06}, "dismissal": {"dismissal": false, "bowled": false, "type": "", "bowler": {"athlete": {"id": "49619", "name": "Suranga Lakmal", "shortName": "Lakmal", "fullName": "Ranasinghe Arachchige Suranga Lakmal", "displayName": "Suranga Lakmal"}}, "batsman": {"athlete": {"id": "373538", "name": "Sabbir Rahman", "shortName": "Sabbir", "fullName": "Mohammad Sabbir Rahman", "displayName": "Sabbir Rahman"}}, "fielder": {"athlete": {}}, "minutes": 0, "retiredText": ""}}]}}