{"commentary": {"count": 306, "pageIndex": 13, "pageSize": 25, "pageCount": 13, "items": [{"id": "149010", "clock": "00:00", "date": "2019-05-15T10:45", "playType": {"id": "2", "description": "no run"}, "team": {"id": "29", "name": "Ireland", "abbreviation": "IRE", "displayName": "Ireland"}, "mediaId": 0, "period": 1, "periodText": "1st innings", "preText": "Can Ireland get 10 more runs and touch 300? Saifuddin to bowl.", "text": "yorker, just outside leg stump, and dug away to the bowler", "postText": "", "shortText": "Mohammad Saifuddin to Dockrell, no run", "homeScore": "290/6", "awayScore": "0", "scoreValue": 0, "sequence": 104901, "athletesInvolved": [{"id": "348034", "name": "George Dockrell", "shortName": "Dockrell", "displayName": "George Dockrell"}, {"id": "629070", "name": "Mohammad Saifuddin", "shortName": "Saifuddin", "displayName": "Mohammad Saifuddin"}], "speedKPH": "", "speedMPH": "", "bowler": {"athlete": {"id": "629070", "name": "Mohammad Saifuddin", "shortName": "Saifuddin", "fullName": "Mohammad Saifuddin", "displayName": "Mohammad Saifuddin"}, "team": {"id": "25", "name": "Bangladesh", "abbreviation": "BDESH", "displayName": "Bangladesh"}, "maidens": 0, "balls": 49, "wickets": 0, "overs": 8.1, "conceded": 41}, "otherBowler": {"athlete": {"id": "410763", "name": "Abu Jayed", "shortName": "Abu Jayed", "fullName": "Abu Jayed Chowdhury", "displayName": "Abu Jayed"}, "team": {"id": "25", "name": "Bangladesh", "abbreviation": "BDESH", "displayName": "Bangladesh"}, "maidens": 0, "balls": 54, "wickets": 5, "overs": 9.0, "conceded": 58}, "batsman": {"athlete": {"id": "348034", "name": "George Dockrell", "shortName": "Dockrell", "fullName": "George Henry Dockrell", "displayName": "George Dockrell"}, "team": {"id": "29", "name": "Ireland", "abbreviation": "IRE", "displayName": "Ireland"}, "totalRuns": 3, "faced": 3, "fours": 0, "runs": 290, "sixes": 0}, "otherBatsman": {"athlete": {"id": "526441", "name": "Mark Adair", "shortName": "Adair", "fullName": "Mark Richard Adair", "displayName": "Mark Adair"}, "team": {"id": "29", "name": "Ireland", "abbreviation": "IRE", "displayName": "Ireland"}, "totalRuns": 11, "faced": 5, "fours": 0, "runs": 0, "sixes": 1}, "innings": {"id": "215692", "runRate": 5.89, "remainingBalls": 5, "byes": 0, "number": 1, "balls": 295, "noBalls": 0, "wickets": 6, "legByes": 0, "ballLimit": 300, "target": 0, "session": 1, "day": 1, "fallOfWickets": 0, "remainingOvers": 0.0, "totalRuns": 0, "wides": 0, "runs": 290}, "over": {"ball": 1, "balls": 6, "complete": false, "limit": 50.0, "maiden": 0, "noBall": 0, "wide": 0, "byes": 0, "legByes": 0, "number": 50, "runs": 2, "wickets": 2, "overs": 49.1, "actual": 49.1, "unique": 49.01}, "dismissal": {"dismissal": false, "bowled": false, "type": "", "bowler": {"athlete": {"id": "629070", "name": "Mohammad Saifuddin", "shortName": "Saifuddin", "fullName": "Mohammad Saifuddin", "displayName": "Mohammad Saifuddin"}}, "batsman": {"athlete": {"id": "348034", "name": "George Dockrell", "shortName": "Dockrell", "fullName": "George Henry Dockrell", "displayName": "George Dockrell"}}, "fielder": {"athlete": {}}, "minutes": 0, "retiredText": ""}}, {"id": "149020", "clock": "00:00", "date": "2019-05-15T10:45", "playType": {"id": "1", "description": "run"}, "team": {"id": "29", "name": "Ireland", "abbreviation": "IRE", "displayName": "Ireland"}, "mediaId": 0, "period": 1, "periodText": "1st innings", "preText": "Jon: \"Wahid Quayum: Except it isn't Jayed's debut?!\" -- yep, made his debut against WI earlier this series", "text": "nearly a yorker, full toss on middle, and hammered over the bowler's head. Protection in the deep though", "postText": "Sahil : \"can't understand what they are trying to do by not giving Rubel Hussain his full quota of overs.\" -- World Cup experimentation, perhaps?", "shortText": "Mohammad Saifuddin to Dockrell, 1 run", "homeScore": "291/6", "awayScore": "0", "scoreValue": 1, "sequence": 104902, "athletesInvolved": [{"id": "348034", "name": "George Dockrell", "shortName": "Dockrell", "displayName": "George Dockrell"}, {"id": "629070", "name": "Mohammad Saifuddin", "shortName": "Saifuddin", "displayName": "Mohammad Saifuddin"}], "speedKPH": "", "speedMPH": "", "bowler": {"athlete": {"id": "629070", "name": "Mohammad Saifuddin", "shortName": "Saifuddin", "fullName": "Mohammad Saifuddin", "displayName": "Mohammad Saifuddin"}, "team": {"id": "25", "name": "Bangladesh", "abbreviation": "BDESH", "displayName": "Bangladesh"}, "maidens": 0, "balls": 50, "wickets": 0, "overs": 8.2, "conceded": 42}, "otherBowler": {"athlete": {"id": "410763", "name": "Abu Jayed", "shortName": "Abu Jayed", "fullName": "Abu Jayed Chowdhury", "displayName": "Abu Jayed"}, "team": {"id": "25", "name": "Bangladesh", "abbreviation": "BDESH", "displayName": "Bangladesh"}, "maidens": 0, "balls": 54, "wickets": 5, "overs": 9.0, "conceded": 58}, "batsman": {"athlete": {"id": "348034", "name": "George Dockrell", "shortName": "Dockrell", "fullName": "George Henry Dockrell", "displayName": "George Dockrell"}, "team": {"id": "29", "name": "Ireland", "abbreviation": "IRE", "displayName": "Ireland"}, "totalRuns": 4, "faced": 4, "fours": 0, "runs": 291, "sixes": 0}, "otherBatsman": {"athlete": {"id": "526441", "name": "Mark Adair", "shortName": "Adair", "fullName": "Mark Richard Adair", "displayName": "Mark Adair"}, "team": {"id": "29", "name": "Ireland", "abbreviation": "IRE", "displayName": "Ireland"}, "totalRuns": 11, "faced": 5, "fours": 0, "runs": 0, "sixes": 1}, "innings": {"id": "215692", "runRate": 5.89, "remainingBalls": 4, "byes": 0, "number": 1, "balls": 296, "noBalls": 0, "wickets": 6, "legByes": 0, "ballLimit": 300, "target": 0, "session": 1, "day": 1, "fallOfWickets": 0, "remainingOvers": 0.0, "totalRuns": 1, "wides": 0, "runs": 291}, "over": {"ball": 2, "balls": 6, "complete": false, "limit": 50.0, "maiden": 0, "noBall": 0, "wide": 0, "byes": 0, "legByes": 0, "number": 50, "runs": 2, "wickets": 2, "overs": 49.2, "actual": 49.2, "unique": 49.02}, "dismissal": {"dismissal": false, "bowled": false, "type": "", "bowler": {"athlete": {"id": "629070", "name": "Mohammad Saifuddin", "shortName": "Saifuddin", "fullName": "Mohammad Saifuddin", "displayName": "Mohammad Saifuddin"}}, "batsman": {"athlete": {"id": "348034", "name": "George Dockrell", "shortName": "Dockrell", "fullName": "George Henry Dockrell", "displayName": "George Dockrell"}}, "fielder": {"athlete": {}}, "minutes": 0, "retiredText": ""}}, {"id": "149030", "clock": "00:00", "date": "2019-05-15T10:45", "playType": {"id": "2", "description": "no run"}, "team": {"id": "29", "name": "Ireland", "abbreviation": "IRE", "displayName": "Ireland"}, "mediaId": 0, "period": 1, "periodText": "1st innings", "preText": "", "text": "full and wide outside off, but inside the tramlines! Terrific ball. Tidy three balls so far", "postText": "", "shortText": "Mohammad Saifuddin to Adair, no run", "homeScore": "291/6", "awayScore": "0", "scoreValue": 0, "sequence": 104903, "athletesInvolved": [{"id": "526441", "name": "Mark Adair", "shortName": "Adair", "displayName": "Mark Adair"}, {"id": "629070", "name": "Mohammad Saifuddin", "shortName": "Saifuddin", "displayName": "Mohammad Saifuddin"}], "speedKPH": "", "speedMPH": "", "bowler": {"athlete": {"id": "629070", "name": "Mohammad Saifuddin", "shortName": "Saifuddin", "fullName": "Mohammad Saifuddin", "displayName": "Mohammad Saifuddin"}, "team": {"id": "25", "name": "Bangladesh", "abbreviation": "BDESH", "displayName": "Bangladesh"}, "maidens": 0, "balls": 51, "wickets": 0, "overs": 8.3, "conceded": 42}, "otherBowler": {"athlete": {"id": "410763", "name": "Abu Jayed", "shortName": "Abu Jayed", "fullName": "Abu Jayed Chowdhury", "displayName": "Abu Jayed"}, "team": {"id": "25", "name": "Bangladesh", "abbreviation": "BDESH", "displayName": "Bangladesh"}, "maidens": 0, "balls": 54, "wickets": 5, "overs": 9.0, "conceded": 58}, "batsman": {"athlete": {"id": "526441", "name": "Mark Adair", "shortName": "Adair", "fullName": "Mark Richard Adair", "displayName": "Mark Adair"}, "team": {"id": "29", "name": "Ireland", "abbreviation": "IRE", "displayName": "Ireland"}, "totalRuns": 11, "faced": 6, "fours": 0, "runs": 291, "sixes": 1}, "otherBatsman": {"athlete": {"id": "348034", "name": "George Dockrell", "shortName": "Dockrell", "fullName": "George Henry Dockrell", "displayName": "George Dockrell"}, "team": {"id": "29", "name": "Ireland", "abbreviation": "IRE", "displayName": "Ireland"}, "totalRuns": 4, "faced": 4, "fours": 0, "runs": 0, "sixes": 0}, "innings": {"id": "215692", "runRate": 5.87, "remainingBalls": 3, "byes": 0, "number": 1, "balls": 297, "noBalls": 0, "wickets": 6, "legByes": 0, "ballLimit": 300, "target": 0, "session": 1, "day": 1, "fallOfWickets": 0, "remainingOvers": 0.0, "totalRuns": 0, "wides": 0, "runs": 291}, "over": {"ball": 3, "balls": 6, "complete": false, "limit": 50.0, "maiden": 0, "noBall": 0, "wide": 0, "byes": 0, "legByes": 0, "number": 50, "runs": 2, "wickets": 2, "overs": 49.3, "actual": 49.3, "unique": 49.03}, "dismissal": {"dismissal": false, "bowled": false, "type": "", "bowler": {"athlete": {"id": "629070", "name": "Mohammad Saifuddin", "shortName": "Saifuddin", "fullName": "Mohammad Saifuddin", "displayName": "Mohammad Saifuddin"}}, "batsman": {"athlete": {"id": "526441", "name": "Mark Adair", "shortName": "Adair", "fullName": "Mark Richard Adair", "displayName": "Mark Adair"}}, "fielder": {"athlete": {}}, "minutes": 0, "retiredText": ""}}, {"id": "149040", "clock": "00:00", "date": "2019-05-15T10:45", "playType": {"id": "9", "description": "out"}, "team": {"id": "29", "name": "Ireland", "abbreviation": "IRE", "displayName": "Ireland"}, "mediaId": 0, "period": 1, "periodText": "1st innings", "preText": "Can Saifuddin finish the over well?", "text": "<B>hit wicket!</b> Full, just outside off, and the attempted drive through the off side is missed. But Adair is so deep in his crease that he chops off stump with his bat", "postText": "", "shortText": "Mohammad Saifuddin to Adair, OUT", "homeScore": "291/7", "awayScore": "0", "scoreValue": 0, "sequence": 104904, "athletesInvolved": [{"id": "526441", "name": "Mark Adair", "shortName": "Adair", "displayName": "Mark Adair"}, {"id": "629070", "name": "Mohammad Saifuddin", "shortName": "Saifuddin", "displayName": "Mohammad Saifuddin"}], "speedKPH": "", "speedMPH": "", "bowler": {"athlete": {"id": "629070", "name": "Mohammad Saifuddin", "shortName": "Saifuddin", "fullName": "Mohammad Saifuddin", "displayName": "Mohammad Saifuddin"}, "team": {"id": "25", "name": "Bangladesh", "abbreviation": "BDESH", "displayName": "Bangladesh"}, "maidens": 0, "balls": 52, "wickets": 1, "overs": 8.4, "conceded": 42}, "otherBowler": {"athlete": {"id": "410763", "name": "Abu Jayed", "shortName": "Abu Jayed", "fullName": "Abu Jayed Chowdhury", "displayName": "Abu Jayed"}, "team": {"id": "25", "name": "Bangladesh", "abbreviation": "BDESH", "displayName": "Bangladesh"}, "maidens": 0, "balls": 54, "wickets": 5, "overs": 9.0, "conceded": 58}, "batsman": {"athlete": {"id": "526441", "name": "Mark Adair", "shortName": "Adair", "fullName": "Mark Richard Adair", "displayName": "Mark Adair"}, "team": {"id": "29", "name": "Ireland", "abbreviation": "IRE", "displayName": "Ireland"}, "totalRuns": 11, "faced": 7, "fours": 0, "runs": 291, "sixes": 1}, "otherBatsman": {"athlete": {"id": "348034", "name": "George Dockrell", "shortName": "Dockrell", "fullName": "George Henry Dockrell", "displayName": "George Dockrell"}, "team": {"id": "29", "name": "Ireland", "abbreviation": "IRE", "displayName": "Ireland"}, "totalRuns": 4, "faced": 4, "fours": 0, "runs": 0, "sixes": 0}, "innings": {"id": "215692", "runRate": 5.85, "remainingBalls": 2, "byes": 0, "number": 1, "balls": 298, "noBalls": 0, "wickets": 7, "legByes": 0, "ballLimit": 300, "target": 0, "session": 1, "day": 1, "fallOfWickets": 7, "remainingOvers": 0.0, "totalRuns": 0, "wides": 0, "runs": 291}, "over": {"ball": 4, "balls": 6, "complete": false, "limit": 50.0, "maiden": 0, "noBall": 0, "wide": 0, "byes": 0, "legByes": 0, "number": 50, "runs": 2, "wickets": 2, "overs": 49.4, "actual": 49.4, "unique": 49.04}, "dismissal": {"dismissal": true, "bowled": true, "type": "bowled", "bowler": {"athlete": {"id": "629070", "name": "Mohammad Saifuddin", "shortName": "Saifuddin", "fullName": "Mohammad Saifuddin", "displayName": "Mohammad Saifuddin"}}, "batsman": {"athlete": {"id": "526441", "name": "Mark Adair", "shortName": "Adair", "fullName": "Mark Richard Adair", "displayName": "Mark Adair"}}, "fielder": {"athlete": {}}, "minutes": 0, "retiredText": "", "text": "MR Adair  b Mohammad Saifuddin 11 (7b 0x4 1x6) SR: 157.14"}}, {"id": "149050", "clock": "00:00", "date": "2019-05-15T10:45", "playType": {"id": "1", "description": "run"}, "team": {"id": "29", "name": "Ireland", "abbreviation": "IRE", "displayName": "Ireland"}, "mediaId": 0, "period": 1, "periodText": "1st innings", "preText": "", "text": "full toss on middle, and he tries to paddle it past fine leg. Deft touch down the leg side but the keeper dives across to intercept", "postText": "", "shortText": "Mohammad Saifuddin to McCarthy, 1 run", "homeScore": "292/7", "awayScore": "0", "scoreValue": 1, "sequence": 104905, "athletesInvolved": [{"id": "629070", "name": "Mohammad Saifuddin", "shortName": "Saifuddin", "displayName": "Mohammad Saifuddin"}, {"id": "348059", "name": "Barry McCarthy", "shortName": "McCarthy", "displayName": "Barry McCarthy"}], "speedKPH": "", "speedMPH": "", "bowler": {"athlete": {"id": "629070", "name": "Mohammad Saifuddin", "shortName": "Saifuddin", "fullName": "Mohammad Saifuddin", "displayName": "Mohammad Saifuddin"}, "team": {"id": "25", "name": "Bangladesh", "abbreviation": "BDESH", "displayName": "Bangladesh"}, "maidens": 0, "balls": 53, "wickets": 1, "overs": 8.5, "conceded": 43}, "otherBowler": {"athlete": {"id": "410763", "name": "Abu Jayed", "shortName": "Abu Jayed", "fullName": "Abu Jayed Chowdhury", "displayName": "Abu Jayed"}, "team": {"id": "25", "name": "Bangladesh", "abbreviation": "BDESH", "displayName": "Bangladesh"}, "maidens": 0, "balls": 54, "wickets": 5, "overs": 9.0, "conceded": 58}, "batsman": {"athlete": {"id": "348059", "name": "Barry McCarthy", "shortName": "McCarthy", "fullName": "Barry John McCarthy", "displayName": "Barry McCarthy"}, "team": {"id": "29", "name": "Ireland", "abbreviation": "IRE", "displayName": "Ireland"}, "totalRuns": 1, "faced": 1, "fours": 0, "runs": 292, "sixes": 0}, "otherBatsman": {"athlete": {"id": "348034", "name": "George Dockrell", "shortName": "Dockrell", "fullName": "George Henry Dockrell", "displayName": "George Dockrell"}, "team": {"id": "29", "name": "Ireland", "abbreviation": "IRE", "displayName": "Ireland"}, "totalRuns": 4, "faced": 4, "fours": 0, "runs": 0, "sixes": 0}, "innings": {"id": "215692", "runRate": 5.85, "remainingBalls": 1, "byes": 0, "number": 1, "balls": 299, "noBalls": 0, "wickets": 7, "legByes": 0, "ballLimit": 300, "target": 0, "session": 1, "day": 1, "fallOfWickets": 0, "remainingOvers": 0.0, "totalRuns": 1, "wides": 0, "runs": 292}, "over": {"ball": 5, "balls": 6, "complete": false, "limit": 50.0, "maiden": 0, "noBall": 0, "wide": 0, "byes": 0, "legByes": 0, "number": 50, "runs": 2, "wickets": 2, "overs": 49.5, "actual": 49.5, "unique": 49.05}, "dismissal": {"dismissal": false, "bowled": false, "type": "", "bowler": {"athlete": {"id": "629070", "name": "Mohammad Saifuddin", "shortName": "Saifuddin", "fullName": "Mohammad Saifuddin", "displayName": "Mohammad Saifuddin"}}, "batsman": {"athlete": {"id": "348059", "name": "Barry McCarthy", "shortName": "McCarthy", "fullName": "Barry John McCarthy", "displayName": "Barry McCarthy"}}, "fielder": {"athlete": {}}, "minutes": 0, "retiredText": ""}}, {"id": "149060", "clock": "00:00", "date": "2019-05-15T10:45", "playType": {"id": "9", "description": "out"}, "team": {"id": "29", "name": "Ireland", "abbreviation": "IRE", "displayName": "Ireland"}, "mediaId": 0, "period": 1, "periodText": "1st innings", "preText": "", "text": "<b>bowled around his legs!</b> Full on middle, and Dockrell exposes his stumps trying to play another paddle. Ball crashes into middle stump and Saifuddin bowls a tidy over to end the innings. <B>Ireland finish on 292 for 8</b>", "postText": "<b>2.14pm</b> Two terrific innings - one from the effervescent Paul Stirling and the experienced William Porterfield - have lifted Ireland to a great total. The wickets column doesn't do justice to the way Ireland batted. The wickets came only because of Ireland's late charge to a total in excess of 300. Abu Jayed's five-wicket haul the only positive for Bangladesh. We'll be back in 40 or so minutes with the second innings. Enjoy the break, and let's hope <strike>Malahide</strike> Clontarf stays dry when we return.\n\nSivaguru: \"When senior bowlers didn't get any wicket junior stood up at the right time and backed them up.\"\n\nReza: \"Well played Ireland... Well Played Bangladesh ... ! ... Game on for both team ... ! ...", "shortText": "Mohammad Saifuddin to Dockrell, OUT", "homeScore": "292/8", "awayScore": "0", "scoreValue": 0, "sequence": 104906, "athletesInvolved": [{"id": "348034", "name": "George Dockrell", "shortName": "Dockrell", "displayName": "George Dockrell"}, {"id": "629070", "name": "Mohammad Saifuddin", "shortName": "Saifuddin", "displayName": "Mohammad Saifuddin"}], "speedKPH": "", "speedMPH": "", "bowler": {"athlete": {"id": "629070", "name": "Mohammad Saifuddin", "shortName": "Saifuddin", "fullName": "Mohammad Saifuddin", "displayName": "Mohammad Saifuddin"}, "team": {"id": "25", "name": "Bangladesh", "abbreviation": "BDESH", "displayName": "Bangladesh"}, "maidens": 0, "balls": 54, "wickets": 2, "overs": 9.0, "conceded": 43}, "otherBowler": {"athlete": {"id": "410763", "name": "Abu Jayed", "shortName": "Abu Jayed", "fullName": "Abu Jayed Chowdhury", "displayName": "Abu Jayed"}, "team": {"id": "25", "name": "Bangladesh", "abbreviation": "BDESH", "displayName": "Bangladesh"}, "maidens": 0, "balls": 54, "wickets": 5, "overs": 9.0, "conceded": 58}, "batsman": {"athlete": {"id": "348034", "name": "George Dockrell", "shortName": "Dockrell", "fullName": "George Henry Dockrell", "displayName": "George Dockrell"}, "team": {"id": "29", "name": "Ireland", "abbreviation": "IRE", "displayName": "Ireland"}, "totalRuns": 4, "faced": 5, "fours": 0, "runs": 292, "sixes": 0}, "otherBatsman": {"athlete": {"id": "348059", "name": "Barry McCarthy", "shortName": "McCarthy", "fullName": "Barry John McCarthy", "displayName": "Barry McCarthy"}, "team": {"id": "29", "name": "Ireland", "abbreviation": "IRE", "displayName": "Ireland"}, "totalRuns": 1, "faced": 1, "fours": 0, "runs": 0, "sixes": 0}, "innings": {"id": "215692", "runRate": 5.84, "remainingBalls": 0, "byes": 0, "number": 1, "balls": 300, "noBalls": 0, "wickets": 8, "legByes": 0, "ballLimit": 300, "target": 0, "session": 1, "day": 1, "fallOfWickets": 8, "remainingOvers": 0.0, "totalRuns": 0, "wides": 0, "runs": 292}, "over": {"ball": 6, "balls": 6, "complete": true, "limit": 50.0, "maiden": 0, "noBall": 0, "wide": 0, "byes": 0, "legByes": 0, "number": 48, "runs": 12, "wickets": 0, "overs": 49.6, "actual": 49.6, "unique": 49.06}, "dismissal": {"dismissal": true, "bowled": true, "type": "bowled", "bowler": {"athlete": {"id": "629070", "name": "Mohammad Saifuddin", "shortName": "Saifuddin", "fullName": "Mohammad Saifuddin", "displayName": "Mohammad Saifuddin"}}, "batsman": {"athlete": {"id": "348034", "name": "George Dockrell", "shortName": "Dockrell", "fullName": "George Henry Dockrell", "displayName": "George Dockrell"}}, "fielder": {"athlete": {}}, "minutes": 0, "retiredText": "", "text": "GH Dockrell  b Mohammad Saifuddin 4 (5b 0x4 0x6) SR: 80.00"}}]}}