{"commentary": {"count": 304, "pageIndex": 13, "pageSize": 25, "pageCount": 13, "items": [{"id": "148060", "clock": "00:00", "date": "2018-09-15T15:30", "playType": {"id": "1", "description": "run"}, "team": {"id": "25", "name": "Bangladesh", "abbreviation": "BDESH", "displayName": "Bangladesh"}, "mediaId": 0, "period": 1, "periodText": "1st innings", "preText": "", "text": "length ball outside off, and he taps this away to point to steal a single. Keeps strike", "postText": "Kapil Joshi: \"After a long long time cricket has witnessed an act of selfless bravery. Hats off to Tamim for the courage. These 20 odd runs will make all the difference.\"\n\nWajid Jawaid: \"Yes this is very courageous, but is it wise? It's not the final of the world cup. What if the injury worsens a great deal due to this?\"\n\nsamraat: \"Stand wherever you are and Applaud this masterclass from Rahim.Truly Special\"", "shortText": "Shanaka to Mushfiqur Rahim, 1 run", "homeScore": "249/9", "awayScore": "0", "scoreValue": 1, "sequence": 104806, "athletesInvolved": [{"id": "437316", "name": "Dasun Shanaka", "shortName": "Shanaka", "displayName": "Dasun Shanaka"}, {"id": "56029", "name": "Mushfiqur Rahim", "shortName": "Mushfiqur", "displayName": "Mushfiqur Rahim"}], "speedKPH": "120.990", "speedMPH": "75.180", "bowler": {"athlete": {"id": "437316", "name": "Dasun Shanaka", "shortName": "Shanaka", "fullName": "Madagamagamage Dasun Shanaka", "displayName": "Dasun Shanaka"}, "team": {"id": "8", "name": "Sri Lanka", "abbreviation": "SL", "displayName": "Sri Lanka"}, "maidens": 0, "balls": 18, "wickets": 0, "overs": 3.0, "conceded": 19}, "otherBowler": {"athlete": {"id": "233514", "name": "Thisara Perera", "shortName": "Perera", "fullName": "Narangoda Liyanaarachchilage Thisara Chirantha Perera", "displayName": "Thisara Perera"}, "team": {"id": "8", "name": "Sri Lanka", "abbreviation": "SL", "displayName": "Sri Lanka"}, "maidens": 0, "balls": 42, "wickets": 0, "overs": 7.0, "conceded": 39}, "batsman": {"athlete": {"id": "56029", "name": "Mushfiqur Rahim", "shortName": "Mushfiqur", "fullName": "Mohammad Mushfiqur Rahim", "displayName": "Mushfiqur Rahim"}, "team": {"id": "25", "name": "Bangladesh", "abbreviation": "BDESH", "displayName": "Bangladesh"}, "totalRuns": 132, "faced": 147, "fours": 11, "runs": 249, "sixes": 2}, "otherBatsman": {"athlete": {"id": "56194", "name": "Tamim Iqbal", "shortName": "Tamim", "fullName": "Tamim Iqbal Khan", "displayName": "Tamim Iqbal"}, "team": {"id": "25", "name": "Bangladesh", "abbreviation": "BDESH", "displayName": "Bangladesh"}, "totalRuns": 2, "faced": 4, "fours": 0, "runs": 0, "sixes": 0}, "innings": {"id": "208429", "runRate": 5.08, "remainingBalls": 6, "byes": 0, "number": 1, "balls": 294, "noBalls": 0, "wickets": 9, "legByes": 0, "ballLimit": 300, "target": 0, "session": 1, "day": 1, "fallOfWickets": 0, "remainingOvers": 0.3, "totalRuns": 1, "wides": 0, "runs": 249}, "over": {"ball": 6, "balls": 6, "complete": true, "limit": 50.0, "maiden": 0, "noBall": 0, "wide": 0, "byes": 0, "legByes": 0, "number": 49, "runs": 5, "wickets": 0, "overs": 48.6, "actual": 48.6, "unique": 48.06}, "dismissal": {"dismissal": false, "bowled": false, "type": "", "bowler": {"athlete": {"id": "437316", "name": "Dasun Shanaka", "shortName": "Shanaka", "fullName": "Madagamagamage Dasun Shanaka", "displayName": "Dasun Shanaka"}}, "batsman": {"athlete": {"id": "56029", "name": "Mushfiqur Rahim", "shortName": "Mushfiqur", "fullName": "Mohammad Mushfiqur Rahim", "displayName": "Mushfiqur Rahim"}}, "fielder": {"athlete": {}}, "minutes": 0, "retiredText": ""}}, {"id": "149010", "clock": "00:00", "date": "2018-09-15T15:30", "playType": {"id": "4", "description": "six"}, "team": {"id": "25", "name": "Bangladesh", "abbreviation": "BDESH", "displayName": "Bangladesh"}, "mediaId": 0, "period": 1, "periodText": "1st innings", "preText": "", "text": "full and wide outside off, and the inside-out loft has cleared the extra-cover boundary! What a way to start the final over", "postText": "", "shortText": "NLTC Perera to Mushfiqur Rahim, SIX runs", "homeScore": "255/9", "awayScore": "0", "scoreValue": 6, "sequence": 104901, "athletesInvolved": [{"id": "233514", "name": "Thisara Perera", "shortName": "Perera", "displayName": "Thisara Perera"}, {"id": "56029", "name": "Mushfiqur Rahim", "shortName": "Mushfiqur", "displayName": "Mushfiqur Rahim"}], "speedKPH": "126.214", "speedMPH": "78.426", "bowler": {"athlete": {"id": "233514", "name": "Thisara Perera", "shortName": "Perera", "fullName": "Narangoda Liyanaarachchilage Thisara Chirantha Perera", "displayName": "Thisara Perera"}, "team": {"id": "8", "name": "Sri Lanka", "abbreviation": "SL", "displayName": "Sri Lanka"}, "maidens": 0, "balls": 43, "wickets": 0, "overs": 7.1, "conceded": 45}, "otherBowler": {"athlete": {"id": "437316", "name": "Dasun Shanaka", "shortName": "Shanaka", "fullName": "Madagamagamage Dasun Shanaka", "displayName": "Dasun Shanaka"}, "team": {"id": "8", "name": "Sri Lanka", "abbreviation": "SL", "displayName": "Sri Lanka"}, "maidens": 0, "balls": 18, "wickets": 0, "overs": 3.0, "conceded": 19}, "batsman": {"athlete": {"id": "56029", "name": "Mushfiqur Rahim", "shortName": "Mushfiqur", "fullName": "Mohammad Mushfiqur Rahim", "displayName": "Mushfiqur Rahim"}, "team": {"id": "25", "name": "Bangladesh", "abbreviation": "BDESH", "displayName": "Bangladesh"}, "totalRuns": 138, "faced": 148, "fours": 11, "runs": 255, "sixes": 3}, "otherBatsman": {"athlete": {"id": "56194", "name": "Tamim Iqbal", "shortName": "Tamim", "fullName": "Tamim Iqbal Khan", "displayName": "Tamim Iqbal"}, "team": {"id": "25", "name": "Bangladesh", "abbreviation": "BDESH", "displayName": "Bangladesh"}, "totalRuns": 2, "faced": 4, "fours": 0, "runs": 0, "sixes": 0}, "innings": {"id": "208429", "runRate": 5.18, "remainingBalls": 5, "byes": 0, "number": 1, "balls": 295, "noBalls": 0, "wickets": 9, "legByes": 0, "ballLimit": 300, "target": 0, "session": 1, "day": 1, "fallOfWickets": 0, "remainingOvers": 0.3, "totalRuns": 6, "wides": 0, "runs": 255}, "over": {"ball": 1, "balls": 3, "complete": false, "limit": 50.0, "maiden": 0, "noBall": 0, "wide": 0, "byes": 0, "legByes": 0, "number": 50, "runs": 12, "wickets": 1, "overs": 49.1, "actual": 49.1, "unique": 49.01}, "dismissal": {"dismissal": false, "bowled": false, "type": "", "bowler": {"athlete": {"id": "233514", "name": "Thisara Perera", "shortName": "Perera", "fullName": "Narangoda Liyanaarachchilage Thisara Chirantha Perera", "displayName": "Thisara Perera"}}, "batsman": {"athlete": {"id": "56029", "name": "Mushfiqur Rahim", "shortName": "Mushfiqur", "fullName": "Mohammad Mushfiqur Rahim", "displayName": "Mushfiqur Rahim"}}, "fielder": {"athlete": {}}, "minutes": 0, "retiredText": ""}}, {"id": "149020", "clock": "00:00", "date": "2018-09-15T15:30", "playType": {"id": "4", "description": "six"}, "team": {"id": "25", "name": "Bangladesh", "abbreviation": "BDESH", "displayName": "Bangladesh"}, "mediaId": 0, "period": 1, "periodText": "1st innings", "preText": "", "text": "<b>into the second tier!</b> Length ball on middle, and he swings across the line, ands the shot comes exactly off the bat's sweet spot. Soars into the deep midwicket boundary", "postText": "", "shortText": "NLTC Perera to Mushfiqur Rahim, SIX runs", "homeScore": "261/9", "awayScore": "0", "scoreValue": 6, "sequence": 104902, "athletesInvolved": [{"id": "233514", "name": "Thisara Perera", "shortName": "Perera", "displayName": "Thisara Perera"}, {"id": "56029", "name": "Mushfiqur Rahim", "shortName": "Mushfiqur", "displayName": "Mushfiqur Rahim"}], "speedKPH": "125.670", "speedMPH": "78.088", "bowler": {"athlete": {"id": "233514", "name": "Thisara Perera", "shortName": "Perera", "fullName": "Narangoda Liyanaarachchilage Thisara Chirantha Perera", "displayName": "Thisara Perera"}, "team": {"id": "8", "name": "Sri Lanka", "abbreviation": "SL", "displayName": "Sri Lanka"}, "maidens": 0, "balls": 44, "wickets": 0, "overs": 7.2, "conceded": 51}, "otherBowler": {"athlete": {"id": "437316", "name": "Dasun Shanaka", "shortName": "Shanaka", "fullName": "Madagamagamage Dasun Shanaka", "displayName": "Dasun Shanaka"}, "team": {"id": "8", "name": "Sri Lanka", "abbreviation": "SL", "displayName": "Sri Lanka"}, "maidens": 0, "balls": 18, "wickets": 0, "overs": 3.0, "conceded": 19}, "batsman": {"athlete": {"id": "56029", "name": "Mushfiqur Rahim", "shortName": "Mushfiqur", "fullName": "Mohammad Mushfiqur Rahim", "displayName": "Mushfiqur Rahim"}, "team": {"id": "25", "name": "Bangladesh", "abbreviation": "BDESH", "displayName": "Bangladesh"}, "totalRuns": 144, "faced": 149, "fours": 11, "runs": 261, "sixes": 4}, "otherBatsman": {"athlete": {"id": "56194", "name": "Tamim Iqbal", "shortName": "Tamim", "fullName": "Tamim Iqbal Khan", "displayName": "Tamim Iqbal"}, "team": {"id": "25", "name": "Bangladesh", "abbreviation": "BDESH", "displayName": "Bangladesh"}, "totalRuns": 2, "faced": 4, "fours": 0, "runs": 0, "sixes": 0}, "innings": {"id": "208429", "runRate": 5.29, "remainingBalls": 4, "byes": 0, "number": 1, "balls": 296, "noBalls": 0, "wickets": 9, "legByes": 0, "ballLimit": 300, "target": 0, "session": 1, "day": 1, "fallOfWickets": 0, "remainingOvers": 0.3, "totalRuns": 6, "wides": 0, "runs": 261}, "over": {"ball": 2, "balls": 3, "complete": false, "limit": 50.0, "maiden": 0, "noBall": 0, "wide": 0, "byes": 0, "legByes": 0, "number": 50, "runs": 12, "wickets": 1, "overs": 49.2, "actual": 49.2, "unique": 49.02}, "dismissal": {"dismissal": false, "bowled": false, "type": "", "bowler": {"athlete": {"id": "233514", "name": "Thisara Perera", "shortName": "Perera", "fullName": "Narangoda Liyanaarachchilage Thisara Chirantha Perera", "displayName": "Thisara Perera"}}, "batsman": {"athlete": {"id": "56029", "name": "Mushfiqur Rahim", "shortName": "Mushfiqur", "fullName": "Mohammad Mushfiqur Rahim", "displayName": "Mushfiqur Rahim"}}, "fielder": {"athlete": {}}, "minutes": 0, "retiredText": ""}}, {"id": "149030", "clock": "00:00", "date": "2018-09-15T15:30", "playType": {"id": "9", "description": "out"}, "team": {"id": "25", "name": "Bangladesh", "abbreviation": "BDESH", "displayName": "Bangladesh"}, "mediaId": 0, "period": 1, "periodText": "1st innings", "preText": "", "text": "<b>Mendis takes a screamer!</b> And it needed a catch like that to end a remarkable innings. Full on off, and he drilled it straight over the non-striker's head. Mendis at long on takes a beauty. <B>Bangladesh are all out for 261</b>", "postText": "<b>7.30pm</b> And that's the end of the Bangladesh innings. What a start we've had to this Asia Cup. Half this innings belonged to the wily ol' fox Lasith Malinga, but the other half belonged to Mushfiqur Rahim, who came in at 2/1 and helped Bangladesh reach a very competitive total. Mohammad Mithun's 63 now seems ages ago, but without that 131-run partnership, Bangladesh would surely have crumbled. Tamim Iqbal suffered an injury in the <a href=\"http://www.espncricinfo.com/story/_/id/24684581/wrist-injury-sidelines-tamim-iqbal-asia-cup\" target=\"_blank\">in the first few overs</a>, but a brave effort by him at the end allowed Bangladesh to add 32 runs for the tenth wicket. How will Sri Lanka fight back? We'll be back in 20 minutes or so with the second innings. \n\nArun C: \"Mushfiqur Rahim-The inventor of Nagin dance..Will he do a Nagin dance today if BD wins because of his sensational innings :)\"\n\nBimal Sinha: \"I think SL captain will be banned for at least one ODI for extremely slow over-rate bowling. It's more than half-an-hour delay!\" -- Very warm here, so the umpires took a few extra refreshment breaks. Don't think that will affect the bowling side tonight\n\nUmer Naseer : \"Is tamim iqbal the first Bengali batsmen to carry the bat through the innings?\" -- No, unfortunately. For that Bangladesh would've had to last the whole 50 overs. \n\nShamshir: \"Poor and very unwise decision to send Tamim for batting despite seriuos injury. This is just a group match and BD can afford to lose it and still qualify for next round. By the way, 261 is not a very good score on this flat pitch. What if BD still lose despite sending Tamim.\" -- He didn't really bat with injured hand, so I don't think he has aggravated the injury. \n\n<b>Mushfiqur:</b> I thought the wicket was pretty good. Were were under pressure very early, but credit goes to Mithun, and he took the pressure away from me. It made my job very easy. Really surprised to see Tamim come to bat, and it's a great gesture.\"\n\nBijoy : \"I've never really got a liking towards Mushfiq because of some of his antics, but it's been an absolute brilliant knock. Hats off to Tamim as well. Him coming on to bat with an injury gave bangladesh an extra thirty runs or so. Should be an interesting chase.\"\n\nOB Jato: \"That is the greatest two 2* off 4 you will ever see! This match will be remembered for a long time, especially if Bangladesh win! Man cramping up at one end, other with a fracture. Bravery at its best.\"", "shortText": "NLTC Perera to Mushfiqur Rahim, OUT", "homeScore": "261/10", "awayScore": "0", "scoreValue": 0, "sequence": 104903, "athletesInvolved": [{"id": "233514", "name": "Thisara Perera", "shortName": "Perera", "displayName": "Thisara Perera"}, {"id": "629074", "name": "Kusal Mendis", "shortName": "Mendis", "displayName": "Kusal Mendis"}, {"id": "56029", "name": "Mushfiqur Rahim", "shortName": "Mushfiqur", "displayName": "Mushfiqur Rahim"}], "speedKPH": "125.009", "speedMPH": "77.677", "bowler": {"athlete": {"id": "233514", "name": "Thisara Perera", "shortName": "Perera", "fullName": "Narangoda Liyanaarachchilage Thisara Chirantha Perera", "displayName": "Thisara Perera"}, "team": {"id": "8", "name": "Sri Lanka", "abbreviation": "SL", "displayName": "Sri Lanka"}, "maidens": 0, "balls": 45, "wickets": 1, "overs": 7.3, "conceded": 51}, "otherBowler": {"athlete": {"id": "437316", "name": "Dasun Shanaka", "shortName": "Shanaka", "fullName": "Madagamagamage Dasun Shanaka", "displayName": "Dasun Shanaka"}, "team": {"id": "8", "name": "Sri Lanka", "abbreviation": "SL", "displayName": "Sri Lanka"}, "maidens": 0, "balls": 18, "wickets": 0, "overs": 3.0, "conceded": 19}, "batsman": {"athlete": {"id": "56029", "name": "Mushfiqur Rahim", "shortName": "Mushfiqur", "fullName": "Mohammad Mushfiqur Rahim", "displayName": "Mushfiqur Rahim"}, "team": {"id": "25", "name": "Bangladesh", "abbreviation": "BDESH", "displayName": "Bangladesh"}, "totalRuns": 144, "faced": 150, "fours": 11, "runs": 261, "sixes": 4}, "otherBatsman": {"athlete": {"id": "56194", "name": "Tamim Iqbal", "shortName": "Tamim", "fullName": "Tamim Iqbal Khan", "displayName": "Tamim Iqbal"}, "team": {"id": "25", "name": "Bangladesh", "abbreviation": "BDESH", "displayName": "Bangladesh"}, "totalRuns": 2, "faced": 4, "fours": 0, "runs": 0, "sixes": 0}, "innings": {"id": "208429", "runRate": 5.27, "remainingBalls": 3, "byes": 0, "number": 1, "balls": 297, "noBalls": 0, "wickets": 10, "legByes": 0, "ballLimit": 300, "target": 0, "session": 1, "day": 1, "fallOfWickets": 10, "remainingOvers": 0.3, "totalRuns": 0, "wides": 0, "runs": 261}, "over": {"ball": 3, "balls": 3, "complete": false, "limit": 50.0, "maiden": 0, "noBall": 0, "wide": 0, "byes": 0, "legByes": 0, "number": 50, "runs": 12, "wickets": 1, "overs": 49.3, "actual": 49.3, "unique": 49.03}, "dismissal": {"dismissal": true, "bowled": true, "type": "caught", "bowler": {"athlete": {"id": "233514", "name": "Thisara Perera", "shortName": "Perera", "fullName": "Narangoda Liyanaarachchilage Thisara Chirantha Perera", "displayName": "Thisara Perera"}}, "batsman": {"athlete": {"id": "56029", "name": "Mushfiqur Rahim", "shortName": "Mushfiqur", "fullName": "Mohammad Mushfiqur Rahim", "displayName": "Mushfiqur Rahim"}}, "fielder": {"athlete": {}}, "minutes": 0, "retiredText": "", "text": "Mushfiqur Rahim c Mendis b NLTC Perera 144 (150b 11x4 4x6) SR: 96.00"}}]}}