{"commentary": {"count": 305, "pageIndex": 13, "pageSize": 25, "pageCount": 13, "items": [{"id": "149020", "clock": "00:00", "date": "2018-12-14T12:00", "playType": {"id": "1", "description": "run"}, "team": {"id": "4", "name": "West Indies", "abbreviation": "WI", "displayName": "West Indies"}, "mediaId": 0, "period": 1, "periodText": "1st innings", "preText": "", "text": "<b>full toss hit in the air but lands safe</b> he heaved across the line at that, didn't get the timing right. The ball balloons up and lands at mid-on. Long-on was running in but had no chance", "postText": "", "shortText": "Mohammad Saifuddin to Bishoo, 1 run", "homeScore": "196/9", "awayScore": "0", "scoreValue": 1, "sequence": 104902, "athletesInvolved": [{"id": "629070", "name": "Mohammad Saifuddin", "shortName": "Saifuddin", "displayName": "Mohammad Saifuddin"}, {"id": "341593", "name": "Devendra Bishoo", "shortName": "Bishoo", "displayName": "Devendra Bishoo"}], "speedKPH": "130.365", "speedMPH": "81.005", "bowler": {"athlete": {"id": "629070", "name": "Mohammad Saifuddin", "shortName": "Saifuddin", "fullName": "Mohammad Saifuddin", "displayName": "Mohammad Saifuddin"}, "team": {"id": "25", "name": "Bangladesh", "abbreviation": "BDESH", "displayName": "Bangladesh"}, "maidens": 0, "balls": 50, "wickets": 1, "overs": 8.2, "conceded": 36}, "otherBowler": {"athlete": {"id": "330902", "name": "Mustafizur Rahman", "shortName": "Mustafizur", "fullName": "Mustafizur Rahman", "displayName": "Mustafizur Rahman"}, "team": {"id": "25", "name": "Bangladesh", "abbreviation": "BDESH", "displayName": "Bangladesh"}, "maidens": 1, "balls": 60, "wickets": 0, "overs": 10.0, "conceded": 33}, "batsman": {"athlete": {"id": "341593", "name": "Devendra Bishoo", "shortName": "Bishoo", "fullName": "Devendra Bishoo", "displayName": "Devendra Bishoo"}, "team": {"id": "4", "name": "West Indies", "abbreviation": "WI", "displayName": "West Indies"}, "totalRuns": 5, "faced": 9, "fours": 0, "runs": 196, "sixes": 0}, "otherBatsman": {"athlete": {"id": "581379", "name": "Shai Hope", "shortName": "Hope", "fullName": "Shai Diego Hope", "displayName": "Shai Hope"}, "team": {"id": "4", "name": "West Indies", "abbreviation": "WI", "displayName": "West Indies"}, "totalRuns": 107, "faced": 130, "fours": 9, "runs": 0, "sixes": 1}, "innings": {"id": "211220", "runRate": 3.97, "remainingBalls": 4, "byes": 0, "number": 1, "balls": 296, "noBalls": 0, "wickets": 9, "legByes": 0, "ballLimit": 300, "target": 0, "session": 1, "day": 1, "fallOfWickets": 0, "remainingOvers": 0.0, "totalRuns": 1, "wides": 0, "runs": 196}, "over": {"ball": 2, "balls": 6, "complete": false, "limit": 50.0, "maiden": 0, "noBall": 0, "wide": 0, "byes": 0, "legByes": 0, "number": 50, "runs": 4, "wickets": 0, "overs": 49.2, "actual": 49.2, "unique": 49.02}, "dismissal": {"dismissal": false, "bowled": false, "type": "", "bowler": {"athlete": {"id": "629070", "name": "Mohammad Saifuddin", "shortName": "Saifuddin", "fullName": "Mohammad Saifuddin", "displayName": "Mohammad Saifuddin"}}, "batsman": {"athlete": {"id": "341593", "name": "Devendra Bishoo", "shortName": "Bishoo", "fullName": "Devendra Bishoo", "displayName": "Devendra Bishoo"}}, "fielder": {"athlete": {}}, "minutes": 0, "retiredText": ""}}, {"id": "149030", "clock": "00:00", "date": "2018-12-14T12:00", "playType": {"id": "1", "description": "run"}, "team": {"id": "4", "name": "West Indies", "abbreviation": "WI", "displayName": "West Indies"}, "mediaId": 0, "period": 1, "periodText": "1st innings", "preText": "", "text": "fuller outside off, flayed through cover but there is a man on the boundary", "postText": "", "shortText": "Mohammad Saifuddin to Hope, 1 run", "homeScore": "197/9", "awayScore": "0", "scoreValue": 1, "sequence": 104903, "athletesInvolved": [{"id": "629070", "name": "Mohammad Saifuddin", "shortName": "Saifuddin", "displayName": "Mohammad Saifuddin"}, {"id": "581379", "name": "Shai Hope", "shortName": "Hope", "displayName": "Shai Hope"}], "speedKPH": "134.377", "speedMPH": "83.498", "bowler": {"athlete": {"id": "629070", "name": "Mohammad Saifuddin", "shortName": "Saifuddin", "fullName": "Mohammad Saifuddin", "displayName": "Mohammad Saifuddin"}, "team": {"id": "25", "name": "Bangladesh", "abbreviation": "BDESH", "displayName": "Bangladesh"}, "maidens": 0, "balls": 51, "wickets": 1, "overs": 8.3, "conceded": 37}, "otherBowler": {"athlete": {"id": "330902", "name": "Mustafizur Rahman", "shortName": "Mustafizur", "fullName": "Mustafizur Rahman", "displayName": "Mustafizur Rahman"}, "team": {"id": "25", "name": "Bangladesh", "abbreviation": "BDESH", "displayName": "Bangladesh"}, "maidens": 1, "balls": 60, "wickets": 0, "overs": 10.0, "conceded": 33}, "batsman": {"athlete": {"id": "581379", "name": "Shai Hope", "shortName": "Hope", "fullName": "Shai Diego Hope", "displayName": "Shai Hope"}, "team": {"id": "4", "name": "West Indies", "abbreviation": "WI", "displayName": "West Indies"}, "totalRuns": 108, "faced": 131, "fours": 9, "runs": 197, "sixes": 1}, "otherBatsman": {"athlete": {"id": "341593", "name": "Devendra Bishoo", "shortName": "Bishoo", "fullName": "Devendra Bishoo", "displayName": "Devendra Bishoo"}, "team": {"id": "4", "name": "West Indies", "abbreviation": "WI", "displayName": "West Indies"}, "totalRuns": 5, "faced": 9, "fours": 0, "runs": 0, "sixes": 0}, "innings": {"id": "211220", "runRate": 3.97, "remainingBalls": 3, "byes": 0, "number": 1, "balls": 297, "noBalls": 0, "wickets": 9, "legByes": 0, "ballLimit": 300, "target": 0, "session": 1, "day": 1, "fallOfWickets": 0, "remainingOvers": 0.0, "totalRuns": 1, "wides": 0, "runs": 197}, "over": {"ball": 3, "balls": 6, "complete": false, "limit": 50.0, "maiden": 0, "noBall": 0, "wide": 0, "byes": 0, "legByes": 0, "number": 50, "runs": 4, "wickets": 0, "overs": 49.3, "actual": 49.3, "unique": 49.03}, "dismissal": {"dismissal": false, "bowled": false, "type": "", "bowler": {"athlete": {"id": "629070", "name": "Mohammad Saifuddin", "shortName": "Saifuddin", "fullName": "Mohammad Saifuddin", "displayName": "Mohammad Saifuddin"}}, "batsman": {"athlete": {"id": "581379", "name": "Shai Hope", "shortName": "Hope", "fullName": "Shai Diego Hope", "displayName": "Shai Hope"}}, "fielder": {"athlete": {}}, "minutes": 0, "retiredText": ""}}, {"id": "149040", "clock": "00:00", "date": "2018-12-14T12:00", "playType": {"id": "2", "description": "no run"}, "team": {"id": "4", "name": "West Indies", "abbreviation": "WI", "displayName": "West Indies"}, "mediaId": 0, "period": 1, "periodText": "1st innings", "preText": "Hope's got something in his eye, so there is a hold up in play while they run in with a cloth, and a drink. He'll be well hydrated for the last three balls then... Okay appears he was just feeling a bit giddy, not something in his eye. The heat is sapping I'm sure.", "text": "digs it in short, after seeing Bishoo try to back away. The ball goes past the batsman, with Bishoo pulling out of the shot", "postText": "", "shortText": "Mohammad Saifuddin to Bishoo, no run", "homeScore": "197/9", "awayScore": "0", "scoreValue": 0, "sequence": 104904, "athletesInvolved": [{"id": "629070", "name": "Mohammad Saifuddin", "shortName": "Saifuddin", "displayName": "Mohammad Saifuddin"}, {"id": "341593", "name": "Devendra Bishoo", "shortName": "Bishoo", "displayName": "Devendra Bishoo"}], "speedKPH": "130.997", "speedMPH": "81.398", "bowler": {"athlete": {"id": "629070", "name": "Mohammad Saifuddin", "shortName": "Saifuddin", "fullName": "Mohammad Saifuddin", "displayName": "Mohammad Saifuddin"}, "team": {"id": "25", "name": "Bangladesh", "abbreviation": "BDESH", "displayName": "Bangladesh"}, "maidens": 0, "balls": 52, "wickets": 1, "overs": 8.4, "conceded": 37}, "otherBowler": {"athlete": {"id": "330902", "name": "Mustafizur Rahman", "shortName": "Mustafizur", "fullName": "Mustafizur Rahman", "displayName": "Mustafizur Rahman"}, "team": {"id": "25", "name": "Bangladesh", "abbreviation": "BDESH", "displayName": "Bangladesh"}, "maidens": 1, "balls": 60, "wickets": 0, "overs": 10.0, "conceded": 33}, "batsman": {"athlete": {"id": "341593", "name": "Devendra Bishoo", "shortName": "Bishoo", "fullName": "Devendra Bishoo", "displayName": "Devendra Bishoo"}, "team": {"id": "4", "name": "West Indies", "abbreviation": "WI", "displayName": "West Indies"}, "totalRuns": 5, "faced": 10, "fours": 0, "runs": 197, "sixes": 0}, "otherBatsman": {"athlete": {"id": "581379", "name": "Shai Hope", "shortName": "Hope", "fullName": "Shai Diego Hope", "displayName": "Shai Hope"}, "team": {"id": "4", "name": "West Indies", "abbreviation": "WI", "displayName": "West Indies"}, "totalRuns": 108, "faced": 131, "fours": 9, "runs": 0, "sixes": 1}, "innings": {"id": "211220", "runRate": 3.96, "remainingBalls": 2, "byes": 0, "number": 1, "balls": 298, "noBalls": 0, "wickets": 9, "legByes": 0, "ballLimit": 300, "target": 0, "session": 1, "day": 1, "fallOfWickets": 0, "remainingOvers": 0.0, "totalRuns": 0, "wides": 0, "runs": 197}, "over": {"ball": 4, "balls": 6, "complete": false, "limit": 50.0, "maiden": 0, "noBall": 0, "wide": 0, "byes": 0, "legByes": 0, "number": 50, "runs": 4, "wickets": 0, "overs": 49.4, "actual": 49.4, "unique": 49.04}, "dismissal": {"dismissal": false, "bowled": false, "type": "", "bowler": {"athlete": {"id": "629070", "name": "Mohammad Saifuddin", "shortName": "Saifuddin", "fullName": "Mohammad Saifuddin", "displayName": "Mohammad Saifuddin"}}, "batsman": {"athlete": {"id": "341593", "name": "Devendra Bishoo", "shortName": "Bishoo", "fullName": "Devendra Bishoo", "displayName": "Devendra Bishoo"}}, "fielder": {"athlete": {}}, "minutes": 0, "retiredText": ""}}, {"id": "149050", "clock": "00:00", "date": "2018-12-14T12:00", "playType": {"id": "2", "description": "no run"}, "team": {"id": "4", "name": "West Indies", "abbreviation": "WI", "displayName": "West Indies"}, "mediaId": 0, "period": 1, "periodText": "1st innings", "preText": "", "text": "slower ball, goes under the bat. It was the off cutter so spun away from off and pat the stumps. Bishoo went down to sweep it into oblivion. Doesn't connect again", "postText": "", "shortText": "Mohammad Saifuddin to Bishoo, no run", "homeScore": "197/9", "awayScore": "0", "scoreValue": 0, "sequence": 104905, "athletesInvolved": [{"id": "629070", "name": "Mohammad Saifuddin", "shortName": "Saifuddin", "displayName": "Mohammad Saifuddin"}, {"id": "341593", "name": "Devendra Bishoo", "shortName": "Bishoo", "displayName": "Devendra Bishoo"}], "speedKPH": "87.022", "speedMPH": "54.073", "bowler": {"athlete": {"id": "629070", "name": "Mohammad Saifuddin", "shortName": "Saifuddin", "fullName": "Mohammad Saifuddin", "displayName": "Mohammad Saifuddin"}, "team": {"id": "25", "name": "Bangladesh", "abbreviation": "BDESH", "displayName": "Bangladesh"}, "maidens": 0, "balls": 53, "wickets": 1, "overs": 8.5, "conceded": 37}, "otherBowler": {"athlete": {"id": "330902", "name": "Mustafizur Rahman", "shortName": "Mustafizur", "fullName": "Mustafizur Rahman", "displayName": "Mustafizur Rahman"}, "team": {"id": "25", "name": "Bangladesh", "abbreviation": "BDESH", "displayName": "Bangladesh"}, "maidens": 1, "balls": 60, "wickets": 0, "overs": 10.0, "conceded": 33}, "batsman": {"athlete": {"id": "341593", "name": "Devendra Bishoo", "shortName": "Bishoo", "fullName": "Devendra Bishoo", "displayName": "Devendra Bishoo"}, "team": {"id": "4", "name": "West Indies", "abbreviation": "WI", "displayName": "West Indies"}, "totalRuns": 5, "faced": 11, "fours": 0, "runs": 197, "sixes": 0}, "otherBatsman": {"athlete": {"id": "581379", "name": "Shai Hope", "shortName": "Hope", "fullName": "Shai Diego Hope", "displayName": "Shai Hope"}, "team": {"id": "4", "name": "West Indies", "abbreviation": "WI", "displayName": "West Indies"}, "totalRuns": 108, "faced": 131, "fours": 9, "runs": 0, "sixes": 1}, "innings": {"id": "211220", "runRate": 3.95, "remainingBalls": 1, "byes": 0, "number": 1, "balls": 299, "noBalls": 0, "wickets": 9, "legByes": 0, "ballLimit": 300, "target": 0, "session": 1, "day": 1, "fallOfWickets": 0, "remainingOvers": 0.0, "totalRuns": 0, "wides": 0, "runs": 197}, "over": {"ball": 5, "balls": 6, "complete": false, "limit": 50.0, "maiden": 0, "noBall": 0, "wide": 0, "byes": 0, "legByes": 0, "number": 50, "runs": 4, "wickets": 0, "overs": 49.5, "actual": 49.5, "unique": 49.05}, "dismissal": {"dismissal": false, "bowled": false, "type": "", "bowler": {"athlete": {"id": "629070", "name": "Mohammad Saifuddin", "shortName": "Saifuddin", "fullName": "Mohammad Saifuddin", "displayName": "Mohammad Saifuddin"}}, "batsman": {"athlete": {"id": "341593", "name": "Devendra Bishoo", "shortName": "Bishoo", "fullName": "Devendra Bishoo", "displayName": "Devendra Bishoo"}}, "fielder": {"athlete": {}}, "minutes": 0, "retiredText": ""}}, {"id": "149060", "clock": "00:00", "date": "2018-12-14T12:00", "playType": {"id": "1", "description": "run"}, "team": {"id": "4", "name": "West Indies", "abbreviation": "WI", "displayName": "West Indies"}, "mediaId": 0, "period": 1, "periodText": "1st innings", "preText": "", "text": "good yorker off the last ball, Bishoo manages to get bat on it to dig it out to midwicket. They take the single.", "postText": "<b>3.50pm</b> West Indies have ended with a much below par 198 for 9. Everything about their innings was below-par, save the shining Shai Hope. He was batting as if on a different pitch against a different attack. If he had some support, West Indies might have easily got to 250, but it was pretty much a solo show. Join us in a bit for Bangladesh's chase", "shortText": "Mohammad Saifuddin to Bishoo, 1 run", "homeScore": "198/9", "awayScore": "0", "scoreValue": 1, "sequence": 104906, "athletesInvolved": [{"id": "629070", "name": "Mohammad Saifuddin", "shortName": "Saifuddin", "displayName": "Mohammad Saifuddin"}, {"id": "341593", "name": "Devendra Bishoo", "shortName": "Bishoo", "displayName": "Devendra Bishoo"}], "speedKPH": "129.649", "speedMPH": "80.560", "bowler": {"athlete": {"id": "629070", "name": "Mohammad Saifuddin", "shortName": "Saifuddin", "fullName": "Mohammad Saifuddin", "displayName": "Mohammad Saifuddin"}, "team": {"id": "25", "name": "Bangladesh", "abbreviation": "BDESH", "displayName": "Bangladesh"}, "maidens": 0, "balls": 54, "wickets": 1, "overs": 9.0, "conceded": 38}, "otherBowler": {"athlete": {"id": "330902", "name": "Mustafizur Rahman", "shortName": "Mustafizur", "fullName": "Mustafizur Rahman", "displayName": "Mustafizur Rahman"}, "team": {"id": "25", "name": "Bangladesh", "abbreviation": "BDESH", "displayName": "Bangladesh"}, "maidens": 1, "balls": 60, "wickets": 0, "overs": 10.0, "conceded": 33}, "batsman": {"athlete": {"id": "341593", "name": "Devendra Bishoo", "shortName": "Bishoo", "fullName": "Devendra Bishoo", "displayName": "Devendra Bishoo"}, "team": {"id": "4", "name": "West Indies", "abbreviation": "WI", "displayName": "West Indies"}, "totalRuns": 6, "faced": 12, "fours": 0, "runs": 198, "sixes": 0}, "otherBatsman": {"athlete": {"id": "581379", "name": "Shai Hope", "shortName": "Hope", "fullName": "Shai Diego Hope", "displayName": "Shai Hope"}, "team": {"id": "4", "name": "West Indies", "abbreviation": "WI", "displayName": "West Indies"}, "totalRuns": 108, "faced": 131, "fours": 9, "runs": 0, "sixes": 1}, "innings": {"id": "211220", "runRate": 3.96, "remainingBalls": 0, "byes": 0, "number": 1, "balls": 300, "noBalls": 0, "wickets": 9, "legByes": 0, "ballLimit": 300, "target": 0, "session": 1, "day": 1, "fallOfWickets": 0, "remainingOvers": 0.0, "totalRuns": 1, "wides": 0, "runs": 198}, "over": {"ball": 6, "balls": 6, "complete": true, "limit": 50.0, "maiden": 0, "noBall": 0, "wide": 0, "byes": 0, "legByes": 0, "number": 50, "runs": 4, "wickets": 0, "overs": 49.6, "actual": 49.6, "unique": 49.06}, "dismissal": {"dismissal": false, "bowled": false, "type": "", "bowler": {"athlete": {"id": "629070", "name": "Mohammad Saifuddin", "shortName": "Saifuddin", "fullName": "Mohammad Saifuddin", "displayName": "Mohammad Saifuddin"}}, "batsman": {"athlete": {"id": "341593", "name": "Devendra Bishoo", "shortName": "Bishoo", "fullName": "Devendra Bishoo", "displayName": "Devendra Bishoo"}}, "fielder": {"athlete": {}}, "minutes": 0, "retiredText": ""}}]}}