{"commentary": {"count": 303, "pageIndex": 13, "pageSize": 25, "pageCount": 13, "items": [{"id": "149040", "clock": "00:00", "date": "2019-05-13T10:45", "playType": {"id": "4", "description": "six"}, "team": {"id": "4", "name": "West Indies", "abbreviation": "WI", "displayName": "West Indies"}, "mediaId": 0, "period": 1, "periodText": "1st innings", "preText": "", "text": "pulls the short ball, angled into him, trying to cramp him up. And the top edge carries it over the ropes at long leg", "postText": "M A Hossain Ton: \"Looks like The Fizz is back before the WC 2019!\"", "shortText": "Abu Jayed to Cottrell, SIX runs", "homeScore": "245/9", "awayScore": "0", "scoreValue": 6, "sequence": 104904, "athletesInvolved": [{"id": "495551", "name": "Sheldon Cottrell", "shortName": "Cottrell", "displayName": "Sheldon Cottrell"}, {"id": "410763", "name": "Abu Jayed", "shortName": "Abu Jayed", "displayName": "Abu Jayed"}], "speedKPH": "", "speedMPH": "", "bowler": {"athlete": {"id": "410763", "name": "Abu Jayed", "shortName": "Abu Jayed", "fullName": "Abu Jayed Chowdhury", "displayName": "Abu Jayed"}, "team": {"id": "25", "name": "Bangladesh", "abbreviation": "BDESH", "displayName": "Bangladesh"}, "maidens": 0, "balls": 52, "wickets": 0, "overs": 8.4, "conceded": 54}, "otherBowler": {"athlete": {"id": "330902", "name": "Mustafizur Rahman", "shortName": "Mustafizur", "fullName": "Mustafizur Rahman", "displayName": "Mustafizur Rahman"}, "team": {"id": "25", "name": "Bangladesh", "abbreviation": "BDESH", "displayName": "Bangladesh"}, "maidens": 1, "balls": 54, "wickets": 4, "overs": 9.0, "conceded": 43}, "batsman": {"athlete": {"id": "495551", "name": "Sheldon Cottrell", "shortName": "Cottrell", "fullName": "Sheldon Shane Cottrell", "displayName": "Sheldon Cottrell"}, "team": {"id": "4", "name": "West Indies", "abbreviation": "WI", "displayName": "West Indies"}, "totalRuns": 7, "faced": 3, "fours": 0, "runs": 245, "sixes": 1}, "otherBatsman": {"athlete": {"id": "230553", "name": "Kemar Roach", "shortName": "Roach", "fullName": "Kemar Andre Jamal Roach", "displayName": "Kemar Roach"}, "team": {"id": "4", "name": "West Indies", "abbreviation": "WI", "displayName": "West Indies"}, "totalRuns": 2, "faced": 3, "fours": 0, "runs": 0, "sixes": 0}, "innings": {"id": "215659", "runRate": 4.93, "remainingBalls": 2, "byes": 0, "number": 1, "balls": 298, "noBalls": 0, "wickets": 9, "legByes": 0, "ballLimit": 300, "target": 0, "session": 1, "day": 1, "fallOfWickets": 0, "remainingOvers": 0.0, "totalRuns": 6, "wides": 0, "runs": 245}, "over": {"ball": 4, "balls": 6, "complete": false, "limit": 50.0, "maiden": 0, "noBall": 0, "wide": 0, "byes": 0, "legByes": 0, "number": 50, "runs": 11, "wickets": 0, "overs": 49.4, "actual": 49.4, "unique": 49.04}, "dismissal": {"dismissal": false, "bowled": false, "type": "", "bowler": {"athlete": {"id": "410763", "name": "Abu Jayed", "shortName": "Abu Jayed", "fullName": "Abu Jayed Chowdhury", "displayName": "Abu Jayed"}}, "batsman": {"athlete": {"id": "495551", "name": "Sheldon Cottrell", "shortName": "Cottrell", "fullName": "Sheldon Shane Cottrell", "displayName": "Sheldon Cottrell"}}, "fielder": {"athlete": {}}, "minutes": 0, "retiredText": ""}}, {"id": "149050", "clock": "00:00", "date": "2019-05-13T10:45", "playType": {"id": "1", "description": "run"}, "team": {"id": "4", "name": "West Indies", "abbreviation": "WI", "displayName": "West Indies"}, "mediaId": 0, "period": 1, "periodText": "1st innings", "preText": "", "text": "full and outside leg, he whacks it to deep midwicket", "postText": "", "shortText": "Abu Jayed to Cottrell, 1 run", "homeScore": "246/9", "awayScore": "0", "scoreValue": 1, "sequence": 104905, "athletesInvolved": [{"id": "495551", "name": "Sheldon Cottrell", "shortName": "Cottrell", "displayName": "Sheldon Cottrell"}, {"id": "410763", "name": "Abu Jayed", "shortName": "Abu Jayed", "displayName": "Abu Jayed"}], "speedKPH": "", "speedMPH": "", "bowler": {"athlete": {"id": "410763", "name": "Abu Jayed", "shortName": "Abu Jayed", "fullName": "Abu Jayed Chowdhury", "displayName": "Abu Jayed"}, "team": {"id": "25", "name": "Bangladesh", "abbreviation": "BDESH", "displayName": "Bangladesh"}, "maidens": 0, "balls": 53, "wickets": 0, "overs": 8.5, "conceded": 55}, "otherBowler": {"athlete": {"id": "330902", "name": "Mustafizur Rahman", "shortName": "Mustafizur", "fullName": "Mustafizur Rahman", "displayName": "Mustafizur Rahman"}, "team": {"id": "25", "name": "Bangladesh", "abbreviation": "BDESH", "displayName": "Bangladesh"}, "maidens": 1, "balls": 54, "wickets": 4, "overs": 9.0, "conceded": 43}, "batsman": {"athlete": {"id": "495551", "name": "Sheldon Cottrell", "shortName": "Cottrell", "fullName": "Sheldon Shane Cottrell", "displayName": "Sheldon Cottrell"}, "team": {"id": "4", "name": "West Indies", "abbreviation": "WI", "displayName": "West Indies"}, "totalRuns": 8, "faced": 4, "fours": 0, "runs": 246, "sixes": 1}, "otherBatsman": {"athlete": {"id": "230553", "name": "Kemar Roach", "shortName": "Roach", "fullName": "Kemar Andre Jamal Roach", "displayName": "Kemar Roach"}, "team": {"id": "4", "name": "West Indies", "abbreviation": "WI", "displayName": "West Indies"}, "totalRuns": 2, "faced": 3, "fours": 0, "runs": 0, "sixes": 0}, "innings": {"id": "215659", "runRate": 4.93, "remainingBalls": 1, "byes": 0, "number": 1, "balls": 299, "noBalls": 0, "wickets": 9, "legByes": 0, "ballLimit": 300, "target": 0, "session": 1, "day": 1, "fallOfWickets": 0, "remainingOvers": 0.0, "totalRuns": 1, "wides": 0, "runs": 246}, "over": {"ball": 5, "balls": 6, "complete": false, "limit": 50.0, "maiden": 0, "noBall": 0, "wide": 0, "byes": 0, "legByes": 0, "number": 50, "runs": 11, "wickets": 0, "overs": 49.5, "actual": 49.5, "unique": 49.05}, "dismissal": {"dismissal": false, "bowled": false, "type": "", "bowler": {"athlete": {"id": "410763", "name": "Abu Jayed", "shortName": "Abu Jayed", "fullName": "Abu Jayed Chowdhury", "displayName": "Abu Jayed"}}, "batsman": {"athlete": {"id": "495551", "name": "Sheldon Cottrell", "shortName": "Cottrell", "fullName": "Sheldon Shane Cottrell", "displayName": "Sheldon Cottrell"}}, "fielder": {"athlete": {}}, "minutes": 0, "retiredText": ""}}, {"id": "149060", "clock": "00:00", "date": "2019-05-13T10:45", "playType": {"id": "1", "description": "run"}, "team": {"id": "4", "name": "West Indies", "abbreviation": "WI", "displayName": "West Indies"}, "mediaId": 0, "period": 1, "periodText": "1st innings", "preText": "", "text": "flat bats a length ball down the pitch and it hits Jayed the bowler and wanders away to the leg side", "postText": "West Indies have a place in the final sealed and Bangladesh will meet them if they win this game and seeing how the first innings has gone, Mashrafe Mortaza will fancy his chances. The captain didn't have the greatest start - he looked down on pace and very very stiff - but as he got into his spell, he got things going his way. Three wickets for him, and four to Mustafizur as well, his slower balls working the trick once again. Bangladesh will be pleased he's hit form close to the World Cup. Add to that Shakib's brilliant spell 10-1-27-1 and Mehidy's beautiful control and they've had a pretty good day in the sun. \n\n\nWest Indies, meanwhile, just didn't know what to do in the middle overs. Shai Hope did his best to bat deep, looking good for a third hundred in four games, this should be seen as a missed opportunity. West Indies just did not have any plans to score off the Bangladesh spinners once the field was spread. They kept playing for turn when there wasn't any \n\nFim: \"I think mashrafe did his best effort to bring Bangladesh world stage. We should respect him as a captain, bowler and his personality also.\"", "shortText": "Abu Jayed to Roach, 1 run", "homeScore": "247/9", "awayScore": "0", "scoreValue": 1, "sequence": 104906, "athletesInvolved": [{"id": "230553", "name": "Kemar Roach", "shortName": "Roach", "displayName": "Kemar Roach"}, {"id": "410763", "name": "Abu Jayed", "shortName": "Abu Jayed", "displayName": "Abu Jayed"}], "speedKPH": "", "speedMPH": "", "bowler": {"athlete": {"id": "410763", "name": "Abu Jayed", "shortName": "Abu Jayed", "fullName": "Abu Jayed Chowdhury", "displayName": "Abu Jayed"}, "team": {"id": "25", "name": "Bangladesh", "abbreviation": "BDESH", "displayName": "Bangladesh"}, "maidens": 0, "balls": 54, "wickets": 0, "overs": 9.0, "conceded": 56}, "otherBowler": {"athlete": {"id": "330902", "name": "Mustafizur Rahman", "shortName": "Mustafizur", "fullName": "Mustafizur Rahman", "displayName": "Mustafizur Rahman"}, "team": {"id": "25", "name": "Bangladesh", "abbreviation": "BDESH", "displayName": "Bangladesh"}, "maidens": 1, "balls": 54, "wickets": 4, "overs": 9.0, "conceded": 43}, "batsman": {"athlete": {"id": "230553", "name": "Kemar Roach", "shortName": "Roach", "fullName": "Kemar Andre Jamal Roach", "displayName": "Kemar Roach"}, "team": {"id": "4", "name": "West Indies", "abbreviation": "WI", "displayName": "West Indies"}, "totalRuns": 3, "faced": 4, "fours": 0, "runs": 247, "sixes": 0}, "otherBatsman": {"athlete": {"id": "495551", "name": "Sheldon Cottrell", "shortName": "Cottrell", "fullName": "Sheldon Shane Cottrell", "displayName": "Sheldon Cottrell"}, "team": {"id": "4", "name": "West Indies", "abbreviation": "WI", "displayName": "West Indies"}, "totalRuns": 8, "faced": 4, "fours": 0, "runs": 0, "sixes": 1}, "innings": {"id": "215659", "runRate": 4.94, "remainingBalls": 0, "byes": 0, "number": 1, "balls": 300, "noBalls": 0, "wickets": 9, "legByes": 0, "ballLimit": 300, "target": 0, "session": 1, "day": 1, "fallOfWickets": 0, "remainingOvers": 0.0, "totalRuns": 1, "wides": 0, "runs": 247}, "over": {"ball": 6, "balls": 6, "complete": true, "limit": 50.0, "maiden": 0, "noBall": 0, "wide": 0, "byes": 0, "legByes": 0, "number": 48, "runs": 5, "wickets": 0, "overs": 49.6, "actual": 49.6, "unique": 49.06}, "dismissal": {"dismissal": false, "bowled": false, "type": "", "bowler": {"athlete": {"id": "410763", "name": "Abu Jayed", "shortName": "Abu Jayed", "fullName": "Abu Jayed Chowdhury", "displayName": "Abu Jayed"}}, "batsman": {"athlete": {"id": "230553", "name": "Kemar Roach", "shortName": "Roach", "fullName": "Kemar Andre Jamal Roach", "displayName": "Kemar Roach"}}, "fielder": {"athlete": {}}, "minutes": 0, "retiredText": ""}}]}}