{"commentary": {"count": 302, "pageIndex": 13, "pageSize": 25, "pageCount": 13, "items": [{"id": "149050", "clock": "00:00", "date": "2018-10-26T14:30", "playType": {"id": "1", "description": "run"}, "team": {"id": "9", "name": "Zimbabwe", "abbreviation": "ZIM", "displayName": "Zimbabwe"}, "mediaId": 0, "period": 1, "periodText": "1st innings", "preText": "", "text": "fuller outside off, Chigumbura steers it through covers for a single", "postText": "", "shortText": "Mohammad Saifuddin to Chigumbura, 1 run", "homeScore": "286/5", "awayScore": "0", "scoreValue": 1, "sequence": 104905, "athletesInvolved": [{"id": "629070", "name": "Mohammad Saifuddin", "shortName": "Saifuddin", "displayName": "Mohammad Saifuddin"}, {"id": "55343", "name": "Elton Chigumbura", "shortName": "Chigumbura", "displayName": "Elton Chigumbura"}], "speedKPH": "131.780", "speedMPH": "81.884", "bowler": {"athlete": {"id": "629070", "name": "Mohammad Saifuddin", "shortName": "Saifuddin", "fullName": "Mohammad Saifuddin", "displayName": "Mohammad Saifuddin"}, "team": {"id": "25", "name": "Bangladesh", "abbreviation": "BDESH", "displayName": "Bangladesh"}, "maidens": 2, "balls": 59, "wickets": 1, "overs": 9.5, "conceded": 51}, "otherBowler": {"athlete": {"id": "550137", "name": "Abu Hider", "shortName": "Abu Hider", "fullName": "Abu Hider Rony", "displayName": "Abu Hider"}, "team": {"id": "25", "name": "Bangladesh", "abbreviation": "BDESH", "displayName": "Bangladesh"}, "maidens": 1, "balls": 54, "wickets": 1, "overs": 9.0, "conceded": 39}, "batsman": {"athlete": {"id": "55343", "name": "Elton Chigumbura", "shortName": "Chigumbura", "fullName": "Elton Chigumbura", "displayName": "Elton Chigumbura"}, "team": {"id": "9", "name": "Zimbabwe", "abbreviation": "ZIM", "displayName": "Zimbabwe"}, "totalRuns": 1, "faced": 1, "fours": 0, "runs": 286, "sixes": 0}, "otherBatsman": {"athlete": {"id": "55870", "name": "Sean Williams", "shortName": "Williams", "fullName": "Sean Colin Williams", "displayName": "Sean Williams"}, "team": {"id": "9", "name": "Zimbabwe", "abbreviation": "ZIM", "displayName": "Zimbabwe"}, "totalRuns": 129, "faced": 142, "fours": 10, "runs": 0, "sixes": 1}, "innings": {"id": "209771", "runRate": 5.73, "remainingBalls": 1, "byes": 0, "number": 1, "balls": 299, "noBalls": 0, "wickets": 5, "legByes": 0, "ballLimit": 300, "target": 0, "session": 1, "day": 1, "fallOfWickets": 0, "remainingOvers": 0.0, "totalRuns": 1, "wides": 0, "runs": 286}, "over": {"ball": 5, "balls": 6, "complete": false, "limit": 50.0, "maiden": 0, "noBall": 0, "wide": 0, "byes": 0, "legByes": 0, "number": 50, "runs": 4, "wickets": 1, "overs": 49.5, "actual": 49.5, "unique": 49.05}, "dismissal": {"dismissal": false, "bowled": false, "type": "", "bowler": {"athlete": {"id": "629070", "name": "Mohammad Saifuddin", "shortName": "Saifuddin", "fullName": "Mohammad Saifuddin", "displayName": "Mohammad Saifuddin"}}, "batsman": {"athlete": {"id": "55343", "name": "Elton Chigumbura", "shortName": "Chigumbura", "fullName": "Elton Chigumbura", "displayName": "Elton Chigumbura"}}, "fielder": {"athlete": {}}, "minutes": 0, "retiredText": ""}}, {"id": "149060", "clock": "00:00", "date": "2018-10-26T14:30", "playType": {"id": "2", "description": "no run"}, "team": {"id": "9", "name": "Zimbabwe", "abbreviation": "ZIM", "displayName": "Zimbabwe"}, "mediaId": 0, "period": 1, "periodText": "1st innings", "preText": "", "text": "and a dot to finish with. It was in the blockhole and Williams could dig it out only back towards the bowler", "postText": "<b>6.00pm</b> A great recovery by Zimbabwe after they were 7 for 2 at the end of five overs. It started with Brendan Taylor and Sean Williams leading a recovery. Taylor was dismissed for 75 but Williams carried on and brought up his highest ODI score. He got good support from Sikandar Raza and Peter Moor as Zimbabwe finished with 286 for 5. It won't be an easy chase for Bangladesh, but would dew play a part? We will be back soon to find out.", "shortText": "Mohammad Saifuddin to Williams, no run", "homeScore": "286/5", "awayScore": "0", "scoreValue": 0, "sequence": 104906, "athletesInvolved": [{"id": "629070", "name": "Mohammad Saifuddin", "shortName": "Saifuddin", "displayName": "Mohammad Saifuddin"}, {"id": "55870", "name": "Sean Williams", "shortName": "Williams", "displayName": "Sean Williams"}], "speedKPH": "132.644", "speedMPH": "82.421", "bowler": {"athlete": {"id": "629070", "name": "Mohammad Saifuddin", "shortName": "Saifuddin", "fullName": "Mohammad Saifuddin", "displayName": "Mohammad Saifuddin"}, "team": {"id": "25", "name": "Bangladesh", "abbreviation": "BDESH", "displayName": "Bangladesh"}, "maidens": 2, "balls": 60, "wickets": 1, "overs": 10.0, "conceded": 51}, "otherBowler": {"athlete": {"id": "550137", "name": "Abu Hider", "shortName": "Abu Hider", "fullName": "Abu Hider Rony", "displayName": "Abu Hider"}, "team": {"id": "25", "name": "Bangladesh", "abbreviation": "BDESH", "displayName": "Bangladesh"}, "maidens": 1, "balls": 54, "wickets": 1, "overs": 9.0, "conceded": 39}, "batsman": {"athlete": {"id": "55870", "name": "Sean Williams", "shortName": "Williams", "fullName": "Sean Colin Williams", "displayName": "Sean Williams"}, "team": {"id": "9", "name": "Zimbabwe", "abbreviation": "ZIM", "displayName": "Zimbabwe"}, "totalRuns": 129, "faced": 143, "fours": 10, "runs": 286, "sixes": 1}, "otherBatsman": {"athlete": {"id": "55343", "name": "Elton Chigumbura", "shortName": "Chigumbura", "fullName": "Elton Chigumbura", "displayName": "Elton Chigumbura"}, "team": {"id": "9", "name": "Zimbabwe", "abbreviation": "ZIM", "displayName": "Zimbabwe"}, "totalRuns": 1, "faced": 1, "fours": 0, "runs": 0, "sixes": 0}, "innings": {"id": "209771", "runRate": 5.72, "remainingBalls": 0, "byes": 0, "number": 1, "balls": 300, "noBalls": 0, "wickets": 5, "legByes": 0, "ballLimit": 300, "target": 0, "session": 1, "day": 1, "fallOfWickets": 0, "remainingOvers": 0.0, "totalRuns": 0, "wides": 0, "runs": 286}, "over": {"ball": 6, "balls": 6, "complete": true, "limit": 50.0, "maiden": 0, "noBall": 0, "wide": 0, "byes": 0, "legByes": 0, "number": 50, "runs": 4, "wickets": 1, "overs": 49.6, "actual": 49.6, "unique": 49.06}, "dismissal": {"dismissal": false, "bowled": false, "type": "", "bowler": {"athlete": {"id": "629070", "name": "Mohammad Saifuddin", "shortName": "Saifuddin", "fullName": "Mohammad Saifuddin", "displayName": "Mohammad Saifuddin"}}, "batsman": {"athlete": {"id": "55870", "name": "Sean Williams", "shortName": "Williams", "fullName": "Sean Colin Williams", "displayName": "Sean Williams"}}, "fielder": {"athlete": {}}, "minutes": 0, "retiredText": ""}}]}}